(module SOIC-14_3.9x8.7mm_P1.27mm (layer F.Cu) (tedit 464191402)
  (tags "SOP 1.27")
  (attr smd)
  (fp_text reference REF** (at 0 -5.35) (layer F.SilkS)
    (effects (font (size 1 1) (thickness 0.15)))
  )
  (fp_text value SOIC-14_3.9x8.7mm_P1.27mm (at 0 5.35) (layer F.Fab)
    (effects (font (size 1 1) (thickness 0.15)))
  )
  (fp_text user %R (at 0 0) (layer F.Fab)
    (effects (font (size 1 1) (thickness 0.15)))
  )
  (fp_line (start -0.950 -4.350) (end  1.950 -4.350) (layer F.Fab) (width 0.15))
  (fp_line (start  1.950 -4.350) (end  1.950  4.350) (layer F.Fab) (width 0.15))
  (fp_line (start  1.950  4.350) (end -1.950  4.350) (layer F.Fab) (width 0.15))
  (fp_line (start -1.950  4.350) (end -1.950 -3.350) (layer F.Fab) (width 0.15))
  (fp_line (start -1.950 -3.350) (end -0.950 -4.350) (layer F.Fab) (width 0.15))
  (fp_line (start -3.000  4.350) (end -3.000 -4.350) (layer F.Fab) (width 0.05))
  (fp_line (start -1.950  4.350) (end -1.950 -4.350) (layer F.Fab) (width 0.05))
  (fp_line (start  3.000  4.350) (end  3.000 -4.350) (layer F.Fab) (width 0.05))
  (fp_line (start  1.950  4.350) (end  1.950 -4.350) (layer F.Fab) (width 0.05))
  (fp_line (start -3.225 -4.575) (end  3.225 -4.575) (layer F.CrtYd) (width 0.05))
  (fp_line (start  3.225 -4.575) (end  3.225  4.575) (layer F.CrtYd) (width 0.05))
  (fp_line (start  3.225  4.575) (end -3.225  4.575) (layer F.CrtYd) (width 0.05))
  (fp_line (start -3.225  4.575) (end -3.225 -4.575) (layer F.CrtYd) (width 0.05))
  (fp_line (start -2.100  4.500) (end  2.100  4.500) (layer F.SilkS) (width 0.15))
  (fp_line (start -2.100  4.500) (end -2.100  4.350) (layer F.SilkS) (width 0.15))
  (fp_line (start  2.100  4.500) (end  2.100  4.350) (layer F.SilkS) (width 0.15))
  (fp_line (start -2.100 -4.500) (end  2.100 -4.500) (layer F.SilkS) (width 0.15))
  (fp_line (start -2.100 -4.500) (end -2.100 -4.350) (layer F.SilkS) (width 0.15))
  (fp_line (start  2.100 -4.500) (end  2.100 -4.350) (layer F.SilkS) (width 0.15))
  (fp_line (start -2.100 -4.350) (end -3.225 -4.350) (layer F.SilkS) (width 0.15))
  (pad  1 smd rect (at -2.475 -3.810) (size 1.500 0.600) (layers F.Cu F.Paste F.Mask))
  (pad 14 smd rect (at  2.475 -3.810) (size 1.500 0.600) (layers F.Cu F.Paste F.Mask))
  (pad  2 smd rect (at -2.475 -2.540) (size 1.500 0.600) (layers F.Cu F.Paste F.Mask))
  (pad 13 smd rect (at  2.475 -2.540) (size 1.500 0.600) (layers F.Cu F.Paste F.Mask))
  (pad  3 smd rect (at -2.475 -1.270) (size 1.500 0.600) (layers F.Cu F.Paste F.Mask))
  (pad 12 smd rect (at  2.475 -1.270) (size 1.500 0.600) (layers F.Cu F.Paste F.Mask))
  (pad  4 smd rect (at -2.475  0.000) (size 1.500 0.600) (layers F.Cu F.Paste F.Mask))
  (pad 11 smd rect (at  2.475  0.000) (size 1.500 0.600) (layers F.Cu F.Paste F.Mask))
  (pad  5 smd rect (at -2.475  1.270) (size 1.500 0.600) (layers F.Cu F.Paste F.Mask))
  (pad 10 smd rect (at  2.475  1.270) (size 1.500 0.600) (layers F.Cu F.Paste F.Mask))
  (pad  6 smd rect (at -2.475  2.540) (size 1.500 0.600) (layers F.Cu F.Paste F.Mask))
  (pad  9 smd rect (at  2.475  2.540) (size 1.500 0.600) (layers F.Cu F.Paste F.Mask))
  (pad  7 smd rect (at -2.475  3.810) (size 1.500 0.600) (layers F.Cu F.Paste F.Mask))
  (pad  8 smd rect (at  2.475  3.810) (size 1.500 0.600) (layers F.Cu F.Paste F.Mask))
)
