(module SOIC-8_5.3x5.3mm_P1.27mm (layer F.Cu) (tedit 692514687)
  (tags "SOP 1.27")
  (attr smd)
  (fp_text reference REF** (at 0 -3.65) (layer F.SilkS)
    (effects (font (size 1 1) (thickness 0.15)))
  )
  (fp_text value SOIC-8_5.3x5.3mm_P1.27mm (at 0 3.65) (layer F.Fab)
    (effects (font (size 1 1) (thickness 0.15)))
  )
  (fp_text user %R (at 0 0) (layer F.Fab)
    (effects (font (size 1 1) (thickness 0.15)))
  )
  (fp_line (start -1.650 -2.650) (end  2.650 -2.650) (layer F.Fab) (width 0.15))
  (fp_line (start  2.650 -2.650) (end  2.650  2.650) (layer F.Fab) (width 0.15))
  (fp_line (start  2.650  2.650) (end -2.650  2.650) (layer F.Fab) (width 0.15))
  (fp_line (start -2.650  2.650) (end -2.650 -1.650) (layer F.Fab) (width 0.15))
  (fp_line (start -2.650 -1.650) (end -1.650 -2.650) (layer F.Fab) (width 0.15))
  (fp_line (start -3.950  2.650) (end -3.950 -2.650) (layer F.Fab) (width 0.05))
  (fp_line (start -2.900  2.650) (end -2.900 -2.650) (layer F.Fab) (width 0.05))
  (fp_line (start  3.950  2.650) (end  3.950 -2.650) (layer F.Fab) (width 0.05))
  (fp_line (start  2.900  2.650) (end  2.900 -2.650) (layer F.Fab) (width 0.05))
  (fp_line (start -4.175 -2.875) (end  4.175 -2.875) (layer F.CrtYd) (width 0.05))
  (fp_line (start  4.175 -2.875) (end  4.175  2.875) (layer F.CrtYd) (width 0.05))
  (fp_line (start  4.175  2.875) (end -4.175  2.875) (layer F.CrtYd) (width 0.05))
  (fp_line (start -4.175  2.875) (end -4.175 -2.875) (layer F.CrtYd) (width 0.05))
  (fp_line (start -2.800  2.800) (end  2.800  2.800) (layer F.SilkS) (width 0.15))
  (fp_line (start -2.800  2.800) (end -2.800  2.650) (layer F.SilkS) (width 0.15))
  (fp_line (start  2.800  2.800) (end  2.800  2.650) (layer F.SilkS) (width 0.15))
  (fp_line (start -2.800 -2.800) (end  2.800 -2.800) (layer F.SilkS) (width 0.15))
  (fp_line (start -2.800 -2.800) (end -2.800 -2.650) (layer F.SilkS) (width 0.15))
  (fp_line (start  2.800 -2.800) (end  2.800 -2.650) (layer F.SilkS) (width 0.15))
  (fp_line (start -2.800 -2.650) (end -4.175 -2.650) (layer F.SilkS) (width 0.15))
  (pad  1 smd rect (at -3.425 -1.905) (size 1.500 0.600) (layers F.Cu F.Paste F.Mask))
  (pad  8 smd rect (at  3.425 -1.905) (size 1.500 0.600) (layers F.Cu F.Paste F.Mask))
  (pad  2 smd rect (at -3.425 -0.635) (size 1.500 0.600) (layers F.Cu F.Paste F.Mask))
  (pad  7 smd rect (at  3.425 -0.635) (size 1.500 0.600) (layers F.Cu F.Paste F.Mask))
  (pad  3 smd rect (at -3.425  0.635) (size 1.500 0.600) (layers F.Cu F.Paste F.Mask))
  (pad  6 smd rect (at  3.425  0.635) (size 1.500 0.600) (layers F.Cu F.Paste F.Mask))
  (pad  4 smd rect (at -3.425  1.905) (size 1.500 0.600) (layers F.Cu F.Paste F.Mask))
  (pad  5 smd rect (at  3.425  1.905) (size 1.500 0.600) (layers F.Cu F.Paste F.Mask))
)
