(kicad_pcb (version 4) (host pcbnew 4.0.1-3.201512221402+6198~38~ubuntu14.04.1-stable)

  (general
    (links 0)
    (no_connects 0)
    (area 0 0 0 0)
    (thickness 1.6)
    (drawings 0)
    (tracks 0)
    (zones 0)
    (modules 1)
    (nets 1)
  )

  (page A4)
  (layers
    (0 F.Cu signal)
    (31 B.Cu signal)
    (32 B.Adhes user)
    (33 F.Adhes user)
    (34 B.Paste user)
    (35 F.Paste user)
    (36 B.SilkS user)
    (37 F.SilkS user)
    (38 B.Mask user)
    (39 F.Mask user)
    (40 Dwgs.User user)
    (41 Cmts.User user)
    (42 Eco1.User user)
    (43 Eco2.User user)
    (44 Edge.Cuts user)
    (45 Margin user)
    (46 B.CrtYd user)
    (47 F.CrtYd user)
    (48 B.Fab user)
    (49 F.Fab user)
  )

  (setup
    (last_trace_width 0.25)
    (trace_clearance 0.2)
    (zone_clearance 0.508)
    (zone_45_only no)
    (trace_min 0.2)
    (segment_width 0.2)
    (edge_width 0.1)
    (via_size 0.6)
    (via_drill 0.4)
    (via_min_size 0.4)
    (via_min_drill 0.3)
    (uvia_size 0.3)
    (uvia_drill 0.1)
    (uvias_allowed no)
    (uvia_min_size 0.2)
    (uvia_min_drill 0.1)
    (pcb_text_width 0.3)
    (pcb_text_size 1.5 1.5)
    (mod_edge_width 0.15)
    (mod_text_size 1 1)
    (mod_text_width 0.15)
    (pad_size 1.5 1.5)
    (pad_drill 0.6)
    (pad_to_mask_clearance 0)
    (aux_axis_origin 0 0)
    (visible_elements FFFFFF7F)
    (pcbplotparams
      (layerselection 0x00030_80000001)
      (usegerberextensions false)
      (excludeedgelayer true)
      (linewidth 0.100000)
      (plotframeref false)
      (viasonmask false)
      (mode 1)
      (useauxorigin false)
      (hpglpennumber 1)
      (hpglpenspeed 20)
      (hpglpendiameter 15)
      (hpglpenoverlay 2)
      (psnegative false)
      (psa4output false)
      (plotreference true)
      (plotvalue true)
      (plotinvisibletext false)
      (padsonsilk false)
      (subtractmaskfromsilk false)
      (outputformat 1)
      (mirror false)
      (drillshape 1)
      (scaleselection 1)
      (outputdirectory ""))
  )

  (net 0 "")

  (net_class Default "これは標準のネット クラスです。"
    (clearance 0.2)
    (trace_width 0.25)
    (via_dia 0.6)
    (via_drill 0.4)
    (uvia_dia 0.3)
    (uvia_drill 0.1)
  )

  (module Housings_DIP:DIP-8_W7.62mm (layer F.Cu) (tedit 54130A77) (tstamp 56888723)
    (at 148.5011 105.0036)
    (descr "8-lead dip package, row spacing 7.62 mm (300 mils)")
    (tags "dil dip 2.54 300")
    (path /5688862B)
    (fp_text reference U1 (at 0 -5.22) (layer F.SilkS)
      (effects (font (size 1 1) (thickness 0.15)))
    )
    (fp_text value MCP3002 (at 0 -3.72) (layer F.Fab)
      (effects (font (size 1 1) (thickness 0.15)))
    )
    (fp_line (start -1.05 -2.45) (end -1.05 10.1) (layer F.CrtYd) (width 0.05))
    (fp_line (start 8.65 -2.45) (end 8.65 10.1) (layer F.CrtYd) (width 0.05))
    (fp_line (start -1.05 -2.45) (end 8.65 -2.45) (layer F.CrtYd) (width 0.05))
    (fp_line (start -1.05 10.1) (end 8.65 10.1) (layer F.CrtYd) (width 0.05))
    (fp_line (start 0.135 -2.295) (end 0.135 -1.025) (layer F.SilkS) (width 0.15))
    (fp_line (start 7.485 -2.295) (end 7.485 -1.025) (layer F.SilkS) (width 0.15))
    (fp_line (start 7.485 9.915) (end 7.485 8.645) (layer F.SilkS) (width 0.15))
    (fp_line (start 0.135 9.915) (end 0.135 8.645) (layer F.SilkS) (width 0.15))
    (fp_line (start 0.135 -2.295) (end 7.485 -2.295) (layer F.SilkS) (width 0.15))
    (fp_line (start 0.135 9.915) (end 7.485 9.915) (layer F.SilkS) (width 0.15))
    (fp_line (start 0.135 -1.025) (end -0.8 -1.025) (layer F.SilkS) (width 0.15))
    (pad 1 thru_hole oval (at 0 0) (size 1.6 1.6) (drill 0.8) (layers *.Cu *.Mask F.SilkS))
    (pad 2 thru_hole oval (at 0 2.54) (size 1.6 1.6) (drill 0.8) (layers *.Cu *.Mask F.SilkS))
    (pad 3 thru_hole oval (at 0 5.08) (size 1.6 1.6) (drill 0.8) (layers *.Cu *.Mask F.SilkS))
    (pad 4 thru_hole oval (at 0 7.62) (size 1.6 1.6) (drill 0.8) (layers *.Cu *.Mask F.SilkS))
    (pad 5 thru_hole oval (at 7.62 7.62) (size 1.6 1.6) (drill 0.8) (layers *.Cu *.Mask F.SilkS))
    (pad 6 thru_hole oval (at 7.62 5.08) (size 1.6 1.6) (drill 0.8) (layers *.Cu *.Mask F.SilkS))
    (pad 7 thru_hole oval (at 7.62 2.54) (size 1.6 1.6) (drill 0.8) (layers *.Cu *.Mask F.SilkS))
    (pad 8 thru_hole oval (at 7.62 0) (size 1.6 1.6) (drill 0.8) (layers *.Cu *.Mask F.SilkS))
    (model Housings_DIP.3dshapes/DIP-8_W7.62mm.wrl
      (at (xyz 0 0 0))
      (scale (xyz 1 1 1))
      (rotate (xyz 0 0 0))
    )
  )

)
