EESchema Schematic File Version 2
LIBS:fs495-akizuki-cl
LIBS:power
LIBS:device
LIBS:transistors
LIBS:conn
LIBS:linear
LIBS:regul
LIBS:74xx
LIBS:cmos4000
LIBS:adc-dac
LIBS:memory
LIBS:xilinx
LIBS:microcontrollers
LIBS:dsp
LIBS:microchip
LIBS:analog_switches
LIBS:motorola
LIBS:texas
LIBS:intel
LIBS:audio
LIBS:interface
LIBS:digital-audio
LIBS:philips
LIBS:display
LIBS:cypress
LIBS:siliconi
LIBS:opto
LIBS:atmel
LIBS:contrib
LIBS:valves
LIBS:MSX-CARD-SLOT-cache
EELAYER 25 0
EELAYER END
$Descr A4 11693 8268
encoding utf-8
Sheet 1 1
Title ""
Date ""
Rev ""
Comp ""
Comment1 ""
Comment2 ""
Comment3 ""
Comment4 ""
$EndDescr
$Comp
L MSX-CTRG CTRG1
U 1 1 56F15C43
P 2500 1650
F 0 "CTRG1" H 2200 1800 60  0000 C CNN
F 1 "MSX-CTRG" H 2250 -3450 60  0000 C CNN
F 2 "fs495-akizuki-fp:MSX-Cartridge" H 2700 1650 60  0001 C CNN
F 3 "" H 2700 1650 60  0000 C CNN
	1    2500 1650
	1    0    0    -1  
$EndComp
$Comp
L 74LS04 U2
U 1 1 56F17068
P 3550 1650
F 0 "U2" H 3745 1765 50  0000 C CNN
F 1 "74LS04" H 3740 1525 50  0000 C CNN
F 2 "Housings_DIP:DIP-14_W7.62mm" H 3550 1650 50  0001 C CNN
F 3 "" H 3550 1650 50  0000 C CNN
	1    3550 1650
	1    0    0    -1  
$EndComp
$Comp
L 74LS04 U2
U 2 1 56F170A1
P 3550 2000
F 0 "U2" H 3745 2115 50  0000 C CNN
F 1 "74LS04" H 3740 1875 50  0000 C CNN
F 2 "Housings_DIP:DIP-14_W7.62mm" H 3550 2000 50  0001 C CNN
F 3 "" H 3550 2000 50  0000 C CNN
	2    3550 2000
	1    0    0    -1  
$EndComp
$Comp
L 74LS04 U2
U 3 1 56F1719A
P 3550 2350
F 0 "U2" H 3745 2465 50  0000 C CNN
F 1 "74LS04" H 3740 2225 50  0000 C CNN
F 2 "Housings_DIP:DIP-14_W7.62mm" H 3550 2350 50  0001 C CNN
F 3 "" H 3550 2350 50  0000 C CNN
	3    3550 2350
	1    0    0    -1  
$EndComp
$Comp
L 74LS04 U2
U 4 1 56F171CC
P 3550 2700
F 0 "U2" H 3745 2815 50  0000 C CNN
F 1 "74LS04" H 3740 2575 50  0000 C CNN
F 2 "Housings_DIP:DIP-14_W7.62mm" H 3550 2700 50  0001 C CNN
F 3 "" H 3550 2700 50  0000 C CNN
	4    3550 2700
	1    0    0    -1  
$EndComp
Wire Wire Line
	2700 1650 3100 1650
Wire Wire Line
	2700 1750 3050 1750
Wire Wire Line
	3050 1750 3050 2000
Wire Wire Line
	3050 2000 3100 2000
Wire Wire Line
	3000 2350 3100 2350
Wire Wire Line
	3000 1850 3000 2350
Wire Wire Line
	3000 1850 2700 1850
Wire Wire Line
	3100 2700 2950 2700
Wire Wire Line
	2950 2700 2950 1950
Wire Wire Line
	2950 1950 2700 1950
Wire Bus Line
	2800 3350 2800 4850
Entry Wire Line
	2700 3250 2800 3350
Entry Wire Line
	2700 3350 2800 3450
Entry Wire Line
	2700 3450 2800 3550
Entry Wire Line
	2700 3550 2800 3650
Entry Wire Line
	2700 3650 2800 3750
Entry Wire Line
	2700 3750 2800 3850
Entry Wire Line
	2700 3850 2800 3950
Entry Wire Line
	2700 3950 2800 4050
Entry Wire Line
	2700 4050 2800 4150
Entry Wire Line
	2700 4150 2800 4250
Entry Wire Line
	2700 4250 2800 4350
Entry Wire Line
	2700 4350 2800 4450
Entry Wire Line
	2700 4450 2800 4550
Entry Wire Line
	2700 4550 2800 4650
Entry Wire Line
	2700 4650 2800 4750
Entry Wire Line
	2700 4750 2800 4850
Wire Bus Line
	2800 4850 3550 4850
$Comp
L GND #PWR01
U 1 1 56F17E6A
P 2850 5950
F 0 "#PWR01" H 2850 5700 50  0001 C CNN
F 1 "GND" H 2850 5800 50  0000 C CNN
F 2 "" H 2850 5950 50  0000 C CNN
F 3 "" H 2850 5950 50  0000 C CNN
	1    2850 5950
	1    0    0    -1  
$EndComp
Wire Wire Line
	2850 5850 2700 5850
Wire Wire Line
	2700 5750 2850 5750
Wire Wire Line
	2850 5750 2850 5950
$Comp
L +5V #PWR02
U 1 1 56F17F22
P 3050 6050
F 0 "#PWR02" H 3050 5900 50  0001 C CNN
F 1 "+5V" H 3050 6190 50  0000 C CNN
F 2 "" H 3050 6050 50  0000 C CNN
F 3 "" H 3050 6050 50  0000 C CNN
	1    3050 6050
	1    0    0    -1  
$EndComp
Wire Wire Line
	2700 6150 3050 6150
Wire Wire Line
	3050 6250 2700 6250
Wire Wire Line
	3050 6050 3050 6250
Connection ~ 3050 6150
Connection ~ 2850 5850
$EndSCHEMATC
