(module CH25-2032LF (layer F.Cu) (tedit 58FB48F1)
  (fp_text reference CH25-2032LF (at 0 5.5) (layer F.SilkS)
    (effects (font (size 1 1) (thickness 0.15)))
  )
  (fp_text value "" (at 0 8.9) (layer F.SilkS)
    (effects (font (size 1 1) (thickness 0.15)))
  )
  (fp_line (start 3.3 16.4) (end 3.3 10.9) (layer F.SilkS) (width 0.15))
  (fp_line (start -3.3 16.4) (end -3.3 10.9) (layer F.SilkS) (width 0.15))
  (fp_line (start 0 16.4) (end -3.3 16.4) (layer F.SilkS) (width 0.15))
  (fp_line (start 0 16.4) (end 3.3 16.4) (layer F.SilkS) (width 0.15))
  (fp_circle (center 0 0) (end 11.4 0) (layer F.SilkS) (width 0.15))
  (pad GND thru_hole circle (at 0 -6) (size 1.7 1.7) (drill 1.1) (layers *.Cu *.Mask))
  (pad +3V thru_hole circle (at 0 14) (size 1.7 1.7) (drill 1.1) (layers *.Cu *.Mask))
  (pad "" thru_hole circle (at -4.4 -8.1) (size 1.5 1.5) (drill 1.5) (layers *.Cu *.Mask))
  (pad "" thru_hole circle (at -4.4 8.1) (size 1.5 1.5) (drill 1.5) (layers *.Cu *.Mask))
  (pad "" thru_hole circle (at 9.6 0) (size 1.5 1.5) (drill 1.5) (layers *.Cu *.Mask))
)
