(module ESP-WROOM-02 (layer F.Cu) (tedit 55C9F522)
  (fp_text reference ESP-WROOM-02 (at 0 4.4) (layer F.SilkS)
    (effects (font (size 1 1) (thickness 0.15)))
  )
  (fp_text value VAL** (at 0 2.1) (layer F.SilkS)
    (effects (font (size 1 1) (thickness 0.15)))
  )
  (fp_line (start -9.25 6) (end -9 6.25) (layer F.SilkS) (width 0.15))
  (fp_line (start -9.25 6.5) (end -9.25 6) (layer F.SilkS) (width 0.15))
  (fp_line (start -9 6.25) (end -9.25 6.5) (layer F.SilkS) (width 0.15))
  (fp_line (start 9 5.8) (end -9 5.8) (layer F.SilkS) (width 0.15))
  (fp_line (start 0 0) (end 9 0) (layer F.SilkS) (width 0.15))
  (fp_line (start 9 0) (end 9 20) (layer F.SilkS) (width 0.15))
  (fp_line (start 9 20) (end -9 20) (layer F.SilkS) (width 0.15))
  (fp_line (start -9 20) (end -9 0) (layer F.SilkS) (width 0.15))
  (fp_line (start -9 0) (end 0 0) (layer F.SilkS) (width 0.15))
  (pad 10 smd rect (at 9 19.1) (size 1.7 0.9) (layers F.Cu F.Paste F.Mask))
  (pad 11 smd rect (at 9 17.6) (size 1.7 0.9) (layers F.Cu F.Paste F.Mask))
  (pad 12 smd rect (at 9 16.1) (size 1.7 0.9) (layers F.Cu F.Paste F.Mask))
  (pad 13 smd rect (at 9 14.6) (size 1.7 0.9) (layers F.Cu F.Paste F.Mask))
  (pad 14 smd rect (at 9 13.1) (size 1.7 0.9) (layers F.Cu F.Paste F.Mask))
  (pad 15 smd rect (at 9 11.6) (size 1.7 0.9) (layers F.Cu F.Paste F.Mask))
  (pad 16 smd rect (at 9 10.1) (size 1.7 0.9) (layers F.Cu F.Paste F.Mask))
  (pad 17 smd rect (at 9 8.6) (size 1.7 0.9) (layers F.Cu F.Paste F.Mask))
  (pad 18 smd rect (at 9 7.1) (size 1.7 0.9) (layers F.Cu F.Paste F.Mask))
  (pad 1 smd rect (at -9 7.1) (size 1.7 0.9) (layers F.Cu F.Paste F.Mask))
  (pad 2 smd rect (at -9 8.6) (size 1.7 0.9) (layers F.Cu F.Paste F.Mask))
  (pad 3 smd rect (at -9 10.1) (size 1.7 0.9) (layers F.Cu F.Paste F.Mask))
  (pad 4 smd rect (at -9 11.6) (size 1.7 0.9) (layers F.Cu F.Paste F.Mask))
  (pad 5 smd rect (at -9 13.1) (size 1.7 0.9) (layers F.Cu F.Paste F.Mask))
  (pad 6 smd rect (at -9 14.6) (size 1.7 0.9) (layers F.Cu F.Paste F.Mask))
  (pad 7 smd rect (at -9 16.1) (size 1.7 0.9) (layers F.Cu F.Paste F.Mask))
  (pad 8 smd rect (at -9 17.6) (size 1.7 0.9) (layers F.Cu F.Paste F.Mask))
  (pad 9 smd rect (at -9 19.1) (size 1.7 0.9) (layers F.Cu F.Paste F.Mask))
)
