(export (version D)
  (design
    (source /home/sqrt/dvlp/elec4/pocketcom-usbserial-if/pocketcom-usbserial-if.sch)
    (date "2016年03月26日 12時15分02秒")
    (tool "Eeschema 4.0.2-4+6225~38~ubuntu14.04.1-stable")
    (sheet (number 1) (name /) (tstamps /)
      (title_block
        (title)
        (company)
        (rev)
        (date)
        (source pocketcom-usbserial-if.sch)
        (comment (number 1) (value ""))
        (comment (number 2) (value ""))
        (comment (number 3) (value ""))
        (comment (number 4) (value "")))))
  (components
    (comp (ref U1)
      (value MCP2200)
      (footprint Housings_SOIC:SOIC-20_7.5x12.8mm_Pitch1.27mm)
      (libsource (lib fs495-akizuki-cl) (part MCP2200))
      (sheetpath (names /) (tstamps /))
      (tstamp 568E560A))
    (comp (ref Y1)
      (value 12MHz)
      (footprint Crystals:Crystal_HC49-U_Vertical)
      (libsource (lib device) (part Crystal))
      (sheetpath (names /) (tstamps /))
      (tstamp 568E565F))
    (comp (ref C3)
      (value 22pF)
      (footprint Capacitors_ThroughHole:C_Rect_L4_W2.5_P2.5)
      (libsource (lib device) (part C))
      (sheetpath (names /) (tstamps /))
      (tstamp 568E57CF))
    (comp (ref C4)
      (value 22pF)
      (footprint Capacitors_ThroughHole:C_Rect_L4_W2.5_P2.5)
      (libsource (lib device) (part C))
      (sheetpath (names /) (tstamps /))
      (tstamp 568E5832))
    (comp (ref J1)
      (value USB_MINI_B)
      (footprint fs495-akizuki-fp:MUSB-5BF01AS)
      (libsource (lib fs495-akizuki-cl) (part USB_MINI_B))
      (sheetpath (names /) (tstamps /))
      (tstamp 568E5B2E))
    (comp (ref C1)
      (value 0.1u)
      (footprint Capacitors_ThroughHole:C_Rect_L7_W2_P5)
      (libsource (lib device) (part C))
      (sheetpath (names /) (tstamps /))
      (tstamp 568E6103))
    (comp (ref C2)
      (value 10uF)
      (footprint Capacitors_ThroughHole:C_Disc_D3_P2.5)
      (libsource (lib device) (part CP1))
      (sheetpath (names /) (tstamps /))
      (tstamp 568E62AF))
    (comp (ref R3)
      (value 10k)
      (footprint Resistors_ThroughHole:Resistor_Horizontal_RM10mm)
      (libsource (lib device) (part R))
      (sheetpath (names /) (tstamps /))
      (tstamp 568E63C7))
    (comp (ref D2)
      (value LED)
      (footprint LEDs:LED-3MM)
      (libsource (lib device) (part LED))
      (sheetpath (names /) (tstamps /))
      (tstamp 568E71CA))
    (comp (ref D1)
      (value LED)
      (footprint LEDs:LED-3MM)
      (libsource (lib device) (part LED))
      (sheetpath (names /) (tstamps /))
      (tstamp 568E7241))
    (comp (ref R2)
      (value 150)
      (footprint Resistors_ThroughHole:Resistor_Vertical_RM5mm)
      (libsource (lib device) (part R))
      (sheetpath (names /) (tstamps /))
      (tstamp 568E72B2))
    (comp (ref R1)
      (value 150)
      (footprint Resistors_ThroughHole:Resistor_Vertical_RM5mm)
      (libsource (lib device) (part R))
      (sheetpath (names /) (tstamps /))
      (tstamp 568E7313))
    (comp (ref CONN1)
      (value PocketCom-11pin)
      (footprint Pin_Headers:Pin_Header_Straight_1x11)
      (libsource (lib fs495-akizuki-cl) (part PocketCom-11pin))
      (sheetpath (names /) (tstamps /))
      (tstamp 56F5EEE1)))
  (libparts
    (libpart (lib device) (part C)
      (description "Unpolarized capacitor")
      (footprints
        (fp C?)
        (fp C_????_*)
        (fp C_????)
        (fp SMD*_c)
        (fp Capacitor*))
      (fields
        (field (name Reference) C)
        (field (name Value) C))
      (pins
        (pin (num 1) (name ~) (type passive))
        (pin (num 2) (name ~) (type passive))))
    (libpart (lib device) (part CP1)
      (description "Polarised capacitor")
      (footprints
        (fp SMD*_Pol)
        (fp c_elec*)
        (fp C*elec)
        (fp TantalC*)
        (fp Elko*)
        (fp CP*))
      (fields
        (field (name Reference) C)
        (field (name Value) CP1))
      (pins
        (pin (num 1) (name ~) (type passive))
        (pin (num 2) (name ~) (type passive))))
    (libpart (lib device) (part Crystal)
      (description "Two pin crystal")
      (footprints
        (fp Crystal_*))
      (fields
        (field (name Reference) Y)
        (field (name Value) Crystal))
      (pins
        (pin (num 1) (name 1) (type passive))
        (pin (num 2) (name 2) (type passive))))
    (libpart (lib device) (part LED)
      (footprints
        (fp LED-3MM)
        (fp LED-5MM)
        (fp LED-10MM)
        (fp LED-0603)
        (fp LED-0805)
        (fp LED-1206)
        (fp LEDV))
      (fields
        (field (name Reference) D)
        (field (name Value) LED))
      (pins
        (pin (num 1) (name K) (type passive))
        (pin (num 2) (name A) (type passive))))
    (libpart (lib fs495-akizuki-cl) (part MCP2200)
      (description "USB 2.0 to UART Protocol Converter with GPIO")
      (docs http://ww1.microchip.com/downloads/en/DeviceDoc/20002228C.pdf)
      (footprints
        (fp SOIC-20*)
        (fp SSOP-20*))
      (fields
        (field (name Reference) U)
        (field (name Value) MCP2200))
      (pins
        (pin (num 1) (name VDD) (type power_in))
        (pin (num 2) (name OSC1) (type passive))
        (pin (num 3) (name OSC2) (type passive))
        (pin (num 4) (name RST) (type input))
        (pin (num 5) (name GP7_TxLED) (type BiDi))
        (pin (num 6) (name GP6_RxLED) (type BiDi))
        (pin (num 7) (name GP5) (type BiDi))
        (pin (num 8) (name GP4) (type BiDi))
        (pin (num 9) (name GP3) (type BiDi))
        (pin (num 10) (name Tx) (type output))
        (pin (num 11) (name RTS) (type output))
        (pin (num 12) (name Rx) (type input))
        (pin (num 13) (name CTS) (type input))
        (pin (num 14) (name GP2) (type BiDi))
        (pin (num 15) (name GP1_USBCFG) (type BiDi))
        (pin (num 16) (name GP0_SSPND) (type BiDi))
        (pin (num 17) (name Vusb) (type passive))
        (pin (num 18) (name D-) (type 3state))
        (pin (num 19) (name D+) (type 3state))
        (pin (num 20) (name VSS) (type power_in))))
    (libpart (lib fs495-akizuki-cl) (part PocketCom-11pin)
      (description "Sharp Pocket Computer 11pin Ext Connector")
      (fields
        (field (name Reference) CONN)
        (field (name Value) PocketCom-11pin)
        (field (name Footprint) Pin_Headers:Pin_Header_Straight_1x11))
      (pins
        (pin (num 1) (name NC) (type NotConnected))
        (pin (num 2) (name Vcc) (type power_in))
        (pin (num 3) (name GND) (type power_in))
        (pin (num 4) (name RTS/Busy) (type BiDi))
        (pin (num 5) (name DSR/Dout) (type BiDi))
        (pin (num 6) (name RxD/Xin) (type BiDi))
        (pin (num 7) (name TxD/Xout) (type BiDi))
        (pin (num 8) (name CD/Din) (type BiDi))
        (pin (num 9) (name CTS/Ack) (type BiDi))
        (pin (num 10) (name DTR) (type BiDi))
        (pin (num 11) (name CI) (type BiDi))))
    (libpart (lib device) (part R)
      (description Resistor)
      (footprints
        (fp R_*)
        (fp Resistor_*))
      (fields
        (field (name Reference) R)
        (field (name Value) R))
      (pins
        (pin (num 1) (name ~) (type passive))
        (pin (num 2) (name ~) (type passive))))
    (libpart (lib fs495-akizuki-cl) (part USB_MINI_B)
      (footprints
        (fp MUSB-*))
      (fields
        (field (name Reference) J)
        (field (name Value) USB_MINI_B))
      (pins
        (pin (num 1) (name VBUS) (type passive))
        (pin (num 2) (name D-) (type BiDi))
        (pin (num 3) (name D+) (type BiDi))
        (pin (num 4) (name ID) (type BiDi))
        (pin (num 5) (name GND) (type passive)))))
  (libraries
    (library (logical device)
      (uri /usr/share/kicad/library/device.lib))
    (library (logical fs495-akizuki-cl)
      (uri /home/sqrt/dvlp/elec4/lib/fs495-akizuki-cl.lib)))
  (nets
    (net (code 1) (name "Net-(R2-Pad1)")
      (node (ref R2) (pin 1))
      (node (ref U1) (pin 5)))
    (net (code 2) (name "Net-(R1-Pad1)")
      (node (ref R1) (pin 1))
      (node (ref U1) (pin 6)))
    (net (code 3) (name "Net-(C1-Pad1)")
      (node (ref U1) (pin 17))
      (node (ref C1) (pin 1)))
    (net (code 4) (name "Net-(R3-Pad1)")
      (node (ref U1) (pin 4))
      (node (ref R3) (pin 1)))
    (net (code 5) (name "Net-(CONN1-Pad9)")
      (node (ref CONN1) (pin 9))
      (node (ref U1) (pin 13)))
    (net (code 6) (name "Net-(CONN1-Pad5)")
      (node (ref CONN1) (pin 5)))
    (net (code 7) (name "Net-(CONN1-Pad11)")
      (node (ref CONN1) (pin 11)))
    (net (code 8) (name "Net-(CONN1-Pad10)")
      (node (ref CONN1) (pin 10)))
    (net (code 9) (name "Net-(CONN1-Pad8)")
      (node (ref CONN1) (pin 8)))
    (net (code 10) (name "Net-(CONN1-Pad4)")
      (node (ref CONN1) (pin 4))
      (node (ref U1) (pin 11)))
    (net (code 11) (name "Net-(CONN1-Pad6)")
      (node (ref CONN1) (pin 6))
      (node (ref U1) (pin 12)))
    (net (code 12) (name "Net-(CONN1-Pad7)")
      (node (ref CONN1) (pin 7))
      (node (ref U1) (pin 10)))
    (net (code 13) (name "Net-(CONN1-Pad1)")
      (node (ref CONN1) (pin 1)))
    (net (code 14) (name "Net-(U1-Pad7)")
      (node (ref U1) (pin 7)))
    (net (code 15) (name "Net-(U1-Pad8)")
      (node (ref U1) (pin 8)))
    (net (code 16) (name "Net-(U1-Pad9)")
      (node (ref U1) (pin 9)))
    (net (code 17) (name "Net-(U1-Pad14)")
      (node (ref U1) (pin 14)))
    (net (code 18) (name "Net-(U1-Pad15)")
      (node (ref U1) (pin 15)))
    (net (code 19) (name "Net-(U1-Pad16)")
      (node (ref U1) (pin 16)))
    (net (code 20) (name "Net-(J1-Pad4)")
      (node (ref J1) (pin 4)))
    (net (code 21) (name /PWR)
      (node (ref R3) (pin 2))
      (node (ref U1) (pin 1))
      (node (ref J1) (pin 1))
      (node (ref C2) (pin 1))
      (node (ref CONN1) (pin 2)))
    (net (code 22) (name GND)
      (node (ref D1) (pin 1))
      (node (ref D2) (pin 1))
      (node (ref C2) (pin 2))
      (node (ref C1) (pin 2))
      (node (ref C4) (pin 2))
      (node (ref C3) (pin 2))
      (node (ref J1) (pin 5))
      (node (ref CONN1) (pin 3))
      (node (ref U1) (pin 20)))
    (net (code 23) (name "Net-(C4-Pad1)")
      (node (ref C4) (pin 1))
      (node (ref U1) (pin 3))
      (node (ref Y1) (pin 2)))
    (net (code 24) (name "Net-(C3-Pad1)")
      (node (ref C3) (pin 1))
      (node (ref Y1) (pin 1))
      (node (ref U1) (pin 2)))
    (net (code 25) (name "Net-(J1-Pad3)")
      (node (ref J1) (pin 3))
      (node (ref U1) (pin 19)))
    (net (code 26) (name "Net-(J1-Pad2)")
      (node (ref J1) (pin 2))
      (node (ref U1) (pin 18)))
    (net (code 27) (name "Net-(D1-Pad2)")
      (node (ref D1) (pin 2))
      (node (ref R1) (pin 2)))
    (net (code 28) (name "Net-(D2-Pad2)")
      (node (ref R2) (pin 2))
      (node (ref D2) (pin 2)))))