EESchema Schematic File Version 2
LIBS:fs495-akizuki-cl
LIBS:power
LIBS:device
LIBS:transistors
LIBS:conn
LIBS:linear
LIBS:regul
LIBS:74xx
LIBS:cmos4000
LIBS:adc-dac
LIBS:memory
LIBS:xilinx
LIBS:microcontrollers
LIBS:dsp
LIBS:microchip
LIBS:analog_switches
LIBS:motorola
LIBS:texas
LIBS:intel
LIBS:audio
LIBS:interface
LIBS:digital-audio
LIBS:philips
LIBS:display
LIBS:cypress
LIBS:siliconi
LIBS:opto
LIBS:atmel
LIBS:contrib
LIBS:valves
LIBS:pocketcom-usbserial-if-cache
EELAYER 25 0
EELAYER END
$Descr A4 11693 8268
encoding utf-8
Sheet 1 1
Title ""
Date ""
Rev ""
Comp ""
Comment1 ""
Comment2 ""
Comment3 ""
Comment4 ""
$EndDescr
$Comp
L MCP2200 U1
U 1 1 568E560A
P 4200 1750
F 0 "U1" H 3800 1800 60  0000 C CNN
F 1 "MCP2200" H 4650 1800 60  0000 C CNN
F 2 "Housings_SOIC:SOIC-20_7.5x12.8mm_Pitch1.27mm" H 4200 1750 60  0001 C CNN
F 3 "" H 4200 1750 60  0000 C CNN
	1    4200 1750
	1    0    0    -1  
$EndComp
$Comp
L Crystal Y1
U 1 1 568E565F
P 4950 3000
F 0 "Y1" H 4950 3150 50  0000 C CNN
F 1 "12MHz" H 4950 2850 50  0000 C CNN
F 2 "Crystals:Crystal_HC49-U_Vertical" H 4950 3000 50  0001 C CNN
F 3 "" H 4950 3000 50  0000 C CNN
	1    4950 3000
	0    1    1    0   
$EndComp
$Comp
L C C3
U 1 1 568E57CF
P 5400 2850
F 0 "C3" H 5425 2950 50  0000 L CNN
F 1 "22pF" H 5425 2750 50  0000 L CNN
F 2 "Capacitors_ThroughHole:C_Rect_L4_W2.5_P2.5" H 5438 2700 50  0001 C CNN
F 3 "" H 5400 2850 50  0000 C CNN
	1    5400 2850
	0    -1   -1   0   
$EndComp
$Comp
L C C4
U 1 1 568E5832
P 5400 3150
F 0 "C4" H 5425 3250 50  0000 L CNN
F 1 "22pF" H 5425 3050 50  0000 L CNN
F 2 "Capacitors_ThroughHole:C_Rect_L4_W2.5_P2.5" H 5438 3000 50  0001 C CNN
F 3 "" H 5400 3150 50  0000 C CNN
	1    5400 3150
	0    -1   -1   0   
$EndComp
$Comp
L GND #PWR01
U 1 1 568E591E
P 4200 3700
F 0 "#PWR01" H 4200 3450 50  0001 C CNN
F 1 "GND" H 4200 3550 50  0000 C CNN
F 2 "" H 4200 3700 50  0000 C CNN
F 3 "" H 4200 3700 50  0000 C CNN
	1    4200 3700
	1    0    0    -1  
$EndComp
$Comp
L USB_MINI_B J1
U 1 1 568E5B2E
P 6050 2150
F 0 "J1" H 6000 1850 60  0000 C CNN
F 1 "USB_MINI_B" H 5900 2450 60  0000 C CNN
F 2 "fs495-akizuki-fp:MUSB-5BF01AS" H 6100 2200 60  0001 C CNN
F 3 "" H 6100 2200 60  0000 C CNN
	1    6050 2150
	-1   0    0    1   
$EndComp
$Comp
L GND #PWR02
U 1 1 568E5C79
P 5650 3250
F 0 "#PWR02" H 5650 3000 50  0001 C CNN
F 1 "GND" H 5650 3100 50  0000 C CNN
F 2 "" H 5650 3250 50  0000 C CNN
F 3 "" H 5650 3250 50  0000 C CNN
	1    5650 3250
	1    0    0    -1  
$EndComp
$Comp
L GND #PWR03
U 1 1 568E5FEC
P 5650 2450
F 0 "#PWR03" H 5650 2200 50  0001 C CNN
F 1 "GND" H 5650 2300 50  0000 C CNN
F 2 "" H 5650 2450 50  0000 C CNN
F 3 "" H 5650 2450 50  0000 C CNN
	1    5650 2450
	1    0    0    -1  
$EndComp
$Comp
L C C1
U 1 1 568E6103
P 5400 1500
F 0 "C1" H 5425 1600 50  0000 L CNN
F 1 "0.1u" H 5425 1400 50  0000 L CNN
F 2 "Capacitors_ThroughHole:C_Rect_L7_W2_P5" H 5438 1350 50  0001 C CNN
F 3 "" H 5400 1500 50  0000 C CNN
	1    5400 1500
	0    -1   -1   0   
$EndComp
$Comp
L CP1 C2
U 1 1 568E62AF
P 5400 1950
F 0 "C2" H 5425 2050 50  0000 L CNN
F 1 "10uF" H 5425 1850 50  0000 L CNN
F 2 "Capacitors_ThroughHole:C_Disc_D3_P2.5" H 5400 1950 50  0001 C CNN
F 3 "" H 5400 1950 50  0000 C CNN
	1    5400 1950
	0    -1   -1   0   
$EndComp
$Comp
L R R3
U 1 1 568E63C7
P 4950 2550
F 0 "R3" V 5030 2550 50  0000 C CNN
F 1 "10k" V 4950 2550 50  0000 C CNN
F 2 "Resistors_ThroughHole:Resistor_Horizontal_RM10mm" V 4880 2550 50  0001 C CNN
F 3 "" H 4950 2550 50  0000 C CNN
	1    4950 2550
	0    -1   -1   0   
$EndComp
$Comp
L LED D2
U 1 1 568E71CA
P 3550 3850
F 0 "D2" H 3550 3950 50  0000 C CNN
F 1 "LED" H 3550 3750 50  0000 C CNN
F 2 "LEDs:LED-3MM" H 3550 3850 50  0001 C CNN
F 3 "" H 3550 3850 50  0000 C CNN
	1    3550 3850
	0    -1   -1   0   
$EndComp
$Comp
L LED D1
U 1 1 568E7241
P 3250 3850
F 0 "D1" H 3250 3950 50  0000 C CNN
F 1 "LED" H 3250 3750 50  0000 C CNN
F 2 "LEDs:LED-3MM" H 3250 3850 50  0001 C CNN
F 3 "" H 3250 3850 50  0000 C CNN
	1    3250 3850
	0    -1   -1   0   
$EndComp
$Comp
L R R2
U 1 1 568E72B2
P 3550 3500
F 0 "R2" V 3630 3500 50  0000 C CNN
F 1 "150" V 3550 3500 50  0000 C CNN
F 2 "Resistors_ThroughHole:Resistor_Vertical_RM5mm" V 3480 3500 50  0001 C CNN
F 3 "" H 3550 3500 50  0000 C CNN
	1    3550 3500
	1    0    0    -1  
$EndComp
$Comp
L R R1
U 1 1 568E7313
P 3250 3500
F 0 "R1" V 3330 3500 50  0000 C CNN
F 1 "150" V 3250 3500 50  0000 C CNN
F 2 "Resistors_ThroughHole:Resistor_Vertical_RM5mm" V 3180 3500 50  0001 C CNN
F 3 "" H 3250 3500 50  0000 C CNN
	1    3250 3500
	1    0    0    -1  
$EndComp
$Comp
L GND #PWR04
U 1 1 568E7966
P 3550 4050
F 0 "#PWR04" H 3550 3800 50  0001 C CNN
F 1 "GND" H 3550 3900 50  0000 C CNN
F 2 "" H 3550 4050 50  0000 C CNN
F 3 "" H 3550 4050 50  0000 C CNN
	1    3550 4050
	1    0    0    -1  
$EndComp
$Comp
L GND #PWR05
U 1 1 568E7996
P 3250 4050
F 0 "#PWR05" H 3250 3800 50  0001 C CNN
F 1 "GND" H 3250 3900 50  0000 C CNN
F 2 "" H 3250 4050 50  0000 C CNN
F 3 "" H 3250 4050 50  0000 C CNN
	1    3250 4050
	1    0    0    -1  
$EndComp
NoConn ~ 5750 2050
Wire Wire Line
	4300 1600 4300 1200
Wire Wire Line
	3150 1200 5150 1200
Wire Wire Line
	5150 2350 5750 2350
Wire Wire Line
	4750 2250 5750 2250
Wire Wire Line
	4750 2150 5750 2150
Wire Wire Line
	4750 2850 5250 2850
Connection ~ 4950 2850
Wire Wire Line
	4750 3150 5250 3150
Connection ~ 4950 3150
Wire Wire Line
	5550 2850 5650 2850
Wire Wire Line
	5650 2850 5650 3250
Wire Wire Line
	5550 3150 5650 3150
Connection ~ 5650 3150
Wire Wire Line
	5550 1950 5750 1950
Wire Wire Line
	4800 2550 4750 2550
Wire Wire Line
	5150 2550 5100 2550
Connection ~ 5150 2350
Connection ~ 5650 1950
Wire Wire Line
	5150 1950 5250 1950
Wire Wire Line
	5650 1050 5650 2450
Wire Wire Line
	5650 1500 5550 1500
Wire Wire Line
	5250 1500 4100 1500
Wire Wire Line
	4100 1500 4100 1600
Wire Wire Line
	3550 3250 3550 3350
Wire Wire Line
	3250 3350 3250 3150
Wire Wire Line
	3350 1950 3650 1950
Wire Wire Line
	2800 1750 3150 1750
Connection ~ 4300 1200
Wire Wire Line
	5650 1300 3350 1300
Wire Wire Line
	3350 1300 3350 1850
Connection ~ 5650 1500
Wire Wire Line
	5150 1050 5150 2550
Connection ~ 5150 1950
$Comp
L PWR_FLAG #FLG06
U 1 1 568E93EF
P 5650 1050
F 0 "#FLG06" H 5650 1145 50  0001 C CNN
F 1 "PWR_FLAG" H 5650 1230 50  0000 C CNN
F 2 "" H 5650 1050 50  0000 C CNN
F 3 "" H 5650 1050 50  0000 C CNN
	1    5650 1050
	1    0    0    -1  
$EndComp
$Comp
L PWR_FLAG #FLG07
U 1 1 568E942D
P 5150 1050
F 0 "#FLG07" H 5150 1145 50  0001 C CNN
F 1 "PWR_FLAG" H 5150 1230 50  0000 C CNN
F 2 "" H 5150 1050 50  0000 C CNN
F 3 "" H 5150 1050 50  0000 C CNN
	1    5150 1050
	1    0    0    -1  
$EndComp
Connection ~ 5650 1300
Connection ~ 5150 1200
Text Label 5150 1150 0    60   ~ 0
PWR
Wire Wire Line
	3250 3150 3650 3150
Wire Wire Line
	3550 3250 3650 3250
NoConn ~ 3650 2550
NoConn ~ 3650 2650
NoConn ~ 3650 2750
NoConn ~ 3650 2850
NoConn ~ 3650 2950
NoConn ~ 3650 3050
$Comp
L PocketCom-11pin CONN1
U 1 1 56F5EEE1
P 2600 1550
F 0 "CONN1" H 2350 1600 60  0000 C CNN
F 1 "PocketCom-11pin" H 2350 300 60  0000 C CNN
F 2 "Pin_Headers:Pin_Header_Straight_1x11" H 2250 200 60  0000 C CNN
F 3 "" H 2600 1450 60  0000 C CNN
	1    2600 1550
	1    0    0    -1  
$EndComp
Wire Wire Line
	3650 2250 2800 2250
Wire Wire Line
	3650 2150 2800 2150
Wire Wire Line
	3350 1950 3350 2450
Wire Wire Line
	3350 2450 2800 2450
Wire Wire Line
	3650 2050 3150 2050
Wire Wire Line
	3150 2050 3150 1950
Wire Wire Line
	3150 1950 2800 1950
Wire Wire Line
	3150 1750 3150 1200
Wire Wire Line
	3350 1850 2800 1850
NoConn ~ 2800 2350
NoConn ~ 2800 2550
NoConn ~ 2800 2650
NoConn ~ 2800 2050
$EndSCHEMATC
