(export (version D)
  (design
    (source /home/sqrt/dvlp/elec4/akizuki-lib-tests/JT8P-3.2T/JT8P-3.2T.sch)
    (date "2016年01月03日 11時07分56秒")
    (tool "Eeschema 4.0.1-3.201512221402+6198~38~ubuntu14.04.1-stable")
    (sheet (number 1) (name /) (tstamps /)
      (title_block
        (title)
        (company)
        (rev)
        (date)
        (source JT8P-3.2T.sch)
        (comment (number 1) (value ""))
        (comment (number 2) (value ""))
        (comment (number 3) (value ""))
        (comment (number 4) (value "")))))
  (components
    (comp (ref AJ1)
      (value JT8P-3.2T)
      (footprint fs495-akizuki-fp:JT8P-3.2T)
      (datasheet JT8P-3.2T-B10K-1-16Y)
      (libsource (lib fs495-akizuki-cl) (part JT8P-3.2T))
      (sheetpath (names /) (tstamps /))
      (tstamp 568881FE)))
  (libparts
    (libpart (lib fs495-akizuki-cl) (part JT8P-3.2T)
      (footprints
        (fp JT8P-3.2T*)
        (fp JT8P*))
      (fields
        (field (name Reference) AJ)
        (field (name Value) JT8P-3.2T)
        (field (name Footprint) JT8P-3.2T)
        (field (name Datasheet) JT8P-3.2T-B10K-1-16Y))
      (pins
        (pin (num X1) (name X1) (type passive))
        (pin (num X2) (name X2) (type passive))
        (pin (num X3) (name X3) (type passive))
        (pin (num Y1) (name Y1) (type passive))
        (pin (num Y2) (name Y2) (type passive))
        (pin (num Y3) (name Y3) (type passive)))))
  (libraries
    (library (logical fs495-akizuki-cl)
      (uri /home/sqrt/dvlp/elec4/lib/fs495-akizuki-cl.lib)))
  (nets
    (net (code 1) (name "Net-(AJ1-PadX1)")
      (node (ref AJ1) (pin X1)))
    (net (code 2) (name "Net-(AJ1-PadY1)")
      (node (ref AJ1) (pin Y1)))
    (net (code 3) (name "Net-(AJ1-PadX2)")
      (node (ref AJ1) (pin X2)))
    (net (code 4) (name "Net-(AJ1-PadY2)")
      (node (ref AJ1) (pin Y2)))
    (net (code 5) (name "Net-(AJ1-PadX3)")
      (node (ref AJ1) (pin X3)))
    (net (code 6) (name "Net-(AJ1-PadY3)")
      (node (ref AJ1) (pin Y3)))))