EESchema Schematic File Version 2
LIBS:fs495-akizuki-cl
LIBS:power
LIBS:device
LIBS:transistors
LIBS:conn
LIBS:linear
LIBS:regul
LIBS:74xx
LIBS:cmos4000
LIBS:adc-dac
LIBS:memory
LIBS:xilinx
LIBS:microcontrollers
LIBS:dsp
LIBS:microchip
LIBS:analog_switches
LIBS:motorola
LIBS:texas
LIBS:intel
LIBS:audio
LIBS:interface
LIBS:digital-audio
LIBS:philips
LIBS:display
LIBS:cypress
LIBS:siliconi
LIBS:opto
LIBS:atmel
LIBS:contrib
LIBS:valves
EELAYER 25 0
EELAYER END
$Descr A4 11693 8268
encoding utf-8
Sheet 1 1
Title "VFD module"
Date "2017-05-29"
Rev "rev 1"
Comp ""
Comment1 ""
Comment2 ""
Comment3 ""
Comment4 ""
$EndDescr
$Comp
L 2SC1815 Q1
U 1 1 592C170C
P 3850 1500
F 0 "Q1" H 4050 1575 50  0000 L CNN
F 1 "2SC1815" H 4050 1500 50  0000 L CNN
F 2 "TO_SOT_Packages_THT:TO-92_Molded_Narrow" H 4050 1425 50  0001 L CIN
F 3 "" H 3850 1500 50  0001 L CNN
	1    3850 1500
	1    0    0    -1  
$EndComp
$Comp
L L L1
U 1 1 592C1755
P 3950 950
F 0 "L1" V 3900 950 50  0000 C CNN
F 1 "0.47uH" V 4025 950 50  0000 C CNN
F 2 "Inductors_THT:L_Axial_L13.0mm_D4.5mm_P15.24mm_Horizontal_Fastron_HCCC" H 3950 950 50  0001 C CNN
F 3 "" H 3950 950 50  0001 C CNN
	1    3950 950 
	1    0    0    -1  
$EndComp
$Comp
L D D1
U 1 1 592C1806
P 4300 1200
F 0 "D1" H 4300 1300 50  0000 C CNN
F 1 "SD103A" H 4300 1100 50  0000 C CNN
F 2 "Diodes_THT:D_DO-35_SOD27_P7.62mm_Horizontal" H 4300 1200 50  0001 C CNN
F 3 "" H 4300 1200 50  0001 C CNN
	1    4300 1200
	-1   0    0    1   
$EndComp
$Comp
L C C2
U 1 1 592C1893
P 4600 1500
F 0 "C2" H 4625 1600 50  0000 L CNN
F 1 "0.1u" H 4625 1400 50  0000 L CNN
F 2 "Capacitors_THT:C_Disc_D3.0mm_W1.6mm_P2.50mm" H 4638 1350 50  0001 C CNN
F 3 "" H 4600 1500 50  0001 C CNN
	1    4600 1500
	1    0    0    -1  
$EndComp
$Comp
L 74HC595 U2
U 1 1 592C1E18
P 4050 4450
F 0 "U2" H 4200 5050 50  0000 C CNN
F 1 "74HC595" H 4050 3850 50  0000 C CNN
F 2 "Housings_DIP:DIP-16_W7.62mm" H 4050 4450 50  0001 C CNN
F 3 "" H 4050 4450 50  0001 C CNN
	1    4050 4450
	1    0    0    -1  
$EndComp
$Comp
L 74HC595 U3
U 1 1 592C1E78
P 4050 6150
F 0 "U3" H 4200 6750 50  0000 C CNN
F 1 "74HC595" H 4050 5550 50  0000 C CNN
F 2 "Housings_DIP:DIP-16_W7.62mm" H 4050 6150 50  0001 C CNN
F 3 "" H 4050 6150 50  0001 C CNN
	1    4050 6150
	1    0    0    -1  
$EndComp
$Comp
L TD62783 U4
U 1 1 592C2FE7
P 5800 4350
F 0 "U4" H 5950 4850 60  0000 C CNN
F 1 "TD62783" H 6100 3800 60  0000 C CNN
F 2 "fs495-housing-fp:SOIC-18_7.5x11.6mm_P1.27mm" H 5800 5250 60  0001 C CNN
F 3 "http://akizukidenshi.com/download/ds/toshiba/TD62783AP_TD62783F_TD62783AF_TD62784AP_TD62784F_TD62784AF.pdf" H 5800 5250 60  0001 C CNN
	1    5800 4350
	1    0    0    -1  
$EndComp
$Comp
L TD62783 U5
U 1 1 592C36B4
P 5800 6050
F 0 "U5" H 5950 6550 60  0000 C CNN
F 1 "TD62783" H 6100 5500 60  0000 C CNN
F 2 "fs495-housing-fp:SOIC-18_7.5x11.6mm_P1.27mm" H 5800 6950 60  0001 C CNN
F 3 "http://akizukidenshi.com/download/ds/toshiba/TD62783AP_TD62783F_TD62783AF_TD62784AP_TD62784F_TD62784AF.pdf" H 5800 6950 60  0001 C CNN
	1    5800 6050
	1    0    0    -1  
$EndComp
$Comp
L R R1
U 1 1 592C3964
P 1600 1150
F 0 "R1" V 1680 1150 50  0000 C CNN
F 1 "200" V 1600 1150 50  0000 C CNN
F 2 "Resistors_THT:R_Axial_DIN0204_L3.6mm_D1.6mm_P2.54mm_Vertical" V 1530 1150 50  0001 C CNN
F 3 "" H 1600 1150 50  0001 C CNN
	1    1600 1150
	0    1    -1   0   
$EndComp
$Comp
L C C1
U 1 1 592C39AD
P 1050 1750
F 0 "C1" H 1075 1850 50  0000 L CNN
F 1 "0.1u" H 1075 1650 50  0000 L CNN
F 2 "Capacitors_THT:C_Disc_D3.0mm_W1.6mm_P2.50mm" H 1088 1600 50  0001 C CNN
F 3 "" H 1050 1750 50  0001 C CNN
	1    1050 1750
	1    0    0    -1  
$EndComp
$Comp
L GND #PWR01
U 1 1 592C45E2
P 1050 2000
F 0 "#PWR01" H 1050 1750 50  0001 C CNN
F 1 "GND" H 1050 1850 50  0000 C CNN
F 2 "" H 1050 2000 50  0001 C CNN
F 3 "" H 1050 2000 50  0001 C CNN
	1    1050 2000
	1    0    0    -1  
$EndComp
$Comp
L VCC #PWR02
U 1 1 592C4C26
P 3950 700
F 0 "#PWR02" H 3950 550 50  0001 C CNN
F 1 "VCC" H 3950 850 50  0000 C CNN
F 2 "" H 3950 700 50  0001 C CNN
F 3 "" H 3950 700 50  0001 C CNN
	1    3950 700 
	1    0    0    -1  
$EndComp
$Comp
L GND #PWR03
U 1 1 592C4C6D
P 3950 1800
F 0 "#PWR03" H 3950 1550 50  0001 C CNN
F 1 "GND" H 3950 1650 50  0000 C CNN
F 2 "" H 3950 1800 50  0001 C CNN
F 3 "" H 3950 1800 50  0001 C CNN
	1    3950 1800
	1    0    0    -1  
$EndComp
Text GLabel 4800 1200 2    60   Input ~ 0
+10V
Text GLabel 5700 3700 0    60   Input ~ 0
+10V
Text GLabel 5700 5400 0    60   Input ~ 0
+10V
$Comp
L GND #PWR04
U 1 1 592C54DD
P 5800 5100
F 0 "#PWR04" H 5800 4850 50  0001 C CNN
F 1 "GND" H 5800 4950 50  0000 C CNN
F 2 "" H 5800 5100 50  0001 C CNN
F 3 "" H 5800 5100 50  0001 C CNN
	1    5800 5100
	1    0    0    -1  
$EndComp
$Comp
L GND #PWR05
U 1 1 592C62FA
P 5800 6800
F 0 "#PWR05" H 5800 6550 50  0001 C CNN
F 1 "GND" H 5800 6650 50  0000 C CNN
F 2 "" H 5800 6800 50  0001 C CNN
F 3 "" H 5800 6800 50  0001 C CNN
	1    5800 6800
	1    0    0    -1  
$EndComp
NoConn ~ 4750 6600
$Comp
L GND #PWR06
U 1 1 592C7498
P 4600 1800
F 0 "#PWR06" H 4600 1550 50  0001 C CNN
F 1 "GND" H 4600 1650 50  0000 C CNN
F 2 "" H 4600 1800 50  0001 C CNN
F 3 "" H 4600 1800 50  0001 C CNN
	1    4600 1800
	1    0    0    -1  
$EndComp
$Comp
L VCC #PWR07
U 1 1 592C87B4
P 6450 1150
F 0 "#PWR07" H 6450 1000 50  0001 C CNN
F 1 "VCC" H 6450 1300 50  0000 C CNN
F 2 "" H 6450 1150 50  0001 C CNN
F 3 "" H 6450 1150 50  0001 C CNN
	1    6450 1150
	1    0    0    -1  
$EndComp
$Comp
L GND #PWR08
U 1 1 592C87F2
P 6450 2450
F 0 "#PWR08" H 6450 2200 50  0001 C CNN
F 1 "GND" H 6450 2300 50  0000 C CNN
F 2 "" H 6450 2450 50  0001 C CNN
F 3 "" H 6450 2450 50  0001 C CNN
	1    6450 2450
	1    0    0    -1  
$EndComp
$Comp
L VCC #PWR09
U 1 1 592C8C31
P 7100 1150
F 0 "#PWR09" H 7100 1000 50  0001 C CNN
F 1 "VCC" H 7100 1300 50  0000 C CNN
F 2 "" H 7100 1150 50  0001 C CNN
F 3 "" H 7100 1150 50  0001 C CNN
	1    7100 1150
	1    0    0    -1  
$EndComp
$Comp
L GND #PWR010
U 1 1 592C8C7B
P 7100 2450
F 0 "#PWR010" H 7100 2200 50  0001 C CNN
F 1 "GND" H 7100 2300 50  0000 C CNN
F 2 "" H 7100 2450 50  0001 C CNN
F 3 "" H 7100 2450 50  0001 C CNN
	1    7100 2450
	1    0    0    -1  
$EndComp
$Comp
L 2SC1815 Q3
U 1 1 592C99D6
P 6350 2150
F 0 "Q3" H 6550 2225 50  0000 L CNN
F 1 "2SC1815" H 6550 2100 50  0000 L CNN
F 2 "TO_SOT_Packages_THT:TO-92_Molded_Narrow" H 6550 2075 50  0001 L CIN
F 3 "" H 6350 2150 50  0001 L CNN
	1    6350 2150
	1    0    0    -1  
$EndComp
$Comp
L 2SC1815 Q5
U 1 1 592C9A7B
P 7200 2150
F 0 "Q5" H 6950 2200 50  0000 L CNN
F 1 "2SC1815" H 6700 2100 50  0000 L CNN
F 2 "TO_SOT_Packages_THT:TO-92_Molded_Narrow" H 7400 2075 50  0001 L CIN
F 3 "" H 7200 2150 50  0001 L CNN
	1    7200 2150
	-1   0    0    -1  
$EndComp
$Comp
L 2SA1015 Q2
U 1 1 592C9B49
P 6350 1450
F 0 "Q2" H 6550 1350 50  0000 L CNN
F 1 "2SA1015" H 6550 1500 50  0000 L CNN
F 2 "TO_SOT_Packages_THT:TO-92_Molded_Narrow" H 6550 1375 50  0001 L CIN
F 3 "" H 6350 1450 50  0001 L CNN
	1    6350 1450
	1    0    0    1   
$EndComp
$Comp
L 2SA1015 Q4
U 1 1 592C9BC0
P 7200 1450
F 0 "Q4" H 6950 1400 50  0000 L CNN
F 1 "2SA1015" H 6700 1500 50  0000 L CNN
F 2 "TO_SOT_Packages_THT:TO-92_Molded_Narrow" H 7400 1375 50  0001 L CIN
F 3 "" H 7200 1450 50  0001 L CNN
	1    7200 1450
	-1   0    0    1   
$EndComp
$Comp
L R R2
U 1 1 592CA6FC
P 2250 3850
F 0 "R2" V 2330 3850 50  0000 C CNN
F 1 "R" V 2250 3850 50  0000 C CNN
F 2 "Resistors_THT:R_Axial_DIN0204_L3.6mm_D1.6mm_P2.54mm_Vertical" V 2180 3850 50  0001 C CNN
F 3 "" H 2250 3850 50  0001 C CNN
	1    2250 3850
	1    0    0    -1  
$EndComp
$Comp
L VCC #PWR011
U 1 1 592CAB50
P 3250 6000
F 0 "#PWR011" H 3250 5850 50  0001 C CNN
F 1 "VCC" H 3250 6150 50  0000 C CNN
F 2 "" H 3250 6000 50  0001 C CNN
F 3 "" H 3250 6000 50  0001 C CNN
	1    3250 6000
	0    -1   -1   0   
$EndComp
$Comp
L GND #PWR012
U 1 1 592CABA6
P 3250 6300
F 0 "#PWR012" H 3250 6050 50  0001 C CNN
F 1 "GND" H 3250 6150 50  0000 C CNN
F 2 "" H 3250 6300 50  0001 C CNN
F 3 "" H 3250 6300 50  0001 C CNN
	1    3250 6300
	0    1    1    0   
$EndComp
$Comp
L GND #PWR013
U 1 1 592CB5E6
P 3250 4600
F 0 "#PWR013" H 3250 4350 50  0001 C CNN
F 1 "GND" H 3250 4450 50  0000 C CNN
F 2 "" H 3250 4600 50  0001 C CNN
F 3 "" H 3250 4600 50  0001 C CNN
	1    3250 4600
	0    1    1    0   
$EndComp
$Comp
L VCC #PWR014
U 1 1 592CB649
P 3250 4300
F 0 "#PWR014" H 3250 4150 50  0001 C CNN
F 1 "VCC" H 3250 4450 50  0000 C CNN
F 2 "" H 3250 4300 50  0001 C CNN
F 3 "" H 3250 4300 50  0001 C CNN
	1    3250 4300
	0    -1   -1   0   
$EndComp
NoConn ~ 8800 5700
$Comp
L CONN_01X06 J1
U 1 1 592D33B4
P 1250 4250
F 0 "J1" H 1250 4600 50  0000 C CNN
F 1 "CONN_01X06" V 1350 4250 50  0000 C CNN
F 2 "Pin_Headers:Pin_Header_Straight_1x06_Pitch2.54mm" H 1250 4250 50  0001 C CNN
F 3 "" H 1250 4250 50  0001 C CNN
	1    1250 4250
	-1   0    0    -1  
$EndComp
$Comp
L VCC #PWR015
U 1 1 592D3D29
P 2100 3500
F 0 "#PWR015" H 2100 3350 50  0001 C CNN
F 1 "VCC" H 2100 3650 50  0000 C CNN
F 2 "" H 2100 3500 50  0001 C CNN
F 3 "" H 2100 3500 50  0001 C CNN
	1    2100 3500
	1    0    0    -1  
$EndComp
$Comp
L GND #PWR016
U 1 1 592D3E11
P 2100 4600
F 0 "#PWR016" H 2100 4350 50  0001 C CNN
F 1 "GND" H 2100 4450 50  0000 C CNN
F 2 "" H 2100 4600 50  0001 C CNN
F 3 "" H 2100 4600 50  0001 C CNN
	1    2100 4600
	1    0    0    -1  
$EndComp
NoConn ~ 1450 4400
$Comp
L R R3
U 1 1 592D408F
P 2450 3850
F 0 "R3" V 2530 3850 50  0000 C CNN
F 1 "R" V 2450 3850 50  0000 C CNN
F 2 "Resistors_THT:R_Axial_DIN0204_L3.6mm_D1.6mm_P2.54mm_Vertical" V 2380 3850 50  0001 C CNN
F 3 "" H 2450 3850 50  0001 C CNN
	1    2450 3850
	1    0    0    -1  
$EndComp
$Comp
L R R4
U 1 1 592D40F7
P 2650 3850
F 0 "R4" V 2730 3850 50  0000 C CNN
F 1 "R" V 2650 3850 50  0000 C CNN
F 2 "Resistors_THT:R_Axial_DIN0204_L3.6mm_D1.6mm_P2.54mm_Vertical" V 2580 3850 50  0001 C CNN
F 3 "" H 2650 3850 50  0001 C CNN
	1    2650 3850
	1    0    0    -1  
$EndComp
Text Label 1500 4000 0    60   ~ 0
VCC
Text Label 1500 4100 0    60   ~ 0
DATA_IN
Text Label 1500 4200 0    60   ~ 0
SCLK
Text Label 1500 4300 0    60   ~ 0
LATCH
$Comp
L PWR_FLAG #FLG017
U 1 1 592D5A6E
P 2000 4000
F 0 "#FLG017" H 2000 4075 50  0001 C CNN
F 1 "PWR_FLAG" H 2000 4150 50  0000 C CNN
F 2 "" H 2000 4000 50  0001 C CNN
F 3 "" H 2000 4000 50  0001 C CNN
	1    2000 4000
	1    0    0    -1  
$EndComp
$Comp
L PWR_FLAG #FLG018
U 1 1 592D6059
P 2000 4500
F 0 "#FLG018" H 2000 4575 50  0001 C CNN
F 1 "PWR_FLAG" H 2000 4650 50  0000 C CNN
F 2 "" H 2000 4500 50  0001 C CNN
F 3 "" H 2000 4500 50  0001 C CNN
	1    2000 4500
	1    0    0    -1  
$EndComp
$Comp
L R R6
U 1 1 592D6DF0
P 3400 1500
F 0 "R6" V 3480 1500 50  0000 C CNN
F 1 "143k" V 3400 1500 50  0000 C CNN
F 2 "Resistors_THT:R_Axial_DIN0204_L3.6mm_D1.6mm_P2.54mm_Vertical" V 3330 1500 50  0001 C CNN
F 3 "" H 3400 1500 50  0001 C CNN
	1    3400 1500
	0    -1   -1   0   
$EndComp
$Comp
L R R5
U 1 1 592F5151
P 1600 2350
F 0 "R5" V 1680 2350 50  0000 C CNN
F 1 "270k" V 1600 2350 50  0000 C CNN
F 2 "Resistors_THT:R_Axial_DIN0204_L3.6mm_D1.6mm_P2.54mm_Vertical" V 1530 2350 50  0001 C CNN
F 3 "" H 1600 2350 50  0001 C CNN
	1    1600 2350
	0    1    -1   0   
$EndComp
$Comp
L C C3
U 1 1 592F51DD
P 1050 3000
F 0 "C3" H 1075 3100 50  0000 L CNN
F 1 "C" H 1075 2900 50  0000 L CNN
F 2 "Capacitors_THT:C_Disc_D3.0mm_W1.6mm_P2.50mm" H 1088 2850 50  0001 C CNN
F 3 "" H 1050 3000 50  0001 C CNN
	1    1050 3000
	1    0    0    -1  
$EndComp
$Comp
L GND #PWR019
U 1 1 592F6FA1
P 1050 3250
F 0 "#PWR019" H 1050 3000 50  0001 C CNN
F 1 "GND" H 1050 3100 50  0000 C CNN
F 2 "" H 1050 3250 50  0001 C CNN
F 3 "" H 1050 3250 50  0001 C CNN
	1    1050 3250
	1    0    0    -1  
$EndComp
Wire Wire Line
	1050 1150 1050 1600
Wire Wire Line
	2050 1500 2250 1500
Wire Wire Line
	1750 1150 2150 1150
Connection ~ 2150 1500
Wire Wire Line
	1450 1150 1050 1150
Connection ~ 1050 1500
Wire Wire Line
	1050 2000 1050 1900
Wire Wire Line
	3150 1500 3250 1500
Wire Wire Line
	3950 1100 3950 1300
Wire Wire Line
	4150 1200 3950 1200
Connection ~ 3950 1200
Wire Wire Line
	3950 1800 3950 1700
Wire Wire Line
	3950 700  3950 800 
Wire Wire Line
	4450 1200 4800 1200
Wire Wire Line
	5700 5400 5800 5400
Wire Wire Line
	5800 5100 5800 5000
Wire Wire Line
	5700 3700 5800 3700
Wire Wire Line
	4750 4000 5350 4000
Wire Wire Line
	4750 4100 5350 4100
Wire Wire Line
	4750 4200 5350 4200
Wire Wire Line
	4750 4300 5350 4300
Wire Wire Line
	4750 4400 5350 4400
Wire Wire Line
	4750 4500 5350 4500
Wire Wire Line
	4750 4600 5350 4600
Wire Wire Line
	4750 4700 5350 4700
Wire Wire Line
	4750 5700 5350 5700
Wire Wire Line
	4750 5800 5350 5800
Wire Wire Line
	4750 5900 5350 5900
Wire Wire Line
	4750 6000 5350 6000
Wire Wire Line
	4750 6100 5350 6100
Wire Wire Line
	4750 6200 5350 6200
Wire Wire Line
	4750 6300 5350 6300
Wire Wire Line
	4750 6400 5350 6400
Wire Wire Line
	4750 4900 4850 4900
Wire Wire Line
	4850 4900 4850 5300
Wire Wire Line
	4850 5300 3250 5300
Wire Wire Line
	3250 5300 3250 5700
Wire Wire Line
	3250 5700 3350 5700
Wire Wire Line
	5800 6700 5800 6800
Wire Wire Line
	4600 1350 4600 1200
Connection ~ 4600 1200
Wire Wire Line
	4600 1650 4600 1800
Wire Wire Line
	6450 1150 6450 1250
Wire Wire Line
	6450 2350 6450 2450
Wire Wire Line
	7100 2350 7100 2450
Wire Wire Line
	7100 1150 7100 1250
Wire Wire Line
	6450 1750 8700 1750
Wire Wire Line
	8700 3500 8800 3500
Wire Wire Line
	7100 1850 8500 1850
Wire Wire Line
	8500 1850 8500 3800
Wire Wire Line
	8500 3700 8800 3700
Wire Wire Line
	6450 1650 6450 1950
Wire Wire Line
	7100 1650 7100 1950
Connection ~ 7100 1850
Connection ~ 6450 1750
Wire Wire Line
	3350 4000 2800 4000
Wire Wire Line
	1450 4200 3350 4200
Wire Wire Line
	3000 4200 3000 5900
Wire Wire Line
	3000 5900 3350 5900
Connection ~ 3000 4200
Wire Wire Line
	2800 6200 3350 6200
Wire Wire Line
	2800 4300 2800 6200
Wire Wire Line
	1450 4300 2800 4300
Wire Wire Line
	2800 4500 3350 4500
Connection ~ 2800 4500
Wire Wire Line
	3250 6000 3350 6000
Wire Wire Line
	3250 6300 3350 6300
Wire Wire Line
	3250 4600 3350 4600
Wire Wire Line
	3250 4300 3350 4300
Wire Wire Line
	1050 1500 1150 1500
Wire Wire Line
	2150 1150 2150 1500
Wire Wire Line
	2050 2750 2400 2750
Wire Wire Line
	6050 1450 6150 1450
Wire Wire Line
	8200 2750 4400 2750
Wire Wire Line
	8200 1450 8200 2750
Wire Wire Line
	6050 2150 6150 2150
Wire Wire Line
	6250 4000 8800 4000
Wire Wire Line
	6250 4100 8800 4100
Wire Wire Line
	6250 4200 8800 4200
Wire Wire Line
	6250 4300 8800 4300
Wire Wire Line
	6250 4400 8800 4400
Wire Wire Line
	6250 4500 8800 4500
Wire Wire Line
	6250 4600 8800 4600
Wire Wire Line
	6250 4700 8800 4700
Wire Wire Line
	6250 5700 7500 5700
Wire Wire Line
	7500 5700 7500 4800
Wire Wire Line
	7500 4800 8800 4800
Wire Wire Line
	6250 5800 7600 5800
Wire Wire Line
	7600 5800 7600 5000
Wire Wire Line
	7600 5000 8800 5000
Wire Wire Line
	6250 5900 7700 5900
Wire Wire Line
	7700 5900 7700 5100
Wire Wire Line
	7700 5100 8800 5100
Wire Wire Line
	6250 6000 7800 6000
Wire Wire Line
	7800 6000 7800 5200
Wire Wire Line
	7800 5200 8800 5200
Wire Wire Line
	6250 6100 7900 6100
Wire Wire Line
	7900 6100 7900 5300
Wire Wire Line
	7900 5300 8800 5300
Wire Wire Line
	6250 6200 8000 6200
Wire Wire Line
	8000 6200 8000 5400
Wire Wire Line
	6250 6300 8100 6300
Wire Wire Line
	8100 6300 8100 5500
Wire Wire Line
	6250 6400 8200 6400
Wire Wire Line
	8200 6400 8200 5600
Wire Wire Line
	8800 3400 8700 3400
Connection ~ 8700 3400
Wire Wire Line
	8500 3800 8800 3800
Connection ~ 8500 3700
Wire Wire Line
	2800 4000 2800 4100
Wire Wire Line
	2800 4100 1450 4100
Wire Wire Line
	2100 4000 1450 4000
Wire Wire Line
	2100 3500 2100 4000
Wire Wire Line
	1450 4500 2100 4500
Wire Wire Line
	2100 4500 2100 4600
Wire Wire Line
	2100 3600 2650 3600
Wire Wire Line
	2650 3600 2650 3700
Connection ~ 2100 3600
Wire Wire Line
	2450 3700 2450 3600
Connection ~ 2450 3600
Wire Wire Line
	2250 3700 2250 3600
Connection ~ 2250 3600
Wire Wire Line
	2250 4000 2250 4100
Connection ~ 2250 4100
Wire Wire Line
	2450 4000 2450 4200
Connection ~ 2450 4200
Wire Wire Line
	2650 4000 2650 4300
Connection ~ 2650 4300
Connection ~ 2000 4000
Connection ~ 2000 4500
Wire Wire Line
	3550 1500 3650 1500
Wire Wire Line
	2150 2750 2150 2350
Wire Wire Line
	2150 2350 1750 2350
Connection ~ 2150 2750
Wire Wire Line
	1450 2350 1050 2350
Wire Wire Line
	1050 2350 1050 2850
Wire Wire Line
	1150 2750 1050 2750
Connection ~ 1050 2750
Wire Wire Line
	1050 3250 1050 3150
$Comp
L R R9
U 1 1 592F7DC7
P 7950 1450
F 0 "R9" V 8030 1450 50  0000 C CNN
F 1 "6.8k" V 7950 1450 50  0000 C CNN
F 2 "Resistors_THT:R_Axial_DIN0204_L3.6mm_D1.6mm_P2.54mm_Vertical" V 7880 1450 50  0001 C CNN
F 3 "" H 7950 1450 50  0001 C CNN
	1    7950 1450
	0    -1   -1   0   
$EndComp
$Comp
L R R10
U 1 1 592F7EB3
P 7950 2150
F 0 "R10" V 8030 2150 50  0000 C CNN
F 1 "6.8k" V 7950 2150 50  0000 C CNN
F 2 "Resistors_THT:R_Axial_DIN0204_L3.6mm_D1.6mm_P2.54mm_Vertical" V 7880 2150 50  0001 C CNN
F 3 "" H 7950 2150 50  0001 C CNN
	1    7950 2150
	0    -1   -1   0   
$EndComp
$Comp
L R R8
U 1 1 592F82A2
P 5900 2150
F 0 "R8" V 5980 2150 50  0000 C CNN
F 1 "6.8k" V 5900 2150 50  0000 C CNN
F 2 "Resistors_THT:R_Axial_DIN0204_L3.6mm_D1.6mm_P2.54mm_Vertical" V 5830 2150 50  0001 C CNN
F 3 "" H 5900 2150 50  0001 C CNN
	1    5900 2150
	0    -1   -1   0   
$EndComp
$Comp
L R R7
U 1 1 592F8358
P 5900 1450
F 0 "R7" V 5980 1450 50  0000 C CNN
F 1 "6.8k" V 5900 1450 50  0000 C CNN
F 2 "Resistors_THT:R_Axial_DIN0204_L3.6mm_D1.6mm_P2.54mm_Vertical" V 5830 1450 50  0001 C CNN
F 3 "" H 5900 1450 50  0001 C CNN
	1    5900 1450
	0    -1   -1   0   
$EndComp
Wire Wire Line
	7400 1450 7800 1450
Wire Wire Line
	7400 2150 7800 2150
Wire Wire Line
	8200 2150 8100 2150
Wire Wire Line
	8100 1450 8200 1450
Connection ~ 8200 2150
Wire Wire Line
	3300 2750 3500 2750
Wire Wire Line
	3400 2750 3400 2350
Wire Wire Line
	3400 2350 5500 2350
Connection ~ 3400 2750
Wire Wire Line
	5500 2350 5500 1450
Wire Wire Line
	5500 1450 5750 1450
Wire Wire Line
	5750 2150 5500 2150
Connection ~ 5500 2150
$Comp
L 74HC14 U1
U 1 1 5933F844
P 1600 1500
F 0 "U1" H 1750 1600 50  0000 C CNN
F 1 "74HC14" H 1800 1400 50  0000 C CNN
F 2 "Housings_DIP:DIP-14_W7.62mm" H 1600 1500 50  0001 C CNN
F 3 "" H 1600 1500 50  0001 C CNN
	1    1600 1500
	1    0    0    -1  
$EndComp
$Comp
L 74HC14 U1
U 3 1 5933F91F
P 2700 1500
F 0 "U1" H 2850 1600 50  0000 C CNN
F 1 "74HC14" H 2900 1400 50  0000 C CNN
F 2 "Housings_DIP:DIP-14_W7.62mm" H 2700 1500 50  0001 C CNN
F 3 "" H 2700 1500 50  0001 C CNN
	3    2700 1500
	1    0    0    -1  
$EndComp
$Comp
L 74HC14 U1
U 2 1 5933FA44
P 1600 2750
F 0 "U1" H 1750 2850 50  0000 C CNN
F 1 "74HC14" H 1800 2650 50  0000 C CNN
F 2 "Housings_DIP:DIP-14_W7.62mm" H 1600 2750 50  0001 C CNN
F 3 "" H 1600 2750 50  0001 C CNN
	2    1600 2750
	1    0    0    -1  
$EndComp
$Comp
L 74HC14 U1
U 4 1 5933FAA9
P 2850 2750
F 0 "U1" H 3000 2850 50  0000 C CNN
F 1 "74HC14" H 3050 2650 50  0000 C CNN
F 2 "Housings_DIP:DIP-14_W7.62mm" H 2850 2750 50  0001 C CNN
F 3 "" H 2850 2750 50  0001 C CNN
	4    2850 2750
	1    0    0    -1  
$EndComp
$Comp
L 74HC14 U1
U 5 1 5933FB12
P 3950 2750
F 0 "U1" H 4100 2850 50  0000 C CNN
F 1 "74HC14" H 4150 2650 50  0000 C CNN
F 2 "Housings_DIP:DIP-14_W7.62mm" H 3950 2750 50  0001 C CNN
F 3 "" H 3950 2750 50  0001 C CNN
	5    3950 2750
	1    0    0    -1  
$EndComp
Text Notes 1450 1850 0    60   ~ 0
f=1/CR=50kHz
Text Notes 1400 3100 0    60   ~ 0
f=1/CR=37Hz
$Comp
L 74HC14 U1
U 6 1 59342B40
P 9700 1450
F 0 "U1" H 9850 1550 50  0000 C CNN
F 1 "74HC14" H 9900 1350 50  0000 C CNN
F 2 "Housings_DIP:DIP-14_W7.62mm" H 9700 1450 50  0001 C CNN
F 3 "" H 9700 1450 50  0001 C CNN
	6    9700 1450
	1    0    0    -1  
$EndComp
$Comp
L GND #PWR020
U 1 1 59342CEA
P 9150 1650
F 0 "#PWR020" H 9150 1400 50  0001 C CNN
F 1 "GND" H 9150 1500 50  0000 C CNN
F 2 "" H 9150 1650 50  0001 C CNN
F 3 "" H 9150 1650 50  0001 C CNN
	1    9150 1650
	1    0    0    -1  
$EndComp
Wire Wire Line
	9250 1450 9150 1450
Wire Wire Line
	9150 1450 9150 1650
NoConn ~ 10150 1450
$Comp
L C C4
U 1 1 5934361F
P 10900 1450
F 0 "C4" H 10925 1550 50  0000 L CNN
F 1 "C" H 10925 1350 50  0000 L CNN
F 2 "Capacitors_THT:C_Disc_D3.0mm_W1.6mm_P2.50mm" H 10938 1300 50  0001 C CNN
F 3 "" H 10900 1450 50  0001 C CNN
	1    10900 1450
	1    0    0    -1  
$EndComp
$Comp
L VCC #PWR021
U 1 1 593436A6
P 9650 1250
F 0 "#PWR021" H 9650 1100 50  0001 C CNN
F 1 "VCC" H 9650 1400 50  0000 C CNN
F 2 "" H 9650 1250 50  0001 C CNN
F 3 "" H 9650 1250 50  0001 C CNN
	1    9650 1250
	1    0    0    -1  
$EndComp
Wire Wire Line
	9650 1350 9650 1250
$Comp
L GND #PWR022
U 1 1 593440C4
P 9650 1650
F 0 "#PWR022" H 9650 1400 50  0001 C CNN
F 1 "GND" H 9650 1500 50  0000 C CNN
F 2 "" H 9650 1650 50  0001 C CNN
F 3 "" H 9650 1650 50  0001 C CNN
	1    9650 1650
	1    0    0    -1  
$EndComp
Wire Wire Line
	9650 1650 9650 1550
$Comp
L VCC #PWR023
U 1 1 59344325
P 10900 1250
F 0 "#PWR023" H 10900 1100 50  0001 C CNN
F 1 "VCC" H 10900 1400 50  0000 C CNN
F 2 "" H 10900 1250 50  0001 C CNN
F 3 "" H 10900 1250 50  0001 C CNN
	1    10900 1250
	1    0    0    -1  
$EndComp
$Comp
L GND #PWR024
U 1 1 593443B4
P 10900 1650
F 0 "#PWR024" H 10900 1400 50  0001 C CNN
F 1 "GND" H 10900 1500 50  0000 C CNN
F 2 "" H 10900 1650 50  0001 C CNN
F 3 "" H 10900 1650 50  0001 C CNN
	1    10900 1650
	1    0    0    -1  
$EndComp
Wire Wire Line
	10900 1650 10900 1600
Wire Wire Line
	10900 1300 10900 1250
$Comp
L INRC09SS49T DISP1
U 1 1 59346F50
P 9000 3300
F 0 "DISP1" H 9350 3350 60  0000 C CNN
F 1 "INRC09SS49T" H 9350 500 60  0000 C CNN
F 2 "fs495-akizuki-fp:INRC09SS49T" H 9250 3250 60  0001 C CNN
F 3 "" H 9350 3350 60  0000 C CNN
	1    9000 3300
	1    0    0    -1  
$EndComp
NoConn ~ 8800 5800
NoConn ~ 8800 5900
Wire Wire Line
	8000 5400 8800 5400
Wire Wire Line
	8100 5500 8800 5500
Wire Wire Line
	8200 5600 8800 5600
$Comp
L C C5
U 1 1 59341DF0
P 10450 1450
F 0 "C5" H 10475 1550 50  0000 L CNN
F 1 "C" H 10475 1350 50  0000 L CNN
F 2 "Capacitors_THT:C_Disc_D3.0mm_W1.6mm_P2.50mm" H 10488 1300 50  0001 C CNN
F 3 "" H 10450 1450 50  0001 C CNN
	1    10450 1450
	1    0    0    -1  
$EndComp
$Comp
L VCC #PWR025
U 1 1 59341DF6
P 10450 1250
F 0 "#PWR025" H 10450 1100 50  0001 C CNN
F 1 "VCC" H 10450 1400 50  0000 C CNN
F 2 "" H 10450 1250 50  0001 C CNN
F 3 "" H 10450 1250 50  0001 C CNN
	1    10450 1250
	1    0    0    -1  
$EndComp
$Comp
L GND #PWR026
U 1 1 59341DFC
P 10450 1650
F 0 "#PWR026" H 10450 1400 50  0001 C CNN
F 1 "GND" H 10450 1500 50  0000 C CNN
F 2 "" H 10450 1650 50  0001 C CNN
F 3 "" H 10450 1650 50  0001 C CNN
	1    10450 1650
	1    0    0    -1  
$EndComp
Wire Wire Line
	10450 1650 10450 1600
Wire Wire Line
	10450 1300 10450 1250
$Comp
L R R11
U 1 1 594E7546
P 8700 2950
F 0 "R11" V 8780 2950 50  0000 C CNN
F 1 "0" V 8700 2950 50  0000 C CNN
F 2 "Resistors_THT:R_Axial_DIN0207_L6.3mm_D2.5mm_P2.54mm_Vertical" V 8630 2950 50  0001 C CNN
F 3 "" H 8700 2950 50  0001 C CNN
	1    8700 2950
	1    0    0    -1  
$EndComp
Wire Wire Line
	8700 1750 8700 2800
Wire Wire Line
	8700 3100 8700 3500
$EndSCHEMATC
