EESchema Schematic File Version 2
LIBS:fs495-akizuki-cl
LIBS:power
LIBS:device
LIBS:transistors
LIBS:conn
LIBS:linear
LIBS:regul
LIBS:74xx
LIBS:cmos4000
LIBS:adc-dac
LIBS:memory
LIBS:xilinx
LIBS:microcontrollers
LIBS:dsp
LIBS:microchip
LIBS:analog_switches
LIBS:motorola
LIBS:texas
LIBS:intel
LIBS:audio
LIBS:interface
LIBS:digital-audio
LIBS:philips
LIBS:display
LIBS:cypress
LIBS:siliconi
LIBS:opto
LIBS:atmel
LIBS:contrib
LIBS:valves
EELAYER 25 0
EELAYER END
$Descr A4 11693 8268
encoding utf-8
Sheet 1 1
Title ""
Date ""
Rev ""
Comp ""
Comment1 ""
Comment2 ""
Comment3 ""
Comment4 ""
$EndDescr
$Comp
L HT7733 U1
U 1 1 56888007
P 1750 1300
F 0 "U1" H 1600 1450 60  0000 C CNN
F 1 "HT7733" H 1950 1050 60  0000 C CNN
F 2 "TO_SOT_Packages_THT:TO-92_Inline_Wide" H 1750 1300 60  0001 C CNN
F 3 "" H 1750 1300 60  0000 C CNN
	1    1750 1300
	1    0    0    -1  
$EndComp
NoConn ~ 1250 1300
NoConn ~ 1750 1800
NoConn ~ 2250 1300
$EndSCHEMATC
