EESchema Schematic File Version 2
LIBS:fs495-akizuki-cl
LIBS:power
LIBS:device
LIBS:transistors
LIBS:conn
LIBS:linear
LIBS:regul
LIBS:74xx
LIBS:cmos4000
LIBS:adc-dac
LIBS:memory
LIBS:xilinx
LIBS:microcontrollers
LIBS:dsp
LIBS:microchip
LIBS:analog_switches
LIBS:motorola
LIBS:texas
LIBS:intel
LIBS:audio
LIBS:interface
LIBS:digital-audio
LIBS:philips
LIBS:display
LIBS:cypress
LIBS:siliconi
LIBS:opto
LIBS:atmel
LIBS:contrib
LIBS:valves
LIBS:superaki80_rom_emu-cache
EELAYER 25 0
EELAYER END
$Descr A3 16535 11693
encoding utf-8
Sheet 1 2
Title "SuperAKI-80 ROM Emulator"
Date "2017-05-27"
Rev "Rev. 2"
Comp ""
Comment1 ""
Comment2 ""
Comment3 ""
Comment4 ""
$EndDescr
$Comp
L SuperAKI80_CN2 CN2
U 1 1 589F1365
P 15350 2650
F 0 "CN2" H 15400 2800 60  0000 C CNN
F 1 "SuperAKI80_CN2" H 15400 -1350 60  0000 C CNN
F 2 "Pin_Headers:Pin_Header_Straight_2x20_Pitch2.54mm" H 15400 2650 60  0001 C CNN
F 3 "" H 15400 2650 60  0000 C CNN
	1    15350 2650
	1    0    0    -1  
$EndComp
$Comp
L 74HC595 U2
U 1 1 589F1557
P 5200 3900
F 0 "U2" H 5350 4500 50  0000 C CNN
F 1 "SN74HC595D" H 5200 3300 50  0000 C CNN
F 2 "Housings_SOIC:SOIC-16_3.9x9.9mm_Pitch1.27mm" H 5200 3900 50  0001 C CNN
F 3 "" H 5200 3900 50  0000 C CNN
	1    5200 3900
	1    0    0    -1  
$EndComp
$Comp
L 74HC595 U3
U 1 1 589F158C
P 5200 5200
F 0 "U3" H 5350 5800 50  0000 C CNN
F 1 "SN74HC595D" H 5200 4600 50  0000 C CNN
F 2 "Housings_SOIC:SOIC-16_3.9x9.9mm_Pitch1.27mm" H 5200 5200 50  0001 C CNN
F 3 "" H 5200 5200 50  0000 C CNN
	1    5200 5200
	1    0    0    -1  
$EndComp
$Comp
L 74HC595 U4
U 1 1 589F15C3
P 5200 6500
F 0 "U4" H 5350 7100 50  0000 C CNN
F 1 "SN74HC595D" H 5200 5900 50  0000 C CNN
F 2 "Housings_SOIC:SOIC-16_3.9x9.9mm_Pitch1.27mm" H 5200 6500 50  0001 C CNN
F 3 "" H 5200 6500 50  0000 C CNN
	1    5200 6500
	1    0    0    -1  
$EndComp
Entry Bus Bus
	6000 3450 6100 3350
Entry Bus Bus
	6000 3550 6100 3450
Entry Bus Bus
	6000 3650 6100 3550
Entry Bus Bus
	6000 3750 6100 3650
Entry Bus Bus
	6000 3850 6100 3750
Entry Bus Bus
	6000 3950 6100 3850
Entry Bus Bus
	6000 4050 6100 3950
Entry Bus Bus
	6000 4150 6100 4050
Entry Bus Bus
	6100 4750 6200 4650
Entry Bus Bus
	6100 4850 6200 4750
Entry Bus Bus
	6100 4950 6200 4850
Entry Bus Bus
	6100 5050 6200 4950
Entry Bus Bus
	6100 5150 6200 5050
Entry Bus Bus
	6100 5250 6200 5150
Entry Bus Bus
	6100 5350 6200 5250
Entry Bus Bus
	6100 5450 6200 5350
Entry Bus Bus
	6100 6050 6200 5950
Entry Bus Bus
	6100 6150 6200 6050
Entry Bus Bus
	6100 6250 6200 6150
Entry Bus Bus
	6100 6350 6200 6250
Entry Bus Bus
	6100 6450 6200 6350
Entry Bus Bus
	6100 6550 6200 6450
Entry Bus Bus
	6100 6650 6200 6550
Entry Bus Bus
	6100 6750 6200 6650
Entry Bus Bus
	9400 2800 9500 2700
Entry Bus Bus
	9400 2900 9500 2800
Entry Bus Bus
	9400 3000 9500 2900
Entry Bus Bus
	9400 3100 9500 3000
Entry Bus Bus
	9400 3200 9500 3100
Entry Bus Bus
	9400 3300 9500 3200
Entry Bus Bus
	9400 3400 9500 3300
Entry Bus Bus
	9400 3500 9500 3400
$Comp
L M68AF127B U6
U 1 1 589F2D9D
P 8650 2700
F 0 "U6" H 8450 2750 60  0000 C CNN
F 1 "M68AF127B" H 8650 800 60  0000 C CNN
F 2 "fs495-housing-fp:SO-32_11.3x20.3mm_P1.27mm" H 8650 2700 60  0001 C CNN
F 3 "" H 8650 2700 60  0000 C CNN
	1    8650 2700
	1    0    0    -1  
$EndComp
Entry Bus Bus
	7700 2700 7800 2800
Entry Bus Bus
	7700 2800 7800 2900
Entry Bus Bus
	7700 2900 7800 3000
Entry Bus Bus
	7700 3000 7800 3100
Entry Bus Bus
	7700 3100 7800 3200
Entry Bus Bus
	7700 3200 7800 3300
Entry Bus Bus
	7700 3300 7800 3400
Entry Bus Bus
	7700 3400 7800 3500
Entry Bus Bus
	7700 3500 7800 3600
Entry Bus Bus
	7700 3600 7800 3700
Entry Bus Bus
	7700 3700 7800 3800
Entry Bus Bus
	7700 3800 7800 3900
Entry Bus Bus
	7700 3900 7800 4000
Entry Bus Bus
	7700 4000 7800 4100
Entry Bus Bus
	7700 4100 7800 4200
Entry Bus Bus
	13250 2800 13350 2700
Entry Bus Bus
	13250 2900 13350 2800
Entry Bus Bus
	13250 3000 13350 2900
Entry Bus Bus
	13250 3100 13350 3000
Entry Bus Bus
	13250 3200 13350 3100
Entry Bus Bus
	13250 3300 13350 3200
Entry Bus Bus
	13250 3400 13350 3300
Entry Bus Bus
	13250 3500 13350 3400
Entry Bus Bus
	11350 2700 11450 2800
Entry Bus Bus
	11350 2800 11450 2900
Entry Bus Bus
	11350 2900 11450 3000
Entry Bus Bus
	11350 3000 11450 3100
Entry Bus Bus
	11350 3100 11450 3200
Entry Bus Bus
	11350 3200 11450 3300
Entry Bus Bus
	11350 3300 11450 3400
Entry Bus Bus
	11350 3400 11450 3500
Entry Bus Bus
	11350 3500 11450 3600
Entry Bus Bus
	11350 3600 11450 3700
Entry Bus Bus
	11350 3700 11450 3800
Entry Bus Bus
	11350 3800 11450 3900
Entry Bus Bus
	11350 3900 11450 4000
Entry Bus Bus
	11350 4000 11450 4100
Entry Bus Bus
	11350 4100 11450 4200
Text Notes 1800 7350 0    60   ~ 0
~CPU_MEMRD~ = ~ROM_OE~\nCPU_A[14:0] = ROM_A[14:0]\nCPU_A[15] = ~ROM_CE\n(*) needs jumpering
$Comp
L VCC #PWR01
U 1 1 589F6A0E
P 14050 4900
F 0 "#PWR01" H 14050 4750 50  0001 C CNN
F 1 "VCC" H 14050 5050 50  0000 C CNN
F 2 "" H 14050 4900 50  0000 C CNN
F 3 "" H 14050 4900 50  0000 C CNN
	1    14050 4900
	1    0    0    -1  
$EndComp
$Comp
L VCC #PWR02
U 1 1 589F6A3B
P 14450 4900
F 0 "#PWR02" H 14450 4750 50  0001 C CNN
F 1 "VCC" H 14450 5050 50  0000 C CNN
F 2 "" H 14450 4900 50  0000 C CNN
F 3 "" H 14450 4900 50  0000 C CNN
	1    14450 4900
	1    0    0    -1  
$EndComp
$Comp
L R R13
U 1 1 589F8B5A
P 14050 5200
F 0 "R13" V 14130 5200 50  0000 C CNN
F 1 "10k" V 14050 5200 50  0000 C CNN
F 2 "Resistors_THT:R_Axial_DIN0204_L3.6mm_D1.6mm_P5.08mm_Vertical" V 13980 5200 50  0001 C CNN
F 3 "" H 14050 5200 50  0000 C CNN
	1    14050 5200
	1    0    0    -1  
$EndComp
$Comp
L R R11
U 1 1 589F8BAA
P 14450 5200
F 0 "R11" V 14530 5200 50  0000 C CNN
F 1 "10k" V 14450 5200 50  0000 C CNN
F 2 "Resistors_THT:R_Axial_DIN0204_L3.6mm_D1.6mm_P5.08mm_Vertical" V 14380 5200 50  0001 C CNN
F 3 "" H 14450 5200 50  0000 C CNN
	1    14450 5200
	1    0    0    -1  
$EndComp
Text Label 1100 2150 0    60   ~ 0
~DMA_WRITE
Text Label 1100 2050 0    60   ~ 0
~DMA_REQ
Text Label 1100 2350 0    60   ~ 0
SCLK
Text Label 1100 2250 0    60   ~ 0
DATA_IN
Entry Bus Bus
	11350 4200 11450 4300
$Comp
L VCC #PWR03
U 1 1 589FBB71
P 14250 4900
F 0 "#PWR03" H 14250 4750 50  0001 C CNN
F 1 "VCC" H 14250 5050 50  0000 C CNN
F 2 "" H 14250 4900 50  0000 C CNN
F 3 "" H 14250 4900 50  0000 C CNN
	1    14250 4900
	1    0    0    -1  
$EndComp
$Comp
L R R10
U 1 1 589FBB77
P 14250 5200
F 0 "R10" V 14330 5200 50  0000 C CNN
F 1 "10k" V 14250 5200 50  0000 C CNN
F 2 "Resistors_THT:R_Axial_DIN0204_L3.6mm_D1.6mm_P5.08mm_Vertical" V 14180 5200 50  0001 C CNN
F 3 "" H 14250 5200 50  0000 C CNN
	1    14250 5200
	1    0    0    -1  
$EndComp
$Comp
L VCC #PWR04
U 1 1 589FBED8
P 13850 4900
F 0 "#PWR04" H 13850 4750 50  0001 C CNN
F 1 "VCC" H 13850 5050 50  0000 C CNN
F 2 "" H 13850 4900 50  0000 C CNN
F 3 "" H 13850 4900 50  0000 C CNN
	1    13850 4900
	1    0    0    -1  
$EndComp
$Comp
L R R12
U 1 1 589FBEDE
P 13850 5200
F 0 "R12" V 13930 5200 50  0000 C CNN
F 1 "10k" V 13850 5200 50  0000 C CNN
F 2 "Resistors_THT:R_Axial_DIN0204_L3.6mm_D1.6mm_P5.08mm_Vertical" V 13780 5200 50  0001 C CNN
F 3 "" H 13850 5200 50  0000 C CNN
	1    13850 5200
	1    0    0    -1  
$EndComp
$Comp
L R R8
U 1 1 58A072B6
P 10150 6200
F 0 "R8" V 10230 6200 50  0000 C CNN
F 1 "10k" V 10150 6200 50  0000 C CNN
F 2 "Resistors_THT:R_Axial_DIN0204_L3.6mm_D1.6mm_P5.08mm_Vertical" V 10080 6200 50  0001 C CNN
F 3 "" H 10150 6200 50  0000 C CNN
	1    10150 6200
	1    0    0    1   
$EndComp
$Comp
L R R9
U 1 1 58A0731B
P 10300 6200
F 0 "R9" V 10380 6200 50  0000 C CNN
F 1 "10k" V 10300 6200 50  0000 C CNN
F 2 "Resistors_THT:R_Axial_DIN0204_L3.6mm_D1.6mm_P5.08mm_Vertical" V 10230 6200 50  0001 C CNN
F 3 "" H 10300 6200 50  0000 C CNN
	1    10300 6200
	1    0    0    -1  
$EndComp
$Comp
L VCC #PWR05
U 1 1 58A09A18
P 4450 3750
F 0 "#PWR05" H 4450 3600 50  0001 C CNN
F 1 "VCC" H 4450 3900 50  0000 C CNN
F 2 "" H 4450 3750 50  0000 C CNN
F 3 "" H 4450 3750 50  0000 C CNN
	1    4450 3750
	0    -1   -1   0   
$EndComp
$Comp
L VCC #PWR06
U 1 1 58A0AA63
P 4450 5050
F 0 "#PWR06" H 4450 4900 50  0001 C CNN
F 1 "VCC" H 4450 5200 50  0000 C CNN
F 2 "" H 4450 5050 50  0000 C CNN
F 3 "" H 4450 5050 50  0000 C CNN
	1    4450 5050
	0    -1   -1   0   
$EndComp
$Comp
L VCC #PWR07
U 1 1 58A0AA93
P 4450 6350
F 0 "#PWR07" H 4450 6200 50  0001 C CNN
F 1 "VCC" H 4450 6500 50  0000 C CNN
F 2 "" H 4450 6350 50  0000 C CNN
F 3 "" H 4450 6350 50  0000 C CNN
	1    4450 6350
	0    -1   -1   0   
$EndComp
$Comp
L VCC #PWR08
U 1 1 58A0B0A4
P 10150 6000
F 0 "#PWR08" H 10150 5850 50  0001 C CNN
F 1 "VCC" H 10150 6150 50  0000 C CNN
F 2 "" H 10150 6000 50  0000 C CNN
F 3 "" H 10150 6000 50  0000 C CNN
	1    10150 6000
	-1   0    0    -1  
$EndComp
$Comp
L VCC #PWR09
U 1 1 58A0B1B3
P 10300 6000
F 0 "#PWR09" H 10300 5850 50  0001 C CNN
F 1 "VCC" H 10300 6150 50  0000 C CNN
F 2 "" H 10300 6000 50  0000 C CNN
F 3 "" H 10300 6000 50  0000 C CNN
	1    10300 6000
	1    0    0    -1  
$EndComp
Text Label 1100 1950 0    60   ~ 0
~RESET
$Comp
L TC7WH74 U5
U 1 1 58A0DF34
P 5400 2850
F 0 "U5" H 5600 2900 60  0000 C CNN
F 1 "TC7WH74FU" H 5700 2300 60  0000 C CNN
F 2 "Housings_SSOP:SSOP-8_2.95x2.8mm_Pitch0.65mm" H 5400 2850 60  0001 C CNN
F 3 "" H 5400 2850 60  0000 C CNN
	1    5400 2850
	1    0    0    1   
$EndComp
NoConn ~ 9950 6700
NoConn ~ 9950 6400
NoConn ~ 9950 6300
$Comp
L VCC #PWR010
U 1 1 58A14F17
P 3600 1450
F 0 "#PWR010" H 3600 1300 50  0001 C CNN
F 1 "VCC" H 3600 1600 50  0000 C CNN
F 2 "" H 3600 1450 50  0000 C CNN
F 3 "" H 3600 1450 50  0000 C CNN
	1    3600 1450
	1    0    0    -1  
$EndComp
$Comp
L VCC #PWR011
U 1 1 58A14F56
P 5400 1450
F 0 "#PWR011" H 5400 1300 50  0001 C CNN
F 1 "VCC" H 5400 1600 50  0000 C CNN
F 2 "" H 5400 1450 50  0000 C CNN
F 3 "" H 5400 1450 50  0000 C CNN
	1    5400 1450
	1    0    0    -1  
$EndComp
NoConn ~ 15150 2650
NoConn ~ 15150 3050
NoConn ~ 15150 3150
NoConn ~ 15150 3250
NoConn ~ 15150 3350
NoConn ~ 15150 3450
NoConn ~ 15150 3550
NoConn ~ 15150 3650
NoConn ~ 15150 3750
NoConn ~ 15150 3850
NoConn ~ 15150 3950
NoConn ~ 15150 4050
NoConn ~ 15150 4150
NoConn ~ 15150 4250
NoConn ~ 15150 4350
NoConn ~ 15150 4450
NoConn ~ 15150 4550
NoConn ~ 15150 4650
NoConn ~ 15150 4750
NoConn ~ 15150 4850
NoConn ~ 15150 5050
NoConn ~ 15150 5250
NoConn ~ 15150 5350
NoConn ~ 15150 5450
$Comp
L C_Small C3
U 1 1 58A19672
P 14850 6100
F 0 "C3" H 14860 6170 50  0000 L CNN
F 1 "0.1uF" H 14860 6020 50  0000 L CNN
F 2 "Capacitors_THT:C_Disc_D4.3mm_W1.9mm_P5.00mm" H 14850 6100 50  0001 C CNN
F 3 "" H 14850 6100 50  0000 C CNN
	1    14850 6100
	-1   0    0    1   
$EndComp
NoConn ~ 5850 2400
$Comp
L CONN_01X06 P1
U 1 1 58A21A0D
P 800 2200
F 0 "P1" H 800 2550 50  0000 C CNN
F 1 "CONN_01X06" V 900 2200 50  0000 C CNN
F 2 "Pin_Headers:Pin_Header_Straight_2x03_Pitch2.54mm" H 800 2200 50  0001 C CNN
F 3 "" H 800 2200 50  0000 C CNN
	1    800  2200
	-1   0    0    1   
$EndComp
$Comp
L GND #PWR012
U 1 1 58A22FC8
P 1100 2550
F 0 "#PWR012" H 1100 2300 50  0001 C CNN
F 1 "GND" H 1100 2400 50  0000 C CNN
F 2 "" H 1100 2550 50  0000 C CNN
F 3 "" H 1100 2550 50  0000 C CNN
	1    1100 2550
	1    0    0    -1  
$EndComp
$Comp
L R R1
U 1 1 58A23435
P 1750 1600
F 0 "R1" V 1830 1600 50  0000 C CNN
F 1 "10k" V 1750 1600 50  0000 C CNN
F 2 "Resistors_THT:R_Axial_DIN0204_L3.6mm_D1.6mm_P5.08mm_Vertical" V 1680 1600 50  0001 C CNN
F 3 "" H 1750 1600 50  0000 C CNN
	1    1750 1600
	1    0    0    1   
$EndComp
$Comp
L R R3
U 1 1 58A2379A
P 1950 1600
F 0 "R3" V 2030 1600 50  0000 C CNN
F 1 "10k" V 1950 1600 50  0000 C CNN
F 2 "Resistors_THT:R_Axial_DIN0204_L3.6mm_D1.6mm_P5.08mm_Vertical" V 1880 1600 50  0001 C CNN
F 3 "" H 1950 1600 50  0000 C CNN
	1    1950 1600
	1    0    0    1   
$EndComp
$Comp
L VCC #PWR013
U 1 1 58A23A67
P 1750 1450
F 0 "#PWR013" H 1750 1300 50  0001 C CNN
F 1 "VCC" H 1750 1600 50  0000 C CNN
F 2 "" H 1750 1450 50  0000 C CNN
F 3 "" H 1750 1450 50  0000 C CNN
	1    1750 1450
	1    0    0    -1  
$EndComp
$Comp
L VCC #PWR014
U 1 1 58A23CB0
P 1950 1450
F 0 "#PWR014" H 1950 1300 50  0001 C CNN
F 1 "VCC" H 1950 1600 50  0000 C CNN
F 2 "" H 1950 1450 50  0000 C CNN
F 3 "" H 1950 1450 50  0000 C CNN
	1    1950 1450
	1    0    0    -1  
$EndComp
$Comp
L GND #PWR015
U 1 1 58A24D22
P 8650 4750
F 0 "#PWR015" H 8650 4500 50  0001 C CNN
F 1 "GND" H 8650 4600 50  0000 C CNN
F 2 "" H 8650 4750 50  0000 C CNN
F 3 "" H 8650 4750 50  0000 C CNN
	1    8650 4750
	1    0    0    -1  
$EndComp
$Comp
L D_Schottky_Small D1
U 1 1 58A24EBC
P 5450 10000
F 0 "D1" H 5400 10080 50  0000 L CNN
F 1 "SD305A" H 5350 9900 50  0000 L CNN
F 2 "Diodes_THT:D_DO-35_SOD27_P7.62mm_Horizontal" V 5450 10000 50  0001 C CNN
F 3 "" V 5450 10000 50  0000 C CNN
	1    5450 10000
	-1   0    0    1   
$EndComp
$Comp
L D_Schottky_Small D2
U 1 1 58A24FD0
P 5600 9750
F 0 "D2" H 5550 9830 50  0000 L CNN
F 1 "SD305A" H 5450 9650 50  0000 L CNN
F 2 "Diodes_THT:D_DO-35_SOD27_P7.62mm_Horizontal" V 5600 9750 50  0001 C CNN
F 3 "" V 5600 9750 50  0000 C CNN
	1    5600 9750
	0    -1   -1   0   
$EndComp
$Comp
L BATT_CR2032 B1
U 1 1 58A250C0
P 4750 10000
F 0 "B1" H 4750 10200 60  0000 C CNN
F 1 "BATT_CR2032" H 4750 10300 60  0000 C CNN
F 2 "fs495-akizuki-fp:CH25-2032LF" H 4700 10200 60  0001 C CNN
F 3 "" H 4700 10200 60  0000 C CNN
	1    4750 10000
	-1   0    0    1   
$EndComp
$Comp
L VCC #PWR016
U 1 1 58A25D29
P 5600 9600
F 0 "#PWR016" H 5600 9450 50  0001 C CNN
F 1 "VCC" H 5600 9750 50  0000 C CNN
F 2 "" H 5600 9600 50  0000 C CNN
F 3 "" H 5600 9600 50  0000 C CNN
	1    5600 9600
	1    0    0    -1  
$EndComp
$Comp
L NJU7223 U7
U 1 1 58A3331E
P 2700 10100
F 0 "U7" H 2550 10350 60  0000 C CNN
F 1 "NJU7223" H 2950 9900 60  0000 C CNN
F 2 "fs495-akizuki-fp:TO-252" H 2700 10100 60  0001 C CNN
F 3 "" H 2700 10100 60  0000 C CNN
	1    2700 10100
	1    0    0    -1  
$EndComp
$Comp
L R R6
U 1 1 58A33EE9
P 7650 6250
F 0 "R6" V 7730 6250 50  0000 C CNN
F 1 "10k" V 7650 6250 50  0000 C CNN
F 2 "Resistors_THT:R_Axial_DIN0204_L3.6mm_D1.6mm_P5.08mm_Vertical" V 7580 6250 50  0001 C CNN
F 3 "" H 7650 6250 50  0000 C CNN
	1    7650 6250
	1    0    0    -1  
$EndComp
$Comp
L R R7
U 1 1 58A33FD6
P 7850 6250
F 0 "R7" V 7930 6250 50  0000 C CNN
F 1 "10k" V 7850 6250 50  0000 C CNN
F 2 "Resistors_THT:R_Axial_DIN0204_L3.6mm_D1.6mm_P5.08mm_Vertical" V 7780 6250 50  0001 C CNN
F 3 "" H 7850 6250 50  0000 C CNN
	1    7850 6250
	1    0    0    -1  
$EndComp
$Comp
L VCC #PWR017
U 1 1 58A34022
P 7850 6050
F 0 "#PWR017" H 7850 5900 50  0001 C CNN
F 1 "VCC" H 7850 6200 50  0000 C CNN
F 2 "" H 7850 6050 50  0000 C CNN
F 3 "" H 7850 6050 50  0000 C CNN
	1    7850 6050
	1    0    0    -1  
$EndComp
$Comp
L GND #PWR018
U 1 1 58A3B2F1
P 2700 10650
F 0 "#PWR018" H 2700 10400 50  0001 C CNN
F 1 "GND" H 2700 10500 50  0000 C CNN
F 2 "" H 2700 10650 50  0000 C CNN
F 3 "" H 2700 10650 50  0000 C CNN
	1    2700 10650
	1    0    0    -1  
$EndComp
$Comp
L CP1_Small C1
U 1 1 58A3D451
P 3300 10200
F 0 "C1" H 3310 10270 50  0000 L CNN
F 1 "47uF" H 3310 10120 50  0000 L CNN
F 2 "Capacitors_THT:CP_Radial_D5.0mm_P2.00mm" H 3300 10200 50  0001 C CNN
F 3 "http://akizukidenshi.com/catalog/g/gP-10596/" H 3300 10200 50  0001 C CNN
	1    3300 10200
	1    0    0    -1  
$EndComp
$Comp
L VCC #PWR019
U 1 1 58A44559
P 7650 6050
F 0 "#PWR019" H 7650 5900 50  0001 C CNN
F 1 "VCC" H 7650 6200 50  0000 C CNN
F 2 "" H 7650 6050 50  0000 C CNN
F 3 "" H 7650 6050 50  0000 C CNN
	1    7650 6050
	1    0    0    -1  
$EndComp
Text Label 13100 2800 0    60   ~ 0
D0
Text Label 13100 2900 0    60   ~ 0
D1
Text Label 13100 3000 0    60   ~ 0
D2
Text Label 13100 3100 0    60   ~ 0
D3
Text Label 13100 3200 0    60   ~ 0
D4
Text Label 13100 3300 0    60   ~ 0
D5
Text Label 13100 3400 0    60   ~ 0
D6
Text Label 13100 3500 0    60   ~ 0
D7
Text Label 11500 2800 0    60   ~ 0
A0
Text Label 11500 2900 0    60   ~ 0
A1
Text Label 11500 3000 0    60   ~ 0
A2
Text Label 11500 3100 0    60   ~ 0
A3
Text Label 11500 3200 0    60   ~ 0
A4
Text Label 11500 3300 0    60   ~ 0
A5
Text Label 11500 3400 0    60   ~ 0
A6
Text Label 11500 3500 0    60   ~ 0
A7
Text Label 11500 3600 0    60   ~ 0
A8
Text Label 11500 3700 0    60   ~ 0
A9
Text Label 11500 3800 0    60   ~ 0
A10
Text Label 11500 3900 0    60   ~ 0
A11
Text Label 11500 4000 0    60   ~ 0
A12
Text Label 11500 4100 0    60   ~ 0
A13
Text Label 11500 4200 0    60   ~ 0
A14
Text Label 11500 4300 0    60   ~ 0
A15
Text Label 9100 2800 0    60   ~ 0
D0
Text Label 9100 2900 0    60   ~ 0
D1
Text Label 9100 3000 0    60   ~ 0
D2
Text Label 9100 3100 0    60   ~ 0
D3
Text Label 9100 3200 0    60   ~ 0
D4
Text Label 9100 3300 0    60   ~ 0
D5
Text Label 9100 3400 0    60   ~ 0
D6
Text Label 9100 3500 0    60   ~ 0
D7
Text Label 8000 2800 0    60   ~ 0
A0
Text Label 8000 2900 0    60   ~ 0
A1
Text Label 8000 3000 0    60   ~ 0
A2
Text Label 8000 3100 0    60   ~ 0
A3
Text Label 8000 3200 0    60   ~ 0
A4
Text Label 8000 3300 0    60   ~ 0
A5
Text Label 8000 3400 0    60   ~ 0
A6
Text Label 8000 3500 0    60   ~ 0
A7
Text Label 8000 3600 0    60   ~ 0
A8
Text Label 8000 3700 0    60   ~ 0
A9
Text Label 8000 3800 0    60   ~ 0
A10
Text Label 8000 3900 0    60   ~ 0
A11
Text Label 8000 4000 0    60   ~ 0
A12
Text Label 8000 4100 0    60   ~ 0
A13
Text Label 8000 4200 0    60   ~ 0
A14
Text Label 5900 3450 0    60   ~ 0
D0
Text Label 5900 3550 0    60   ~ 0
D1
Text Label 5900 3650 0    60   ~ 0
D2
Text Label 5900 3750 0    60   ~ 0
D3
Text Label 5900 3850 0    60   ~ 0
D4
Text Label 5900 3950 0    60   ~ 0
D5
Text Label 5900 4050 0    60   ~ 0
D6
Text Label 5900 4150 0    60   ~ 0
D7
Text Label 5900 4750 0    60   ~ 0
A0
Text Label 5900 4850 0    60   ~ 0
A1
Text Label 5900 4950 0    60   ~ 0
A2
Text Label 5900 5050 0    60   ~ 0
A3
Text Label 5900 5150 0    60   ~ 0
A4
Text Label 5900 5250 0    60   ~ 0
A5
Text Label 5900 5350 0    60   ~ 0
A6
Text Label 5900 5450 0    60   ~ 0
A7
Text Label 5900 6050 0    60   ~ 0
A8
Text Label 5900 6150 0    60   ~ 0
A9
Text Label 5900 6250 0    60   ~ 0
A10
Text Label 5900 6350 0    60   ~ 0
A11
Text Label 5900 6450 0    60   ~ 0
A12
Text Label 5900 6550 0    60   ~ 0
A13
Text Label 5900 6650 0    60   ~ 0
A14
Text Label 5900 6750 0    60   ~ 0
X15
$Comp
L PWR_FLAG #FLG020
U 1 1 58B9F678
P 5950 10000
F 0 "#FLG020" H 5950 10095 50  0001 C CNN
F 1 "PWR_FLAG" H 5950 10180 50  0000 C CNN
F 2 "" H 5950 10000 50  0000 C CNN
F 3 "" H 5950 10000 50  0000 C CNN
	1    5950 10000
	1    0    0    -1  
$EndComp
NoConn ~ 15150 6450
NoConn ~ 15150 6350
$Comp
L VCC #PWR021
U 1 1 58B9BA0B
P 14650 5950
F 0 "#PWR021" H 14650 5800 50  0001 C CNN
F 1 "VCC" H 14650 6100 50  0000 C CNN
F 2 "" H 14650 5950 50  0000 C CNN
F 3 "" H 14650 5950 50  0000 C CNN
	1    14650 5950
	0    -1   -1   0   
$EndComp
$Comp
L GND #PWR022
U 1 1 58B9C37B
P 14650 6250
F 0 "#PWR022" H 14650 6000 50  0001 C CNN
F 1 "GND" H 14650 6100 50  0000 C CNN
F 2 "" H 14650 6250 50  0000 C CNN
F 3 "" H 14650 6250 50  0000 C CNN
	1    14650 6250
	0    1    1    0   
$EndComp
$Comp
L GND #PWR023
U 1 1 58B9AF60
P 4300 10450
F 0 "#PWR023" H 4300 10200 50  0001 C CNN
F 1 "GND" H 4300 10300 50  0000 C CNN
F 2 "" H 4300 10450 50  0000 C CNN
F 3 "" H 4300 10450 50  0000 C CNN
	1    4300 10450
	1    0    0    -1  
$EndComp
$Comp
L +3.3V #PWR024
U 1 1 58BA8FB2
P 3300 9600
F 0 "#PWR024" H 3300 9450 50  0001 C CNN
F 1 "+3.3V" H 3300 9740 50  0000 C CNN
F 2 "" H 3300 9600 50  0000 C CNN
F 3 "" H 3300 9600 50  0000 C CNN
	1    3300 9600
	1    0    0    -1  
$EndComp
$Comp
L +BATT #PWR025
U 1 1 58BA468D
P 6300 10000
F 0 "#PWR025" H 6300 9850 50  0001 C CNN
F 1 "+BATT" H 6300 10140 50  0000 C CNN
F 2 "" H 6300 10000 50  0001 C CNN
F 3 "" H 6300 10000 50  0001 C CNN
	1    6300 10000
	1    0    0    -1  
$EndComp
$Comp
L +BATT #PWR026
U 1 1 58BA4C7E
P 8650 2500
F 0 "#PWR026" H 8650 2350 50  0001 C CNN
F 1 "+BATT" H 8650 2640 50  0000 C CNN
F 2 "" H 8650 2500 50  0001 C CNN
F 3 "" H 8650 2500 50  0001 C CNN
	1    8650 2500
	1    0    0    -1  
$EndComp
Text GLabel 7400 6600 0    60   Input ~ 0
BANK0
Text GLabel 7400 6500 0    60   Input ~ 0
BANK1
Text GLabel 7400 6400 0    60   Input ~ 0
BANK2
NoConn ~ 7500 6400
$Comp
L R R5
U 1 1 58C9C612
P 2550 1600
F 0 "R5" V 2630 1600 50  0000 C CNN
F 1 "10k" V 2550 1600 50  0000 C CNN
F 2 "Resistors_THT:R_Axial_DIN0204_L3.6mm_D1.6mm_P5.08mm_Vertical" V 2480 1600 50  0001 C CNN
F 3 "" H 2550 1600 50  0000 C CNN
	1    2550 1600
	1    0    0    -1  
$EndComp
$Comp
L R R4
U 1 1 58CA0879
P 2350 1600
F 0 "R4" V 2430 1600 50  0000 C CNN
F 1 "10k" V 2350 1600 50  0000 C CNN
F 2 "Resistors_THT:R_Axial_DIN0204_L3.6mm_D1.6mm_P5.08mm_Vertical" V 2280 1600 50  0001 C CNN
F 3 "" H 2350 1600 50  0000 C CNN
	1    2350 1600
	1    0    0    -1  
$EndComp
$Comp
L R R2
U 1 1 58CA08FB
P 2150 1600
F 0 "R2" V 2230 1600 50  0000 C CNN
F 1 "10k" V 2150 1600 50  0000 C CNN
F 2 "Resistors_THT:R_Axial_DIN0204_L3.6mm_D1.6mm_P5.08mm_Vertical" V 2080 1600 50  0001 C CNN
F 3 "" H 2150 1600 50  0000 C CNN
	1    2150 1600
	1    0    0    -1  
$EndComp
$Comp
L VCC #PWR027
U 1 1 58CA09AD
P 2550 1450
F 0 "#PWR027" H 2550 1300 50  0001 C CNN
F 1 "VCC" H 2550 1600 50  0000 C CNN
F 2 "" H 2550 1450 50  0000 C CNN
F 3 "" H 2550 1450 50  0000 C CNN
	1    2550 1450
	1    0    0    -1  
$EndComp
$Comp
L VCC #PWR028
U 1 1 58CA0A27
P 2350 1450
F 0 "#PWR028" H 2350 1300 50  0001 C CNN
F 1 "VCC" H 2350 1600 50  0000 C CNN
F 2 "" H 2350 1450 50  0000 C CNN
F 3 "" H 2350 1450 50  0000 C CNN
	1    2350 1450
	1    0    0    -1  
$EndComp
$Comp
L VCC #PWR029
U 1 1 58CA0AA1
P 2150 1450
F 0 "#PWR029" H 2150 1300 50  0001 C CNN
F 1 "VCC" H 2150 1600 50  0000 C CNN
F 2 "" H 2150 1450 50  0000 C CNN
F 3 "" H 2150 1450 50  0000 C CNN
	1    2150 1450
	1    0    0    -1  
$EndComp
$Comp
L C_Small C2
U 1 1 58D3847D
P 5950 10250
F 0 "C2" H 5960 10320 50  0000 L CNN
F 1 "0.1uF" H 5960 10170 50  0000 L CNN
F 2 "Capacitors_THT:C_Disc_D4.3mm_W1.9mm_P5.00mm" H 5950 10250 50  0001 C CNN
F 3 "" H 5950 10250 50  0000 C CNN
	1    5950 10250
	1    0    0    -1  
$EndComp
$Comp
L GND #PWR030
U 1 1 58D3C856
P 5950 10450
F 0 "#PWR030" H 5950 10200 50  0001 C CNN
F 1 "GND" H 5950 10300 50  0000 C CNN
F 2 "" H 5950 10450 50  0000 C CNN
F 3 "" H 5950 10450 50  0000 C CNN
	1    5950 10450
	1    0    0    -1  
$EndComp
$Comp
L GND #PWR031
U 1 1 58D3CDF2
P 3300 10650
F 0 "#PWR031" H 3300 10400 50  0001 C CNN
F 1 "GND" H 3300 10500 50  0000 C CNN
F 2 "" H 3300 10650 50  0000 C CNN
F 3 "" H 3300 10650 50  0000 C CNN
	1    3300 10650
	1    0    0    -1  
$EndComp
$Comp
L USB_B J2
U 1 1 58DFDD45
P 1550 10200
F 0 "J2" H 1350 10650 50  0000 L CNN
F 1 "USB_B" H 1350 10550 50  0000 L CNN
F 2 "fs495-akizuki-fp:MUSB-5BF01AS" H 1700 10150 50  0001 C CNN
F 3 "" H 1700 10150 50  0001 C CNN
	1    1550 10200
	1    0    0    -1  
$EndComp
NoConn ~ 1450 10600
NoConn ~ 1850 10300
NoConn ~ 1850 10200
$Comp
L GND #PWR032
U 1 1 58DFEF78
P 1550 10650
F 0 "#PWR032" H 1550 10400 50  0001 C CNN
F 1 "GND" H 1550 10500 50  0000 C CNN
F 2 "" H 1550 10650 50  0000 C CNN
F 3 "" H 1550 10650 50  0000 C CNN
	1    1550 10650
	1    0    0    -1  
$EndComp
$Comp
L VCC #PWR033
U 1 1 58DFF832
P 2050 9600
F 0 "#PWR033" H 2050 9450 50  0001 C CNN
F 1 "VCC" H 2050 9750 50  0000 C CNN
F 2 "" H 2050 9600 50  0000 C CNN
F 3 "" H 2050 9600 50  0000 C CNN
	1    2050 9600
	1    0    0    -1  
$EndComp
$Comp
L TEST TP1
U 1 1 58E3B0A5
P 4300 9700
F 0 "TP1" H 4300 10000 50  0000 C BNN
F 1 "TEST" H 4300 9950 50  0000 C CNN
F 2 "fs495-akizuki-fp:Single-Pad-1.7" H 4300 9700 50  0001 C CNN
F 3 "" H 4300 9700 50  0001 C CNN
	1    4300 9700
	1    0    0    -1  
$EndComp
$Comp
L TEST TP2
U 1 1 58E3B1BD
P 5150 9700
F 0 "TP2" H 5150 10000 50  0000 C BNN
F 1 "TEST" H 5150 9950 50  0000 C CNN
F 2 "fs495-akizuki-fp:Single-Pad-1.7" H 5150 9700 50  0001 C CNN
F 3 "" H 5150 9700 50  0001 C CNN
	1    5150 9700
	1    0    0    -1  
$EndComp
$Comp
L 27C256_Socket U9
U 1 1 58B99891
P 12400 3700
F 0 "U9" H 12250 4700 50  0000 C CNN
F 1 "27C256_Socket" H 12400 2700 50  0000 C CNN
F 2 "Housings_DIP:DIP-28_W15.24mm_Socket" H 12400 3700 50  0001 C CNN
F 3 "" H 12400 3700 50  0000 C CNN
	1    12400 3700
	1    0    0    -1  
$EndComp
NoConn ~ 11700 4500
$Comp
L TCM809 U12
U 1 1 58FB7A23
P 9100 10200
F 0 "U12" H 9250 10550 60  0000 C CNN
F 1 "TCM809J" H 9300 9850 60  0000 C CNN
F 2 "fs495-akizuki-fp:SC-70" H 9100 10200 60  0001 C CNN
F 3 "" H 9100 10200 60  0001 C CNN
	1    9100 10200
	-1   0    0    -1  
$EndComp
$Comp
L CONN_01X01_MALE J4
U 1 1 58FBC8B4
P 12700 4900
F 0 "J4" H 12700 4975 50  0000 C CNN
F 1 "CONN_01X01_MALE" H 13300 4950 50  0000 C CNN
F 2 "Pin_Headers:Pin_Header_Straight_1x01_Pitch2.54mm" H 12700 4900 50  0001 C CNN
F 3 "" H 12700 4900 50  0001 C CNN
	1    12700 4900
	-1   0    0    1   
$EndComp
Text Label 10050 4600 0    60   ~ 0
~CPU_MEMRD
Text Label 10050 4900 0    60   ~ 0
~CPU_MEMWR
$Comp
L CONN_01X03_MALE J5
U 1 1 58FE2330
P 7300 10200
F 0 "J5" H 7300 10475 50  0000 C CNN
F 1 "CONN_01X03_MALE" H 7325 9925 50  0000 C CNN
F 2 "Pin_Headers:Pin_Header_Straight_1x03_Pitch2.54mm" H 7300 10400 50  0001 C CNN
F 3 "" H 7300 10400 50  0001 C CNN
	1    7300 10200
	1    0    0    -1  
$EndComp
Text Label 7650 10000 0    60   ~ 0
S8054_OUT
Text Label 7650 10200 0    60   ~ 0
S8054_VDD
Text Label 7650 10400 0    60   ~ 0
S8054_GND
$Sheet
S 9950 9900 1150 600 
U 591080CA
F0 "superaki80_rom_emu_conn" 60
F1 "superaki80_rom_emu_conn.sch" 60
$EndSheet
Text GLabel 15050 4950 0    60   Input ~ 0
~BUSREQ
Text GLabel 14950 2750 0    60   Input ~ 0
CLK
Text GLabel 4700 1850 2    60   Input ~ 0
CLK
Text GLabel 4700 1950 2    60   Input ~ 0
~RSTIN
Text GLabel 14950 2950 0    60   Input ~ 0
~RSTIN
Text GLabel 4700 2050 2    60   Input ~ 0
~BUSREQ
$Comp
L TC7WH74 U1
U 1 1 58A0E777
P 3600 2850
F 0 "U1" H 3800 2900 60  0000 C CNN
F 1 "TC7WH74FU" H 3900 2300 60  0000 C CNN
F 2 "Housings_SSOP:SSOP-8_2.95x2.8mm_Pitch0.65mm" H 3600 2850 60  0001 C CNN
F 3 "" H 3600 2850 60  0000 C CNN
	1    3600 2850
	1    0    0    1   
$EndComp
Text GLabel 14950 2850 0    60   Input ~ 0
~RSTOUT
Text GLabel 9200 4000 2    60   Input ~ 0
~RSTOUT
Text GLabel 13650 5550 0    60   Input ~ 0
~WR
Text GLabel 10000 7000 2    60   Input ~ 0
~WR
Text GLabel 13650 5650 0    60   Input ~ 0
~MREQ
Text GLabel 10000 6900 2    60   Input ~ 0
~MREQ
Text GLabel 15050 5150 0    60   Input ~ 0
~BUSACK
Text GLabel 8450 6100 0    60   Input ~ 0
~BUSACK
Text GLabel 4100 7350 0    60   Input ~ 0
~BUSACK
Text Label 8000 4300 0    60   ~ 0
X15
Text Label 8000 4400 0    60   ~ 0
X16
Entry Bus Bus
	7700 4200 7800 4300
Entry Bus Bus
	7700 4300 7800 4400
Entry Bus Bus
	11250 6600 11350 6500
Entry Bus Bus
	11250 6500 11350 6400
Text Label 11050 6600 0    60   ~ 0
X15
Text Label 11050 6500 0    60   ~ 0
X16
NoConn ~ 5900 6950
$Comp
L R R16
U 1 1 59291F0A
P 10500 7250
F 0 "R16" V 10580 7250 50  0000 C CNN
F 1 "10k" V 10500 7250 50  0000 C CNN
F 2 "Resistors_THT:R_Axial_DIN0204_L3.6mm_D1.6mm_P5.08mm_Vertical" V 10430 7250 50  0001 C CNN
F 3 "" H 10500 7250 50  0001 C CNN
	1    10500 7250
	1    0    0    -1  
$EndComp
$Comp
L GND #PWR034
U 1 1 592922B8
P 10500 7500
F 0 "#PWR034" H 10500 7250 50  0001 C CNN
F 1 "GND" H 10500 7350 50  0000 C CNN
F 2 "" H 10500 7500 50  0001 C CNN
F 3 "" H 10500 7500 50  0001 C CNN
	1    10500 7500
	1    0    0    -1  
$EndComp
$Comp
L 74LS244 U8
U 1 1 58A01807
P 9250 6500
F 0 "U8" H 9300 6300 50  0000 C CNN
F 1 "TC74HC244AF" H 9350 6100 50  0000 C CNN
F 2 "fs495-housing-fp:SOIC-20_5.3x12.8mm_P1.27mm" H 9250 6500 50  0001 C CNN
F 3 "" H 9250 6500 50  0000 C CNN
	1    9250 6500
	1    0    0    1   
$EndComp
Wire Wire Line
	5900 4350 6000 4350
Wire Wire Line
	6000 4350 6000 4550
Wire Wire Line
	6000 4550 4400 4550
Wire Wire Line
	4400 4550 4400 4750
Wire Wire Line
	4400 4750 4500 4750
Wire Wire Line
	5900 5650 6000 5650
Wire Wire Line
	6000 5650 6000 5850
Wire Wire Line
	6000 5850 4400 5850
Wire Wire Line
	4400 5850 4400 6050
Wire Wire Line
	4400 6050 4500 6050
Wire Wire Line
	5900 3450 6000 3450
Wire Wire Line
	5900 3550 6000 3550
Wire Wire Line
	5900 3650 6000 3650
Wire Wire Line
	5900 3750 6000 3750
Wire Wire Line
	5900 3850 6000 3850
Wire Wire Line
	5900 3950 6000 3950
Wire Wire Line
	5900 4050 6000 4050
Wire Wire Line
	5900 4150 6000 4150
Wire Bus Line
	6100 1850 6100 4050
Wire Bus Line
	9500 1850 9500 3400
Wire Wire Line
	9100 2800 9400 2800
Wire Wire Line
	9100 2900 9400 2900
Wire Wire Line
	9100 3000 9400 3000
Wire Wire Line
	9100 3100 9400 3100
Wire Wire Line
	9100 3200 9400 3200
Wire Wire Line
	9100 3300 9400 3300
Wire Wire Line
	9100 3400 9400 3400
Wire Wire Line
	9100 3500 9400 3500
Wire Wire Line
	7800 2800 8200 2800
Wire Wire Line
	7800 2900 8200 2900
Wire Wire Line
	7800 3000 8200 3000
Wire Wire Line
	7800 3100 8200 3100
Wire Wire Line
	7800 3200 8200 3200
Wire Wire Line
	7800 3300 8200 3300
Wire Wire Line
	7800 3400 8200 3400
Wire Wire Line
	7800 3500 8200 3500
Wire Wire Line
	7800 3600 8200 3600
Wire Wire Line
	7800 3700 8200 3700
Wire Wire Line
	7800 3800 8200 3800
Wire Wire Line
	7800 3900 8200 3900
Wire Wire Line
	7800 4000 8200 4000
Wire Wire Line
	7800 4100 8200 4100
Wire Wire Line
	7800 4200 8200 4200
Wire Bus Line
	6200 2000 6200 6650
Wire Wire Line
	4200 4050 4200 7350
Wire Wire Line
	4200 6650 4500 6650
Wire Wire Line
	4200 4050 4500 4050
Connection ~ 4200 6650
Wire Wire Line
	4200 5350 4500 5350
Connection ~ 4200 5350
Wire Wire Line
	15150 4950 15050 4950
Wire Wire Line
	1000 2050 4700 2050
Wire Wire Line
	2650 3450 4500 3450
Wire Wire Line
	2500 3650 4500 3650
Wire Wire Line
	4500 4950 4000 4950
Wire Wire Line
	4000 3650 4000 6250
Connection ~ 4000 3650
Wire Wire Line
	4000 6250 4500 6250
Connection ~ 4000 4950
Wire Bus Line
	13350 1850 13350 3400
Wire Wire Line
	13100 2800 13250 2800
Wire Wire Line
	13100 2900 13250 2900
Wire Wire Line
	13100 3000 13250 3000
Wire Wire Line
	13100 3100 13250 3100
Wire Wire Line
	13100 3200 13250 3200
Wire Wire Line
	13100 3300 13250 3300
Wire Wire Line
	13100 3400 13250 3400
Wire Wire Line
	13100 3500 13250 3500
Wire Wire Line
	11450 2800 11700 2800
Wire Wire Line
	11450 2900 11700 2900
Wire Wire Line
	11450 3000 11700 3000
Wire Wire Line
	11450 3100 11700 3100
Wire Wire Line
	11450 3200 11700 3200
Wire Wire Line
	11450 3300 11700 3300
Wire Wire Line
	11450 3400 11700 3400
Wire Wire Line
	11450 3500 11700 3500
Wire Wire Line
	11450 3600 11700 3600
Wire Wire Line
	11450 3700 11700 3700
Wire Wire Line
	11450 3800 11700 3800
Wire Wire Line
	11450 3900 11700 3900
Wire Wire Line
	11450 4000 11700 4000
Wire Wire Line
	11450 4100 11700 4100
Wire Wire Line
	11450 4200 11700 4200
Wire Bus Line
	11350 2000 11350 6500
Wire Bus Line
	6200 2000 11350 2000
Wire Bus Line
	6100 1850 13350 1850
Wire Wire Line
	4500 3750 4450 3750
Wire Wire Line
	10000 4600 11700 4600
Wire Wire Line
	5900 4750 6100 4750
Wire Wire Line
	5900 4850 6100 4850
Wire Wire Line
	5900 4950 6100 4950
Wire Wire Line
	5900 5050 6100 5050
Wire Wire Line
	5900 5150 6100 5150
Wire Wire Line
	5900 5250 6100 5250
Wire Wire Line
	5900 5350 6100 5350
Wire Wire Line
	5900 5450 6100 5450
Wire Wire Line
	5900 6050 6100 6050
Wire Wire Line
	5900 6150 6100 6150
Wire Wire Line
	5900 6250 6100 6250
Wire Wire Line
	5900 6350 6100 6350
Wire Wire Line
	5900 6450 6100 6450
Wire Wire Line
	5900 6550 6100 6550
Wire Wire Line
	5900 6650 6100 6650
Wire Wire Line
	5900 6750 6100 6750
Wire Wire Line
	9900 3800 9100 3800
Wire Wire Line
	9800 4300 11700 4300
Wire Wire Line
	9800 4300 9800 3900
Wire Wire Line
	9800 3900 9100 3900
Wire Wire Line
	14050 5750 15150 5750
Wire Wire Line
	14050 4900 14050 5050
Wire Wire Line
	14450 4900 14450 5050
Wire Wire Line
	13650 5550 15150 5550
Wire Wire Line
	14250 5550 14250 5350
Wire Wire Line
	14250 4900 14250 5050
Wire Wire Line
	13850 5850 15150 5850
Wire Wire Line
	13850 4900 13850 5050
Wire Wire Line
	9100 4000 9200 4000
Connection ~ 14450 5650
Connection ~ 14250 5550
Wire Wire Line
	14450 5350 14450 5650
Wire Wire Line
	9900 3800 9900 4900
Wire Wire Line
	13650 5650 15150 5650
Wire Wire Line
	8550 6100 8450 6100
Wire Wire Line
	10150 6500 10150 6350
Wire Wire Line
	8450 6000 8550 6000
Wire Wire Line
	9950 6500 11250 6500
Wire Wire Line
	4500 5050 4450 5050
Wire Wire Line
	4500 6350 4450 6350
Wire Wire Line
	10150 6050 10150 6000
Wire Wire Line
	10300 6000 10300 6050
Wire Wire Line
	15150 2950 14950 2950
Wire Wire Line
	4100 3950 4500 3950
Wire Wire Line
	4100 6550 4500 6550
Wire Wire Line
	4100 2400 4100 6550
Wire Wire Line
	4500 5250 4100 5250
Connection ~ 4100 5250
Connection ~ 4100 3950
Wire Wire Line
	3150 2800 2800 2800
Wire Wire Line
	14950 2750 15150 2750
Wire Wire Line
	4400 1850 4400 2600
Wire Wire Line
	3100 2600 3150 2600
Wire Wire Line
	4400 2600 4950 2600
Wire Wire Line
	9950 6600 11250 6600
Wire Wire Line
	4050 2400 4100 2400
Wire Wire Line
	4050 2800 4950 2800
Wire Wire Line
	5850 2800 6700 2800
Wire Wire Line
	2950 1950 2950 3150
Wire Wire Line
	2950 3150 3600 3150
Connection ~ 2950 1950
Wire Wire Line
	5400 3050 5400 3150
Wire Wire Line
	5400 3150 4250 3150
Wire Wire Line
	4250 1950 4250 3150
Connection ~ 4250 1950
Wire Wire Line
	5400 1450 5400 2150
Wire Wire Line
	3600 1450 3600 2150
Wire Wire Line
	14950 2850 15150 2850
Wire Wire Line
	1000 2150 2800 2150
Wire Wire Line
	2800 2150 2800 2800
Wire Wire Line
	1000 2250 2650 2250
Wire Wire Line
	2650 2250 2650 3450
Wire Wire Line
	1000 2350 2500 2350
Wire Wire Line
	2500 2350 2500 3650
Wire Wire Line
	1000 2450 1100 2450
Wire Wire Line
	1100 2450 1100 2550
Wire Wire Line
	1750 1450 1750 1450
Wire Wire Line
	1950 1450 1950 1450
Wire Wire Line
	5550 10000 6300 10000
Wire Wire Line
	5600 9850 5600 10000
Connection ~ 5600 10000
Wire Wire Line
	5100 10000 5350 10000
Wire Wire Line
	5600 9600 5600 9650
Wire Wire Line
	7650 6400 7650 6600
Connection ~ 7850 6500
Wire Wire Line
	7850 6400 7850 6500
Connection ~ 7650 6600
Wire Wire Line
	3250 10000 3300 10000
Wire Wire Line
	3300 9600 3300 10100
Wire Wire Line
	3300 10650 3300 10300
Wire Wire Line
	2700 10550 2700 10650
Connection ~ 3300 10000
Wire Wire Line
	7850 6050 7850 6100
Wire Wire Line
	7650 6050 7650 6100
Wire Wire Line
	1850 10000 2150 10000
Connection ~ 5950 10000
Wire Wire Line
	14650 5950 15150 5950
Wire Wire Line
	14650 6250 15150 6250
Wire Wire Line
	14850 6200 14850 6250
Connection ~ 14850 6250
Wire Wire Line
	14850 6000 14850 5950
Connection ~ 14850 5950
Wire Wire Line
	15150 6050 15050 6050
Wire Wire Line
	15050 6050 15050 5950
Connection ~ 15050 5950
Wire Wire Line
	15150 6150 15050 6150
Wire Wire Line
	15050 6150 15050 6250
Connection ~ 15050 6250
Wire Wire Line
	4400 10000 4300 10000
Wire Wire Line
	4300 9700 4300 10450
Connection ~ 10150 6500
Wire Wire Line
	7400 6600 8550 6600
Wire Wire Line
	7400 6400 7500 6400
Wire Wire Line
	2350 1750 2350 2050
Connection ~ 2350 2050
Wire Wire Line
	2150 1750 2150 2150
Connection ~ 2150 2150
Wire Wire Line
	5950 10150 5950 10000
Wire Wire Line
	5950 10450 5950 10350
Wire Wire Line
	2050 10000 2050 9600
Wire Wire Line
	1550 10600 1550 10650
Connection ~ 5150 10000
Connection ~ 4300 10000
Wire Wire Line
	5150 9700 5150 10000
Wire Wire Line
	9100 3700 10000 3700
Wire Wire Line
	10000 3700 10000 4600
Wire Wire Line
	9900 4900 12400 4900
Connection ~ 2050 10000
Wire Wire Line
	3600 3150 3600 3050
Wire Wire Line
	7600 10400 8450 10400
Wire Wire Line
	8450 10400 8450 10700
Wire Wire Line
	8450 10700 9100 10700
Wire Wire Line
	8700 10200 8700 10000
Wire Wire Line
	8700 10000 7600 10000
Wire Wire Line
	7600 10200 8500 10200
Wire Wire Line
	8500 10200 8500 9700
Wire Wire Line
	8500 9700 9100 9700
Wire Wire Line
	3100 1850 4700 1850
Connection ~ 4400 1850
Wire Wire Line
	2550 1750 2550 1950
Connection ~ 2550 1950
Wire Wire Line
	1000 1950 4700 1950
Wire Wire Line
	1950 1750 1950 2250
Connection ~ 1950 2250
Wire Wire Line
	1750 1750 1750 2350
Connection ~ 1750 2350
Wire Wire Line
	3100 2600 3100 1850
Wire Wire Line
	9950 7000 10000 7000
Wire Wire Line
	9950 6900 10000 6900
Wire Wire Line
	15050 5150 15150 5150
Wire Wire Line
	14050 5750 14050 5350
Wire Wire Line
	13850 5850 13850 5350
Wire Wire Line
	4200 7350 4100 7350
Wire Wire Line
	8200 4300 7800 4300
Wire Wire Line
	8200 4400 7800 4400
Wire Bus Line
	7700 2000 7700 4300
Wire Wire Line
	10300 6350 10300 6600
Connection ~ 10300 6600
Wire Wire Line
	6700 7000 8550 7000
Wire Wire Line
	8450 7000 8450 6900
Connection ~ 8450 7000
Wire Wire Line
	6700 2800 6700 7000
Wire Wire Line
	8450 6900 8550 6900
Wire Wire Line
	7400 6500 8550 6500
Wire Wire Line
	8350 6800 8550 6800
Wire Wire Line
	9950 6800 10500 6800
Wire Wire Line
	10500 5700 10500 7100
Wire Wire Line
	10500 5700 8450 5700
Wire Wire Line
	8450 5700 8450 6000
Wire Wire Line
	10500 7500 10500 7400
Connection ~ 10500 6800
Wire Wire Line
	8450 6800 8450 6700
Wire Wire Line
	8450 6700 8550 6700
Connection ~ 8450 6800
$Comp
L VCC #PWR035
U 1 1 5929B39F
P 8350 6400
F 0 "#PWR035" H 8350 6250 50  0001 C CNN
F 1 "VCC" H 8350 6550 50  0000 C CNN
F 2 "" H 8350 6400 50  0001 C CNN
F 3 "" H 8350 6400 50  0001 C CNN
	1    8350 6400
	0    -1   1    0   
$EndComp
Wire Wire Line
	8350 6400 8550 6400
Wire Wire Line
	8450 6400 8450 6300
Wire Wire Line
	8450 6300 8550 6300
Connection ~ 8450 6400
$Comp
L GND #PWR036
U 1 1 5929BEB0
P 8350 6800
F 0 "#PWR036" H 8350 6550 50  0001 C CNN
F 1 "GND" H 8350 6650 50  0000 C CNN
F 2 "" H 8350 6800 50  0001 C CNN
F 3 "" H 8350 6800 50  0001 C CNN
	1    8350 6800
	0    1    1    0   
$EndComp
$EndSCHEMATC
