EESchema Schematic File Version 2
LIBS:fs495-akizuki-cl
LIBS:power
LIBS:device
LIBS:transistors
LIBS:conn
LIBS:linear
LIBS:regul
LIBS:74xx
LIBS:cmos4000
LIBS:adc-dac
LIBS:memory
LIBS:xilinx
LIBS:microcontrollers
LIBS:dsp
LIBS:microchip
LIBS:analog_switches
LIBS:motorola
LIBS:texas
LIBS:intel
LIBS:audio
LIBS:interface
LIBS:digital-audio
LIBS:philips
LIBS:display
LIBS:cypress
LIBS:siliconi
LIBS:opto
LIBS:atmel
LIBS:contrib
LIBS:valves
LIBS:superaki80_rom_emu-cache
EELAYER 25 0
EELAYER END
$Descr A3 16535 11693
encoding utf-8
Sheet 2 2
Title ""
Date ""
Rev ""
Comp ""
Comment1 ""
Comment2 ""
Comment3 ""
Comment4 ""
$EndDescr
$Comp
L LED_Small D3
U 1 1 59108C5F
P 10950 10100
F 0 "D3" H 10900 10225 50  0000 L CNN
F 1 "Led_Small" H 10775 10000 50  0000 L CNN
F 2 "LEDs:LED_D3.0mm" V 10950 10100 50  0001 C CNN
F 3 "" V 10950 10100 50  0000 C CNN
	1    10950 10100
	-1   0    0    1   
$EndComp
$Comp
L VCC #PWR037
U 1 1 59108C66
P 10450 10100
F 0 "#PWR037" H 10450 9950 50  0001 C CNN
F 1 "VCC" H 10450 10250 50  0000 C CNN
F 2 "" H 10450 10100 50  0000 C CNN
F 3 "" H 10450 10100 50  0000 C CNN
	1    10450 10100
	0    -1   -1   0   
$EndComp
$Comp
L R R14
U 1 1 59108C6C
P 10650 10100
F 0 "R14" V 10730 10100 50  0000 C CNN
F 1 "150" V 10650 10100 50  0000 C CNN
F 2 "Resistors_THT:R_Axial_DIN0204_L3.6mm_D1.6mm_P5.08mm_Vertical" V 10580 10100 50  0001 C CNN
F 3 "" H 10650 10100 50  0000 C CNN
	1    10650 10100
	0    1    1    0   
$EndComp
$Comp
L LED_Small D4
U 1 1 59108C73
P 10950 10450
F 0 "D4" H 10900 10575 50  0000 L CNN
F 1 "Led_Small" H 10775 10350 50  0000 L CNN
F 2 "LEDs:LED_D3.0mm" V 10950 10450 50  0001 C CNN
F 3 "" V 10950 10450 50  0000 C CNN
	1    10950 10450
	-1   0    0    1   
$EndComp
$Comp
L R R15
U 1 1 59108C7A
P 10650 10450
F 0 "R15" V 10730 10450 50  0000 C CNN
F 1 "150" V 10650 10450 50  0000 C CNN
F 2 "Resistors_THT:R_Axial_DIN0204_L3.6mm_D1.6mm_P5.08mm_Vertical" V 10580 10450 50  0001 C CNN
F 3 "" H 10650 10450 50  0000 C CNN
	1    10650 10450
	0    1    1    0   
$EndComp
Text GLabel 11050 10100 2    60   Input ~ 0
LED0
Text GLabel 11050 10450 2    60   Input ~ 0
LED1
$Comp
L VCC #PWR038
U 1 1 59108C83
P 10450 10450
F 0 "#PWR038" H 10450 10300 50  0001 C CNN
F 1 "VCC" H 10450 10600 50  0000 C CNN
F 2 "" H 10450 10450 50  0000 C CNN
F 3 "" H 10450 10450 50  0000 C CNN
	1    10450 10450
	0    -1   -1   0   
$EndComp
Wire Wire Line
	10850 10100 10800 10100
Wire Wire Line
	10850 10450 10800 10450
Wire Wire Line
	10450 10100 10500 10100
Wire Wire Line
	10450 10450 10500 10450
Wire Bus Line
	9550 3000 9550 4000
Wire Wire Line
	8850 4200 9700 4200
Wire Wire Line
	8850 4300 9700 4300
Wire Wire Line
	14450 3550 14500 3550
Wire Wire Line
	14450 3250 14500 3250
Wire Wire Line
	14450 2650 14500 2650
Wire Wire Line
	14450 2550 14500 2550
Wire Wire Line
	14450 2350 14500 2350
Wire Wire Line
	14500 2050 14450 2050
Wire Bus Line
	11000 3000 9550 3000
Wire Bus Line
	11000 5200 9550 5200
Wire Bus Line
	11150 5800 9550 5800
Wire Wire Line
	11150 900  11700 900 
Wire Wire Line
	11150 800  11700 800 
Wire Notes Line
	8000 6100 8000 2050
Wire Notes Line
	8550 6100 8000 6100
Wire Notes Line
	8550 2050 8550 6100
Wire Notes Line
	8000 2050 8550 2050
Wire Bus Line
	9550 5800 9550 5300
Wire Bus Line
	11000 1150 11000 3000
Wire Wire Line
	11100 1650 11700 1650
Wire Wire Line
	11100 1550 11700 1550
Wire Wire Line
	11100 1450 11700 1450
Wire Wire Line
	11100 1350 11700 1350
Wire Wire Line
	11100 1250 11700 1250
Wire Wire Line
	11100 1150 11700 1150
Wire Wire Line
	11100 1050 11700 1050
Wire Wire Line
	8850 4100 9450 4100
Wire Wire Line
	8850 4000 9450 4000
Wire Wire Line
	8850 3900 9450 3900
Wire Wire Line
	8850 3800 9450 3800
Wire Wire Line
	8850 3700 9450 3700
Wire Wire Line
	8850 3600 9450 3600
Wire Wire Line
	8850 3500 9450 3500
Wire Bus Line
	11150 4550 11150 5800
Wire Wire Line
	11250 4750 11700 4750
Wire Wire Line
	11250 4650 11700 4650
Wire Wire Line
	11250 4550 11700 4550
Wire Wire Line
	11250 4450 11700 4450
Wire Bus Line
	9550 5200 9550 4500
Wire Wire Line
	8850 5500 9450 5500
Wire Wire Line
	8850 5400 9450 5400
Wire Wire Line
	8850 5300 9450 5300
Wire Wire Line
	8850 5200 9450 5200
Wire Wire Line
	8850 5100 9450 5100
Wire Wire Line
	8850 5000 9450 5000
Wire Wire Line
	8850 4900 9450 4900
Wire Wire Line
	8850 4800 9450 4800
Wire Wire Line
	8850 4700 9450 4700
Wire Wire Line
	8850 4600 9450 4600
Wire Wire Line
	8850 4500 9450 4500
Wire Wire Line
	8850 4400 9450 4400
Wire Wire Line
	11100 4300 11700 4300
Wire Wire Line
	11100 4200 11700 4200
Wire Wire Line
	11100 4100 11700 4100
Wire Wire Line
	11100 4000 11700 4000
Wire Wire Line
	11100 3900 11700 3900
Wire Wire Line
	11100 3800 11700 3800
Wire Wire Line
	11100 3700 11700 3700
Wire Wire Line
	11100 3600 11700 3600
Wire Bus Line
	11000 3700 11000 5200
Wire Wire Line
	9350 5600 9350 6950
Wire Wire Line
	8850 5600 9350 5600
Wire Wire Line
	9250 5700 9250 6850
Wire Wire Line
	8850 5700 9250 5700
Wire Wire Line
	9150 5800 9150 8300
Wire Wire Line
	8850 5800 9150 5800
Wire Wire Line
	9050 5900 9050 7350
Wire Wire Line
	8950 6000 8950 7250
Wire Wire Line
	9050 5900 8850 5900
Wire Wire Line
	8950 6000 8850 6000
Connection ~ 8850 2600
Connection ~ 8850 3200
Connection ~ 8850 3100
Wire Wire Line
	8850 2600 8950 2600
Connection ~ 8850 3000
Connection ~ 8850 2300
Connection ~ 8850 2100
Connection ~ 8850 2900
Connection ~ 8850 2800
Connection ~ 8850 2700
Wire Wire Line
	8850 2600 8850 3300
Wire Wire Line
	8850 2300 8950 2300
Wire Wire Line
	8850 2400 8850 2300
Wire Wire Line
	8850 2100 8950 2100
Wire Wire Line
	8850 2200 8850 2100
NoConn ~ 11700 1750
NoConn ~ 11700 2300
NoConn ~ 11700 2200
Text GLabel 9700 4300 2    60   Input ~ 0
RPI_RXD
Text GLabel 9700 4200 2    60   Input ~ 0
RPI_TXD
NoConn ~ 11700 3250
NoConn ~ 14500 3050
NoConn ~ 14500 2950
NoConn ~ 14500 5750
NoConn ~ 14500 5650
NoConn ~ 14500 5550
NoConn ~ 14500 5450
NoConn ~ 14500 5350
NoConn ~ 14500 5250
NoConn ~ 14500 5150
NoConn ~ 14500 5050
NoConn ~ 14500 4950
NoConn ~ 14500 4850
NoConn ~ 14500 4750
NoConn ~ 14500 4650
NoConn ~ 14500 4550
NoConn ~ 14500 4450
NoConn ~ 14500 4350
NoConn ~ 14500 4250
NoConn ~ 14500 4150
NoConn ~ 14500 4050
NoConn ~ 14500 3950
NoConn ~ 14500 3850
NoConn ~ 14500 3750
NoConn ~ 14500 3650
NoConn ~ 14500 3450
NoConn ~ 14500 3350
NoConn ~ 14500 3150
NoConn ~ 14500 2850
NoConn ~ 14500 2750
NoConn ~ 14500 2450
NoConn ~ 14500 2250
NoConn ~ 14500 2150
NoConn ~ 14500 1950
NoConn ~ 14500 1850
NoConn ~ 14500 1750
NoConn ~ 14500 1650
NoConn ~ 14500 1550
NoConn ~ 14500 1450
NoConn ~ 14500 1350
NoConn ~ 14500 1250
NoConn ~ 14500 1150
NoConn ~ 14500 1050
NoConn ~ 14500 950 
NoConn ~ 14500 850 
Text GLabel 14450 3250 0    60   Input ~ 0
SIOB_TXD
Text GLabel 14450 3550 0    60   Input ~ 0
SIOB_RXD
Text GLabel 14450 2650 0    60   Input ~ 0
SIOA_CTS
Text GLabel 14450 2550 0    60   Input ~ 0
SIOA_RTS
Text GLabel 14450 2350 0    60   Input ~ 0
SIOA_TXD
Text GLabel 14450 2050 0    60   Input ~ 0
SIOA_RXD
$Comp
L SuperAKI80_CN1 CN1
U 1 1 5910A651
P 14700 850
F 0 "CN1" H 14750 1000 60  0000 C CNN
F 1 "SuperAKI80_CN1" H 15050 -4300 60  0000 C CNN
F 2 "Pin_Headers:Pin_Header_Straight_2x25_Pitch2.54mm" H 14700 850 60  0001 C CNN
F 3 "" H 14700 850 60  0000 C CNN
	1    14700 850 
	1    0    0    -1  
$EndComp
$Comp
L GND #PWR039
U 1 1 5910A658
P 11150 900
F 0 "#PWR039" H 11150 650 50  0001 C CNN
F 1 "GND" H 11150 750 50  0000 C CNN
F 2 "" H 11150 900 50  0001 C CNN
F 3 "" H 11150 900 50  0001 C CNN
	1    11150 900 
	0    1    1    0   
$EndComp
$Comp
L VCC #PWR040
U 1 1 5910A65E
P 11150 800
F 0 "#PWR040" H 11150 650 50  0001 C CNN
F 1 "VCC" H 11150 950 50  0000 C CNN
F 2 "" H 11150 800 50  0001 C CNN
F 3 "" H 11150 800 50  0001 C CNN
	1    11150 800 
	0    -1   -1   0   
$EndComp
Text Notes 9600 5800 0    60   ~ 12
!!! 5V signal !!!
Text Notes 9600 5200 0    60   ~ 12
!!! 5V signal !!!
Text Notes 9600 3000 0    60   ~ 12
!!! 5V signal !!!
Text Notes 12300 1450 0    60   ~ 0
Bidir
NoConn ~ 11700 6000
NoConn ~ 11700 5900
NoConn ~ 11700 5800
NoConn ~ 11700 5700
NoConn ~ 11700 5600
NoConn ~ 11700 5500
NoConn ~ 11700 5400
NoConn ~ 11700 5300
NoConn ~ 11700 5150
NoConn ~ 11700 5050
NoConn ~ 11700 4950
NoConn ~ 11700 4850
NoConn ~ 11700 3450
NoConn ~ 11700 3350
Entry Wire Line
	9450 4100 9550 4000
Entry Wire Line
	9450 4000 9550 3900
Entry Wire Line
	9450 3900 9550 3800
Entry Wire Line
	9450 3800 9550 3700
Entry Wire Line
	9450 3700 9550 3600
Entry Wire Line
	9450 3600 9550 3500
Entry Wire Line
	9450 3500 9550 3400
Text Label 8950 4100 0    60   ~ 0
PPI0_B6
Text Label 8950 4000 0    60   ~ 0
PPI0_B5
Text Label 8950 3900 0    60   ~ 0
PPI0_B4
Text Label 8950 3800 0    60   ~ 0
PPI0_B3
Text Label 8950 3700 0    60   ~ 0
PPI0_B2
Text Label 8950 3600 0    60   ~ 0
PPI0_B1
Text Label 8950 3500 0    60   ~ 0
PPI0_B0
Entry Wire Line
	11000 1750 11100 1650
Entry Wire Line
	11000 1650 11100 1550
Entry Wire Line
	11000 1550 11100 1450
Entry Wire Line
	11000 1450 11100 1350
Entry Wire Line
	11000 1350 11100 1250
Entry Wire Line
	11000 1250 11100 1150
Entry Wire Line
	11000 1150 11100 1050
Text Label 11250 1650 0    60   ~ 0
PPI0_B6
Text Label 11250 1550 0    60   ~ 0
PPI0_B5
Text Label 11250 1450 0    60   ~ 0
PPI0_B4
Text Label 11250 1350 0    60   ~ 0
PPI0_B3
Text Label 11250 1250 0    60   ~ 0
PPI0_B2
Text Label 11250 1150 0    60   ~ 0
PPI0_B1
Text Label 11250 1050 0    60   ~ 0
PPI0_B0
Text Label 8950 4400 0    60   ~ 0
PPI1_A0
Text GLabel 11700 2850 0    60   Input ~ 0
SPI_MOSI
Text GLabel 11700 2750 0    60   Input ~ 0
SPI_CLK
Text Notes 12300 4650 0    60   ~ 0
Bidir
Text Label 8950 5500 0    60   ~ 0
PPI0_C3
Text Label 8950 5400 0    60   ~ 0
PPI0_C2
Text Label 8950 5300 0    60   ~ 0
PPI0_C1
Text Label 8950 5200 0    60   ~ 0
PPI0_C0
Entry Wire Line
	11150 4850 11250 4750
Entry Wire Line
	11150 4750 11250 4650
Entry Wire Line
	11150 4650 11250 4550
Entry Wire Line
	11150 4550 11250 4450
Text Label 11300 4750 0    60   ~ 0
PPI0_C3
Text Label 11300 4650 0    60   ~ 0
PPI0_C2
Text Label 11300 4550 0    60   ~ 0
PPI0_C1
Text Label 11300 4450 0    60   ~ 0
PPI0_C0
Text Notes 12300 3950 0    60   ~ 0
Bidir
Text Notes 12300 3300 0    60   ~ 0
Input
Text Notes 12300 2950 0    60   ~ 0
Output
Text Notes 12300 2300 0    60   ~ 0
Output
Text Label 8950 5100 0    60   ~ 0
PPI1_A7
Text Label 8950 5000 0    60   ~ 0
PPI1_A6
Text Label 8950 4900 0    60   ~ 0
PPI1_A5
Text Label 8950 4800 0    60   ~ 0
PPI1_A4
Text Label 8950 4700 0    60   ~ 0
PPI1_A3
Text Label 8950 4600 0    60   ~ 0
PPI1_A2
Text Label 8950 4500 0    60   ~ 0
PPI1_A1
Text Label 11300 4300 0    60   ~ 0
PPI1_A7
Text Label 11300 4200 0    60   ~ 0
PPI1_A6
Text Label 11300 4100 0    60   ~ 0
PPI1_A5
Text Label 11300 4000 0    60   ~ 0
PPI1_A4
Text Label 11300 3900 0    60   ~ 0
PPI1_A3
Text Label 11300 3800 0    60   ~ 0
PPI1_A2
Text Label 11300 3700 0    60   ~ 0
PPI1_A1
Text Label 11300 3600 0    60   ~ 0
PPI1_A0
Entry Wire Line
	9550 4500 9450 4400
Entry Wire Line
	9550 4600 9450 4500
Entry Wire Line
	9550 4700 9450 4600
Entry Wire Line
	9550 4800 9450 4700
Entry Wire Line
	9550 4900 9450 4800
Entry Wire Line
	9550 5000 9450 4900
Entry Wire Line
	9550 5100 9450 5000
Entry Wire Line
	9550 5200 9450 5100
Entry Wire Line
	9550 5300 9450 5200
Entry Wire Line
	9550 5400 9450 5300
Entry Wire Line
	9550 5500 9450 5400
Entry Wire Line
	9550 5600 9450 5500
Entry Wire Line
	11000 4400 11100 4300
Entry Wire Line
	11000 4300 11100 4200
Entry Wire Line
	11000 4200 11100 4100
Entry Wire Line
	11000 4100 11100 4000
Entry Wire Line
	11000 4000 11100 3900
Entry Wire Line
	11000 3900 11100 3800
Entry Wire Line
	11000 3800 11100 3700
Entry Wire Line
	11000 3700 11100 3600
Text GLabel 11700 3150 0    60   Input ~ 0
SPI_MISO
Text GLabel 11700 3050 0    60   Input ~ 0
LED1
Text GLabel 11700 2950 0    60   Input ~ 0
LED0
Text GLabel 11700 2600 0    60   Input ~ 0
BANK2
Text GLabel 11700 2500 0    60   Input ~ 0
BANK1
Text GLabel 11700 2400 0    60   Input ~ 0
BANK0
Text GLabel 11700 2100 0    60   Input ~ 0
SPI_CE1
Text GLabel 11700 2000 0    60   Input ~ 0
SPI_CE0
Text GLabel 11700 1900 0    60   Input ~ 0
SPI_SD_CS
$Comp
L RPi_GPIO_Rev+ P2
U 1 1 5910A6D2
P 8850 2100
F 0 "P2" H 8100 2200 60  0000 C CNN
F 1 "RPi_GPIO_Rev+" H 8300 -2000 60  0000 C CNN
F 2 "Pin_Headers:Pin_Header_Straight_2x20_Pitch2.54mm" H 8750 2200 60  0001 C CNN
F 3 "" H 8850 2300 60  0000 C CNN
	1    8850 2100
	1    0    0    -1  
$EndComp
$Comp
L GND #PWR041
U 1 1 5910A6D9
P 8950 2600
F 0 "#PWR041" H 8950 2350 50  0001 C CNN
F 1 "GND" H 8950 2450 50  0000 C CNN
F 2 "" H 8950 2600 50  0001 C CNN
F 3 "" H 8950 2600 50  0001 C CNN
	1    8950 2600
	0    -1   -1   0   
$EndComp
$Comp
L VCC #PWR042
U 1 1 5910A6DF
P 8950 2300
F 0 "#PWR042" H 8950 2150 50  0001 C CNN
F 1 "VCC" H 8950 2450 50  0000 C CNN
F 2 "" H 8950 2300 50  0001 C CNN
F 3 "" H 8950 2300 50  0001 C CNN
	1    8950 2300
	0    1    1    0   
$EndComp
$Comp
L +3.3V #PWR043
U 1 1 5910A6E5
P 8950 2100
F 0 "#PWR043" H 8950 1950 50  0001 C CNN
F 1 "+3.3V" H 8950 2240 50  0000 C CNN
F 2 "" H 8950 2100 50  0001 C CNN
F 3 "" H 8950 2100 50  0001 C CNN
	1    8950 2100
	0    1    1    0   
$EndComp
$Comp
L SuperAKI80_CN3 CN3
U 1 1 5910A6EB
P 11900 750
F 0 "CN3" H 12000 800 60  0000 C CNN
F 1 "SuperAKI80_CN3" H 12050 -4650 60  0000 C CNN
F 2 "Pin_Headers:Pin_Header_Straight_2x25_Pitch2.54mm" H 11900 850 60  0001 C CNN
F 3 "" H 11900 850 60  0000 C CNN
	1    11900 750 
	1    0    0    -1  
$EndComp
$Comp
L GND #PWR044
U 1 1 5910ABF8
P 10300 8050
F 0 "#PWR044" H 10300 7800 50  0001 C CNN
F 1 "GND" H 10300 7900 50  0000 C CNN
F 2 "" H 10300 8050 50  0000 C CNN
F 3 "" H 10300 8050 50  0000 C CNN
	1    10300 8050
	-1   0    0    -1  
$EndComp
NoConn ~ 10500 7450
NoConn ~ 10500 7550
NoConn ~ 10500 7650
NoConn ~ 10500 7750
$Comp
L +3.3V #PWR045
U 1 1 5910AC02
P 10400 6500
F 0 "#PWR045" H 10400 6350 50  0001 C CNN
F 1 "+3.3V" H 10400 6640 50  0000 C CNN
F 2 "" H 10400 6500 50  0001 C CNN
F 3 "" H 10400 6500 50  0001 C CNN
	1    10400 6500
	-1   0    0    -1  
$EndComp
$Comp
L 74HCT541_PWR U10
U 1 1 5910AC08
P 7500 7250
F 0 "U10" H 7600 7900 50  0000 L CNN
F 1 "TC74VHC541FT" H 7600 6650 50  0000 L CNN
F 2 "Housings_SSOP:SSOP-20_4.4x6.5mm_Pitch0.65mm" H 7500 7250 50  0001 C CNN
F 3 "" H 7500 7250 50  0001 C CNN
	1    7500 7250
	1    0    0    -1  
$EndComp
$Comp
L +3.3V #PWR046
U 1 1 5910AC0F
P 7500 6500
F 0 "#PWR046" H 7500 6350 50  0001 C CNN
F 1 "+3.3V" H 7500 6640 50  0000 C CNN
F 2 "" H 7500 6500 50  0001 C CNN
F 3 "" H 7500 6500 50  0001 C CNN
	1    7500 6500
	-1   0    0    -1  
$EndComp
$Comp
L GND #PWR047
U 1 1 5910AC15
P 7500 8000
F 0 "#PWR047" H 7500 7750 50  0001 C CNN
F 1 "GND" H 7500 7850 50  0000 C CNN
F 2 "" H 7500 8000 50  0000 C CNN
F 3 "" H 7500 8000 50  0000 C CNN
	1    7500 8000
	-1   0    0    -1  
$EndComp
Text GLabel 6800 6750 0    60   Input ~ 0
SPI_SD_CS
Text GLabel 6800 6850 0    60   Input ~ 0
SPI_CE0
Text GLabel 6800 6950 0    60   Input ~ 0
SPI_CE1
Text GLabel 6800 7250 0    60   Input ~ 0
SPI_CLK
Text GLabel 6800 7350 0    60   Input ~ 0
SPI_MOSI
Text GLabel 8200 7450 2    60   Input ~ 0
SPI_MISO
$Comp
L DM1B-DSF-PEJ J1
U 1 1 5910AC21
P 10800 7350
F 0 "J1" H 10300 8050 60  0000 C CNN
F 1 "DM1B-DSF-PEJ" H 10650 6750 60  0000 C CNN
F 2 "fs495-akizuki-fp:DM1B-DSF-PEJ" H 10300 7650 60  0001 C CNN
F 3 "" H 10300 7650 60  0000 C CNN
	1    10800 7350
	-1   0    0    -1  
$EndComp
Text GLabel 8200 7150 2    60   Input ~ 0
SIOB_RXD
Text GLabel 6800 7050 0    60   Input ~ 0
SIOB_TXD
Text GLabel 6800 7150 0    60   Input ~ 0
RPI_TXD
Text GLabel 8200 7050 2    60   Input ~ 0
RPI_RXD
Text Notes 8700 7200 0    50   ~ 0
(!)
Text Notes 8700 7500 0    50   ~ 0
(!)
Text Notes 8050 8600 0    50   ~ 0
(!) not necessary:\ninput is 3.3V tolerant
Wire Wire Line
	10500 6950 10300 6950
Wire Wire Line
	10300 6950 10300 8050
Wire Wire Line
	10500 7250 10300 7250
Connection ~ 10300 7250
Wire Wire Line
	10500 7050 10400 7050
Wire Wire Line
	10400 7050 10400 6500
Wire Wire Line
	6800 8000 7500 8000
Wire Wire Line
	6800 7650 6800 8000
Connection ~ 6800 7750
Wire Wire Line
	10500 7350 10150 7350
Wire Wire Line
	10150 7350 10150 8300
Wire Wire Line
	10150 8300 6550 8300
Wire Wire Line
	6550 8300 6550 7450
Wire Wire Line
	6550 7450 6800 7450
Wire Wire Line
	8200 6750 10500 6750
Wire Wire Line
	8950 7250 8200 7250
Wire Wire Line
	8950 7150 10500 7150
Wire Wire Line
	8200 7350 10050 7350
Wire Wire Line
	10050 7350 10050 6850
Wire Wire Line
	10050 6850 10500 6850
Connection ~ 9050 7350
Connection ~ 9150 8300
Wire Wire Line
	9250 6850 8200 6850
Wire Wire Line
	9350 6950 8200 6950
Wire Wire Line
	10500 7850 10300 7850
Connection ~ 10300 7850
Connection ~ 8950 7150
$Comp
L ADM232A U11
U 1 1 5910CBA3
P 2200 2400
F 0 "U11" H 2100 3525 50  0000 R CNN
F 1 "ADM232A" H 2100 3450 50  0000 R CNN
F 2 "Housings_DIP:DIP-16_W7.62mm" H 2250 1350 50  0001 L CNN
F 3 "" H 2200 2500 50  0001 C CNN
	1    2200 2400
	1    0    0    -1  
$EndComp
$Comp
L VCC #PWR048
U 1 1 5910CBAA
P 2200 1100
F 0 "#PWR048" H 2200 950 50  0001 C CNN
F 1 "VCC" H 2200 1250 50  0000 C CNN
F 2 "" H 2200 1100 50  0000 C CNN
F 3 "" H 2200 1100 50  0000 C CNN
	1    2200 1100
	1    0    0    -1  
$EndComp
$Comp
L GND #PWR049
U 1 1 5910CBB0
P 2200 3700
F 0 "#PWR049" H 2200 3450 50  0001 C CNN
F 1 "GND" H 2200 3550 50  0000 C CNN
F 2 "" H 2200 3700 50  0000 C CNN
F 3 "" H 2200 3700 50  0000 C CNN
	1    2200 3700
	1    0    0    -1  
$EndComp
$Comp
L C_Small C4
U 1 1 5910CBB6
P 1300 1650
F 0 "C4" H 1310 1720 50  0000 L CNN
F 1 "0.1uF" H 1310 1570 50  0000 L CNN
F 2 "Capacitors_THT:C_Disc_D4.3mm_W1.9mm_P5.00mm" H 1300 1650 50  0001 C CNN
F 3 "" H 1300 1650 50  0000 C CNN
	1    1300 1650
	1    0    0    -1  
$EndComp
$Comp
L C_Small C5
U 1 1 5910CBBD
P 3100 1650
F 0 "C5" H 3110 1720 50  0000 L CNN
F 1 "0.1uF" H 3110 1570 50  0000 L CNN
F 2 "Capacitors_THT:C_Disc_D4.3mm_W1.9mm_P5.00mm" H 3100 1650 50  0001 C CNN
F 3 "" H 3100 1650 50  0000 C CNN
	1    3100 1650
	1    0    0    -1  
$EndComp
$Comp
L C_Small C6
U 1 1 5910CBC4
P 3200 2000
F 0 "C6" H 3210 2070 50  0000 L CNN
F 1 "0.1uF" H 3210 1920 50  0000 L CNN
F 2 "Capacitors_THT:C_Disc_D4.3mm_W1.9mm_P5.00mm" H 3200 2000 50  0001 C CNN
F 3 "" H 3200 2000 50  0000 C CNN
	1    3200 2000
	0    1    1    0   
$EndComp
$Comp
L C_Small C7
U 1 1 5910CBCB
P 3200 2300
F 0 "C7" H 3210 2370 50  0000 L CNN
F 1 "0.1uF" H 3210 2220 50  0000 L CNN
F 2 "Capacitors_THT:C_Disc_D4.3mm_W1.9mm_P5.00mm" H 3200 2300 50  0001 C CNN
F 3 "" H 3200 2300 50  0000 C CNN
	1    3200 2300
	0    1    1    0   
$EndComp
$Comp
L GND #PWR050
U 1 1 5910CBD2
P 3400 2300
F 0 "#PWR050" H 3400 2050 50  0001 C CNN
F 1 "GND" H 3400 2150 50  0000 C CNN
F 2 "" H 3400 2300 50  0000 C CNN
F 3 "" H 3400 2300 50  0000 C CNN
	1    3400 2300
	0    -1   -1   0   
$EndComp
Text GLabel 1300 2900 0    60   Input ~ 0
SIOA_RXD
Text GLabel 1300 2500 0    60   Input ~ 0
SIOA_TXD
Text GLabel 1300 2700 0    60   Input ~ 0
SIOA_RTS
Text GLabel 1300 3100 0    60   Input ~ 0
SIOA_CTS
$Comp
L VCC #PWR051
U 1 1 5910CBDC
P 3400 2000
F 0 "#PWR051" H 3400 1850 50  0001 C CNN
F 1 "VCC" H 3400 2150 50  0000 C CNN
F 2 "" H 3400 2000 50  0000 C CNN
F 3 "" H 3400 2000 50  0000 C CNN
	1    3400 2000
	0    1    1    0   
$EndComp
$Comp
L DB9_FEMALE J3
U 1 1 5910CBE2
P 4700 3200
F 0 "J3" H 4700 3750 50  0000 C CNN
F 1 "DB9_FEMALE" H 4700 2625 50  0000 C CNN
F 2 "Connectors:DB9FC" H 4700 3200 50  0001 C CNN
F 3 "" H 4700 3200 50  0001 C CNN
	1    4700 3200
	1    0    0    -1  
$EndComp
Text Notes 4950 3800 0    50   ~ 0
(DCE)
Text Label 4000 2800 0    60   ~ 0
DTE_DCD
Text Label 4000 3000 0    60   ~ 0
DTE_TxD
Text Label 4000 3200 0    60   ~ 0
DTE_RxD
Text Label 4000 3400 0    60   ~ 0
DTE_DTR
Text Label 4000 3600 0    60   ~ 0
GND
Text Label 4000 2900 0    60   ~ 0
DTE_DSR
Text Label 4000 3100 0    60   ~ 0
DTE_RTS
Text Label 4000 3300 0    60   ~ 0
DTE_CTS
Text Label 4000 3500 0    60   ~ 0
DTE_RI
$Comp
L GND #PWR052
U 1 1 5910CBF3
P 3850 3700
F 0 "#PWR052" H 3850 3450 50  0001 C CNN
F 1 "GND" H 3850 3550 50  0000 C CNN
F 2 "" H 3850 3700 50  0000 C CNN
F 3 "" H 3850 3700 50  0000 C CNN
	1    3850 3700
	1    0    0    -1  
$EndComp
NoConn ~ 3850 2800
NoConn ~ 3850 2900
NoConn ~ 3850 3400
NoConn ~ 3850 3500
Wire Wire Line
	2200 1100 2200 1200
Wire Wire Line
	2200 3600 2200 3700
Wire Wire Line
	1300 1550 1300 1500
Wire Wire Line
	1300 1500 1400 1500
Wire Wire Line
	1300 1750 1300 1800
Wire Wire Line
	1300 1800 1400 1800
Wire Wire Line
	3000 1800 3100 1800
Wire Wire Line
	3100 1800 3100 1750
Wire Wire Line
	3000 1500 3100 1500
Wire Wire Line
	3100 1500 3100 1550
Wire Wire Line
	3400 2000 3300 2000
Wire Wire Line
	3100 2000 3000 2000
Wire Wire Line
	3000 2300 3100 2300
Wire Wire Line
	3300 2300 3400 2300
Wire Wire Line
	1300 2500 1400 2500
Wire Wire Line
	1300 2700 1400 2700
Wire Wire Line
	1300 2900 1400 2900
Wire Wire Line
	1300 3100 1400 3100
Wire Wire Line
	4400 3600 3850 3600
Wire Wire Line
	3850 3600 3850 3700
Wire Wire Line
	4400 3500 3850 3500
Wire Wire Line
	4400 2800 3850 2800
Wire Wire Line
	4400 2900 3850 2900
Wire Wire Line
	3300 3000 4400 3000
Wire Wire Line
	3000 3100 4400 3100
Wire Wire Line
	3200 3200 4400 3200
Wire Wire Line
	3100 3300 4400 3300
Wire Wire Line
	4400 3400 3850 3400
Wire Wire Line
	3000 2500 3200 2500
Wire Wire Line
	3200 2500 3200 3200
Wire Wire Line
	3000 2700 3100 2700
Wire Wire Line
	3100 2700 3100 3300
Wire Wire Line
	3000 2900 3300 2900
Wire Wire Line
	3300 2900 3300 3000
$EndSCHEMATC
