EESchema Schematic File Version 2
LIBS:fs495-akizuki-cl
LIBS:power
LIBS:device
LIBS:transistors
LIBS:conn
LIBS:linear
LIBS:regul
LIBS:74xx
LIBS:cmos4000
LIBS:adc-dac
LIBS:memory
LIBS:xilinx
LIBS:microcontrollers
LIBS:dsp
LIBS:microchip
LIBS:analog_switches
LIBS:motorola
LIBS:texas
LIBS:intel
LIBS:audio
LIBS:interface
LIBS:digital-audio
LIBS:philips
LIBS:display
LIBS:cypress
LIBS:siliconi
LIBS:opto
LIBS:atmel
LIBS:contrib
LIBS:valves
LIBS:msx-rom-emu-cache
EELAYER 25 0
EELAYER END
$Descr A3 16535 11693
encoding utf-8
Sheet 1 1
Title ""
Date ""
Rev ""
Comp ""
Comment1 ""
Comment2 ""
Comment3 ""
Comment4 ""
$EndDescr
$Comp
L MSX-CTRG CTRG1
U 1 1 56FF2342
P 1300 4950
F 0 "CTRG1" H 1050 5100 60  0000 C CNN
F 1 "MSX-CTRG" H 1050 -150 60  0000 C CNN
F 2 "" H 1500 4950 60  0000 C CNN
F 3 "" H 1500 4950 60  0000 C CNN
	1    1300 4950
	1    0    0    -1  
$EndComp
$Comp
L ATMEGA328P-A IC1
U 1 1 56FF23C4
P 6450 3300
F 0 "IC1" H 5700 4550 50  0000 L BNN
F 1 "ATMEGA328P-A" H 6850 1900 50  0000 L BNN
F 2 "TQFP32" H 6450 3300 50  0000 C CIN
F 3 "" H 6450 3300 50  0000 C CNN
	1    6450 3300
	1    0    0    -1  
$EndComp
$Comp
L MS628128 U10
U 1 1 56FF2409
P 14900 2750
F 0 "U10" H 14900 3950 50  0000 C CNN
F 1 "MS628128" H 14970 1550 50  0000 C CNN
F 2 "" H 14900 2750 50  0000 C CNN
F 3 "" H 14900 2750 50  0000 C CNN
	1    14900 2750
	1    0    0    -1  
$EndComp
Entry Wire Line
	13800 1600 13900 1700
Entry Wire Line
	13800 1700 13900 1800
Entry Wire Line
	13800 1800 13900 1900
Entry Wire Line
	13800 1900 13900 2000
Entry Wire Line
	13800 2000 13900 2100
Entry Wire Line
	13800 2100 13900 2200
Entry Wire Line
	13800 2200 13900 2300
Entry Wire Line
	13800 2300 13900 2400
Entry Wire Line
	13800 2400 13900 2500
Entry Wire Line
	13800 2500 13900 2600
Entry Wire Line
	13800 2600 13900 2700
Entry Wire Line
	13800 2700 13900 2800
Entry Wire Line
	13800 2800 13900 2900
Entry Wire Line
	13800 2900 13900 3000
Entry Wire Line
	13800 3000 13900 3100
Entry Wire Line
	13800 3100 13900 3200
Entry Wire Line
	13800 3200 13900 3300
Text Label 13950 1700 0    60   ~ 0
XA0
Text Label 13950 1800 0    60   ~ 0
XA1
Text Label 13950 1900 0    60   ~ 0
XA2
Text Label 13950 2000 0    60   ~ 0
XA3
Text Label 13950 2100 0    60   ~ 0
XA4
Text Label 13950 2200 0    60   ~ 0
XA5
Text Label 13950 2300 0    60   ~ 0
XA6
Text Label 13950 2400 0    60   ~ 0
XA7
Text Label 13950 2500 0    60   ~ 0
XA8
Text Label 13950 2600 0    60   ~ 0
XA9
Text Label 13950 2700 0    60   ~ 0
XA10
Text Label 13950 2800 0    60   ~ 0
XA11
Text Label 13950 2900 0    60   ~ 0
XA12
Text Label 13950 3000 0    60   ~ 0
XA13
Text Label 13950 3100 0    60   ~ 0
XA14
Text Label 13950 3200 0    60   ~ 0
XA15
Text Label 13950 3300 0    60   ~ 0
XA16
Text Label 15600 1700 0    60   ~ 0
XD0
Text Label 15600 1800 0    60   ~ 0
XD1
Text Label 15600 1900 0    60   ~ 0
XD2
Text Label 15600 2000 0    60   ~ 0
XD3
Text Label 15600 2100 0    60   ~ 0
XD4
Text Label 15600 2200 0    60   ~ 0
XD5
Text Label 15600 2300 0    60   ~ 0
XD6
Text Label 15600 2400 0    60   ~ 0
XD7
Entry Wire Line
	15800 1700 15900 1600
Entry Wire Line
	15800 1800 15900 1700
Entry Wire Line
	15800 1900 15900 1800
Entry Wire Line
	15800 2000 15900 1900
Entry Wire Line
	15800 2100 15900 2000
Entry Wire Line
	15800 2200 15900 2100
Entry Wire Line
	15800 2300 15900 2200
Entry Wire Line
	15800 2400 15900 2300
Text Label 12750 2100 0    60   ~ 0
XA0
Text Label 12750 2200 0    60   ~ 0
XA1
Text Label 12750 2300 0    60   ~ 0
XA2
Text Label 12750 2400 0    60   ~ 0
XA3
Text Label 12750 2500 0    60   ~ 0
XA4
Text Label 12750 2600 0    60   ~ 0
XA5
Text Label 12750 2700 0    60   ~ 0
XA6
Text Label 12750 2800 0    60   ~ 0
XA7
Text Label 12750 3400 0    60   ~ 0
XA8
Text Label 12750 3500 0    60   ~ 0
XA9
Text Label 12750 3600 0    60   ~ 0
XA10
Text Label 12750 3700 0    60   ~ 0
XA11
Text Label 12750 3800 0    60   ~ 0
XA12
Text Label 12750 3900 0    60   ~ 0
XA13
Text Label 12750 4000 0    60   ~ 0
XA14
Text Label 12750 4100 0    60   ~ 0
XA15
Text Label 12750 4700 0    60   ~ 0
XA16
Text Label 12750 4800 0    60   ~ 0
XA17
Text Label 12750 4900 0    60   ~ 0
XA18
Text Label 12750 5000 0    60   ~ 0
XA19
Text Label 12750 5100 0    60   ~ 0
XA20
Text Label 12750 5200 0    60   ~ 0
XA21
Text Label 12750 5300 0    60   ~ 0
XA22
Text Label 12750 5400 0    60   ~ 0
XA23
Entry Wire Line
	13000 4700 13100 4600
Entry Wire Line
	13000 4800 13100 4700
Entry Wire Line
	13000 4900 13100 4800
Entry Wire Line
	13000 5000 13100 4900
Entry Wire Line
	13000 5100 13100 5000
Entry Wire Line
	13000 5200 13100 5100
Entry Wire Line
	13000 5300 13100 5200
Entry Wire Line
	13000 5400 13100 5300
Entry Wire Line
	13000 3400 13100 3300
Entry Wire Line
	13000 3500 13100 3400
Entry Wire Line
	13000 3600 13100 3500
Entry Wire Line
	13000 3700 13100 3600
Entry Wire Line
	13000 3800 13100 3700
Entry Wire Line
	13000 3900 13100 3800
Entry Wire Line
	13000 4000 13100 3900
Entry Wire Line
	13000 4100 13100 4000
Entry Wire Line
	13000 2100 13100 2000
Entry Wire Line
	13000 2200 13100 2100
Entry Wire Line
	13000 2300 13100 2200
Entry Wire Line
	13000 2400 13100 2300
Entry Wire Line
	13000 2500 13100 2400
Entry Wire Line
	13000 2600 13100 2500
Entry Wire Line
	13000 2700 13100 2600
Entry Wire Line
	13000 2800 13100 2700
$Comp
L 74HC595 U9
U 1 1 56FF5746
P 12050 5150
F 0 "U9" H 12200 5750 50  0000 C CNN
F 1 "74HC595" H 12050 4550 50  0000 C CNN
F 2 "" H 12050 5150 50  0000 C CNN
F 3 "" H 12050 5150 50  0000 C CNN
	1    12050 5150
	1    0    0    -1  
$EndComp
$Comp
L 74HC595 U8
U 1 1 56FF57EC
P 12050 3850
F 0 "U8" H 12200 4450 50  0000 C CNN
F 1 "74HC595" H 12050 3250 50  0000 C CNN
F 2 "" H 12050 3850 50  0000 C CNN
F 3 "" H 12050 3850 50  0000 C CNN
	1    12050 3850
	1    0    0    -1  
$EndComp
$Comp
L 74HC595 U7
U 1 1 56FF5868
P 12050 2550
F 0 "U7" H 12200 3150 50  0000 C CNN
F 1 "74HC595" H 12050 1950 50  0000 C CNN
F 2 "" H 12050 2550 50  0000 C CNN
F 3 "" H 12050 2550 50  0000 C CNN
	1    12050 2550
	1    0    0    -1  
$EndComp
NoConn ~ 12750 3000
NoConn ~ 12750 4300
NoConn ~ 12750 5600
$Comp
L 74LS245 U6
U 1 1 56FF7766
P 3850 9700
F 0 "U6" H 3950 10275 50  0000 L BNN
F 1 "74LS245" H 3900 9125 50  0000 L TNN
F 2 "" H 3850 9700 50  0000 C CNN
F 3 "" H 3850 9700 50  0000 C CNN
	1    3850 9700
	1    0    0    -1  
$EndComp
$Comp
L 74LS244 U2
U 1 1 56FF78C3
P 3600 1400
F 0 "U2" H 3650 1200 50  0000 C CNN
F 1 "74LS244" H 3700 1000 50  0000 C CNN
F 2 "" H 3600 1400 50  0000 C CNN
F 3 "" H 3600 1400 50  0000 C CNN
	1    3600 1400
	1    0    0    -1  
$EndComp
$Comp
L 74LS244 U3
U 1 1 56FF7924
P 3600 2600
F 0 "U3" H 3650 2400 50  0000 C CNN
F 1 "74LS244" H 3700 2200 50  0000 C CNN
F 2 "" H 3600 2600 50  0000 C CNN
F 3 "" H 3600 2600 50  0000 C CNN
	1    3600 2600
	1    0    0    -1  
$EndComp
Text Label 4350 900  0    60   ~ 0
XA0
Text Label 4350 1000 0    60   ~ 0
XA1
Text Label 4350 1100 0    60   ~ 0
XA2
Text Label 4350 1200 0    60   ~ 0
XA3
Text Label 4350 1300 0    60   ~ 0
XA4
Text Label 4350 1400 0    60   ~ 0
XA5
Text Label 4350 1500 0    60   ~ 0
XA6
Text Label 4350 1600 0    60   ~ 0
XA7
Text Label 4350 2100 0    60   ~ 0
XA8
Text Label 4350 2200 0    60   ~ 0
XA9
Text Label 4350 2300 0    60   ~ 0
XA10
Text Label 4350 2400 0    60   ~ 0
XA11
Text Label 4350 2500 0    60   ~ 0
XA12
Text Label 4350 2600 0    60   ~ 0
XA13
Text Label 4350 2700 0    60   ~ 0
XA14
Text Label 4350 2800 0    60   ~ 0
XA15
Entry Wire Line
	4550 2100 4650 2000
Entry Wire Line
	4550 2200 4650 2100
Entry Wire Line
	4550 2300 4650 2200
Entry Wire Line
	4550 2400 4650 2300
Entry Wire Line
	4550 2500 4650 2400
Entry Wire Line
	4550 2600 4650 2500
Entry Wire Line
	4550 2700 4650 2600
Entry Wire Line
	4550 2800 4650 2700
Entry Wire Line
	4550 900  4650 800 
Entry Wire Line
	4550 1000 4650 900 
Entry Wire Line
	4550 1100 4650 1000
Entry Wire Line
	4550 1200 4650 1100
Entry Wire Line
	4550 1300 4650 1200
Entry Wire Line
	4550 1400 4650 1300
Entry Wire Line
	4550 1500 4650 1400
Entry Wire Line
	4550 1600 4650 1500
Text Label 1500 6550 0    60   ~ 0
MSX_A0
Text Label 1500 6650 0    60   ~ 0
MSX_A1
Text Label 1500 6750 0    60   ~ 0
MSX_A2
Text Label 1500 6950 0    60   ~ 0
MSX_A4
Text Label 1500 7050 0    60   ~ 0
MSX_A5
Text Label 1500 7150 0    60   ~ 0
MSX_A6
Text Label 1500 7250 0    60   ~ 0
MSX_A7
Text Label 1500 7350 0    60   ~ 0
MSX_A8
Text Label 1500 7450 0    60   ~ 0
MSX_A9
Text Label 1500 7550 0    60   ~ 0
MSX_A10
Text Label 1500 7650 0    60   ~ 0
MSX_A11
Text Label 1500 7750 0    60   ~ 0
MSX_A12
Text Label 1500 7850 0    60   ~ 0
MSX_A13
Text Label 1500 7950 0    60   ~ 0
MSX_A14
Text Label 1500 8050 0    60   ~ 0
MSX_A15
Text Label 1500 6850 0    60   ~ 0
MSX_A3
Entry Wire Line
	1900 6550 2000 6450
Entry Wire Line
	1900 6650 2000 6550
Entry Wire Line
	1900 6750 2000 6650
Entry Wire Line
	1900 6850 2000 6750
Entry Wire Line
	1900 6950 2000 6850
Entry Wire Line
	1900 7050 2000 6950
Entry Wire Line
	1900 7150 2000 7050
Entry Wire Line
	1900 7250 2000 7150
Entry Wire Line
	1900 7350 2000 7250
Entry Wire Line
	1900 7450 2000 7350
Entry Wire Line
	1900 7550 2000 7450
Entry Wire Line
	1900 7650 2000 7550
Entry Wire Line
	1900 7750 2000 7650
Entry Wire Line
	1900 7850 2000 7750
Entry Wire Line
	1900 7950 2000 7850
Entry Wire Line
	1900 8050 2000 7950
Text Label 1500 8150 0    60   ~ 0
MSX_D0
Text Label 1500 8250 0    60   ~ 0
MSX_D1
Text Label 1500 8350 0    60   ~ 0
MSX_D2
Text Label 1500 8450 0    60   ~ 0
MSX_D3
Text Label 1500 8550 0    60   ~ 0
MSX_D4
Text Label 1500 8650 0    60   ~ 0
MSX_D5
Text Label 1500 8750 0    60   ~ 0
MSX_D6
Text Label 1500 8850 0    60   ~ 0
MSX_D7
Entry Wire Line
	1900 8150 2000 8250
Entry Wire Line
	1900 8250 2000 8350
Entry Wire Line
	1900 8350 2000 8450
Entry Wire Line
	1900 8450 2000 8550
Entry Wire Line
	1900 8550 2000 8650
Entry Wire Line
	1900 8650 2000 8750
Entry Wire Line
	1900 8750 2000 8850
Entry Wire Line
	1900 8850 2000 8950
Text Label 2600 900  0    60   ~ 0
MSX_A0
Text Label 2600 1000 0    60   ~ 0
MSX_A1
Text Label 2600 1100 0    60   ~ 0
MSX_A2
Text Label 2600 1200 0    60   ~ 0
MSX_A3
Text Label 2600 1300 0    60   ~ 0
MSX_A4
Text Label 2600 1400 0    60   ~ 0
MSX_A5
Text Label 2600 1500 0    60   ~ 0
MSX_A6
Text Label 2600 1600 0    60   ~ 0
MSX_A7
Text Label 2600 2100 0    60   ~ 0
MSX_A8
Text Label 2600 2200 0    60   ~ 0
MSX_A9
Text Label 2600 2300 0    60   ~ 0
MSX_A10
Text Label 2600 2400 0    60   ~ 0
MSX_A11
Text Label 2600 2500 0    60   ~ 0
MSX_A12
Text Label 2600 2600 0    60   ~ 0
MSX_A13
Text Label 2600 2700 0    60   ~ 0
MSX_A14
Text Label 2600 2800 0    60   ~ 0
MSX_A15
Text Label 2850 9200 0    60   ~ 0
MSX_D0
Text Label 2850 9300 0    60   ~ 0
MSX_D1
Text Label 2850 9400 0    60   ~ 0
MSX_D2
Text Label 2850 9500 0    60   ~ 0
MSX_D3
Text Label 2850 9600 0    60   ~ 0
MSX_D4
Text Label 2850 9700 0    60   ~ 0
MSX_D5
Text Label 2850 9800 0    60   ~ 0
MSX_D6
Text Label 2850 9900 0    60   ~ 0
MSX_D7
Entry Wire Line
	2750 9300 2850 9200
Entry Wire Line
	2750 9400 2850 9300
Entry Wire Line
	2750 9500 2850 9400
Entry Wire Line
	2750 9600 2850 9500
Entry Wire Line
	2750 9700 2850 9600
Entry Wire Line
	2750 9800 2850 9700
Entry Wire Line
	2750 9900 2850 9800
Entry Wire Line
	2750 10000 2850 9900
$Comp
L 74LS32 U1
U 1 2 56FFCAB7
P 2700 4650
F 0 "U1" H 2700 4700 50  0000 C CNN
F 1 "74LS32" H 2700 4600 50  0000 C CNN
F 2 "" H 2700 4650 50  0000 C CNN
F 3 "" H 2700 4650 50  0000 C CNN
	1    2700 4650
	1    0    0    -1  
$EndComp
$Comp
L 74LS32 U1
U 4 2 56FFE6C9
P 4150 6150
F 0 "U1" H 4150 6200 50  0000 C CNN
F 1 "74LS32" H 4150 6100 50  0000 C CNN
F 2 "" H 4150 6150 50  0000 C CNN
F 3 "" H 4150 6150 50  0000 C CNN
	4    4150 6150
	1    0    0    -1  
$EndComp
$Comp
L 74LS32 U1
U 3 2 56FFF2CB
P 2700 5750
F 0 "U1" H 2700 5800 50  0000 C CNN
F 1 "74LS32" H 2700 5700 50  0000 C CNN
F 2 "" H 2700 5750 50  0000 C CNN
F 3 "" H 2700 5750 50  0000 C CNN
	3    2700 5750
	1    0    0    -1  
$EndComp
$Comp
L Crystal Y1
U 1 1 570003A1
P 8550 2850
F 0 "Y1" H 8550 3000 50  0000 C CNN
F 1 "Crystal" H 8550 2700 50  0000 C CNN
F 2 "" H 8550 2850 50  0000 C CNN
F 3 "" H 8550 2850 50  0000 C CNN
	1    8550 2850
	0    -1   -1   0   
$EndComp
$Comp
L C C1
U 1 1 57000424
P 9000 2700
F 0 "C1" H 9025 2800 50  0000 L CNN
F 1 "C" H 9025 2600 50  0000 L CNN
F 2 "" H 9038 2550 50  0000 C CNN
F 3 "" H 9000 2700 50  0000 C CNN
	1    9000 2700
	0    1    1    0   
$EndComp
$Comp
L C C2
U 1 1 570004CF
P 9000 3000
F 0 "C2" H 9025 3100 50  0000 L CNN
F 1 "C" H 9025 2900 50  0000 L CNN
F 2 "" H 9038 2850 50  0000 C CNN
F 3 "" H 9000 3000 50  0000 C CNN
	1    9000 3000
	0    1    1    0   
$EndComp
$Comp
L GND #PWR11
U 1 1 5700099D
P 9250 3100
F 0 "#PWR11" H 9250 2850 50  0001 C CNN
F 1 "GND" H 9250 2950 50  0000 C CNN
F 2 "" H 9250 3100 50  0000 C CNN
F 3 "" H 9250 3100 50  0000 C CNN
	1    9250 3100
	1    0    0    -1  
$EndComp
NoConn ~ 7450 3800
NoConn ~ 7450 3900
NoConn ~ 1500 5450
NoConn ~ 1500 4950
NoConn ~ 1500 5050
NoConn ~ 1500 5650
NoConn ~ 1500 5750
NoConn ~ 1500 5850
NoConn ~ 1500 5950
NoConn ~ 1500 6350
NoConn ~ 1500 8950
NoConn ~ 1500 9650
NoConn ~ 1500 9750
NoConn ~ 1500 9850
$Comp
L 74LS32 U1
U 2 2 56FFE68C
P 2700 5250
F 0 "U1" H 2700 5300 50  0000 C CNN
F 1 "74LS32" H 2700 5200 50  0000 C CNN
F 2 "" H 2700 5250 50  0000 C CNN
F 3 "" H 2700 5250 50  0000 C CNN
	2    2700 5250
	1    0    0    -1  
$EndComp
Entry Wire Line
	2850 7550 2750 7450
Entry Wire Line
	2850 7650 2750 7550
Entry Wire Line
	2850 7750 2750 7650
Entry Wire Line
	2850 7850 2750 7750
Entry Wire Line
	2850 7950 2750 7850
Entry Wire Line
	2850 8050 2750 7950
Entry Wire Line
	2850 8150 2750 8050
Entry Wire Line
	2850 8250 2750 8150
$Comp
L GND #PWR5
U 1 1 57008FF2
P 1900 10800
F 0 "#PWR5" H 1900 10550 50  0001 C CNN
F 1 "GND" H 1900 10650 50  0000 C CNN
F 2 "" H 1900 10800 50  0000 C CNN
F 3 "" H 1900 10800 50  0000 C CNN
	1    1900 10800
	1    0    0    -1  
$EndComp
$Comp
L PWR_FLAG #FLG2
U 1 1 57009707
P 2000 10400
F 0 "#FLG2" H 2000 10495 50  0001 C CNN
F 1 "PWR_FLAG" H 2000 10580 50  0000 C CNN
F 2 "" H 2000 10400 50  0000 C CNN
F 3 "" H 2000 10400 50  0000 C CNN
	1    2000 10400
	0    1    1    0   
$EndComp
$Comp
L PWR_FLAG #FLG1
U 1 1 5700975D
P 1600 10400
F 0 "#FLG1" H 1600 10495 50  0001 C CNN
F 1 "PWR_FLAG" H 1600 10580 50  0000 C CNN
F 2 "" H 1600 10400 50  0000 C CNN
F 3 "" H 1600 10400 50  0000 C CNN
	1    1600 10400
	0    -1   -1   0   
$EndComp
Entry Wire Line
	4750 9200 4850 9100
Entry Wire Line
	4750 9300 4850 9200
Entry Wire Line
	4750 9400 4850 9300
Entry Wire Line
	4750 9500 4850 9400
Entry Wire Line
	4750 9600 4850 9500
Entry Wire Line
	4750 9700 4850 9600
Entry Wire Line
	4750 9800 4850 9700
Entry Wire Line
	4750 9900 4850 9800
Text Label 4600 9200 0    60   ~ 0
XD0
Text Label 4600 9300 0    60   ~ 0
XD1
Text Label 4600 9400 0    60   ~ 0
XD2
Text Label 4600 9500 0    60   ~ 0
XD3
Text Label 4600 9600 0    60   ~ 0
XD4
Text Label 4600 9700 0    60   ~ 0
XD5
Text Label 4600 9800 0    60   ~ 0
XD6
Text Label 4600 9900 0    60   ~ 0
XD7
Entry Wire Line
	2400 1000 2500 900 
Entry Wire Line
	2400 1100 2500 1000
Entry Wire Line
	2400 1200 2500 1100
Entry Wire Line
	2400 1300 2500 1200
Entry Wire Line
	2400 1400 2500 1300
Entry Wire Line
	2400 1500 2500 1400
Entry Wire Line
	2400 1600 2500 1500
Entry Wire Line
	2400 1700 2500 1600
Entry Wire Line
	2400 2200 2500 2100
Entry Wire Line
	2400 2300 2500 2200
Entry Wire Line
	2400 2400 2500 2300
Entry Wire Line
	2400 2500 2500 2400
Entry Wire Line
	2400 2600 2500 2500
Entry Wire Line
	2400 2700 2500 2600
Entry Wire Line
	2400 2800 2500 2700
Entry Wire Line
	2400 2900 2500 2800
$Comp
L 74HC595 U11
U 1 1 5700CBE4
P 14900 4800
F 0 "U11" H 15050 5400 50  0000 C CNN
F 1 "74HC595" H 14900 4200 50  0000 C CNN
F 2 "" H 14900 4800 50  0000 C CNN
F 3 "" H 14900 4800 50  0000 C CNN
	1    14900 4800
	1    0    0    -1  
$EndComp
Text Label 15600 4350 0    60   ~ 0
XD0
Text Label 15600 4450 0    60   ~ 0
XD1
Text Label 15600 4550 0    60   ~ 0
XD2
Text Label 15600 4650 0    60   ~ 0
XD3
Text Label 15600 4750 0    60   ~ 0
XD4
Text Label 15600 4850 0    60   ~ 0
XD5
Text Label 15600 4950 0    60   ~ 0
XD6
Text Label 15600 5050 0    60   ~ 0
XD7
Entry Wire Line
	15800 4350 15900 4250
Entry Wire Line
	15800 4450 15900 4350
Entry Wire Line
	15800 4550 15900 4450
Entry Wire Line
	15800 4650 15900 4550
Entry Wire Line
	15800 4750 15900 4650
Entry Wire Line
	15800 4850 15900 4750
Entry Wire Line
	15800 4950 15900 4850
Entry Wire Line
	15800 5050 15900 4950
NoConn ~ 15600 5250
$Comp
L GNDD #PWR7
U 1 1 5700F386
P 2950 7400
F 0 "#PWR7" H 2950 7150 50  0001 C CNN
F 1 "GNDD" H 2950 7250 50  0000 C CNN
F 2 "" H 2950 7400 50  0000 C CNN
F 3 "" H 2950 7400 50  0000 C CNN
	1    2950 7400
	-1   0    0    1   
$EndComp
$Comp
L GNDD #PWR6
U 1 1 5700F7D9
P 2100 10800
F 0 "#PWR6" H 2100 10550 50  0001 C CNN
F 1 "GNDD" H 2100 10650 50  0000 C CNN
F 2 "" H 2100 10800 50  0000 C CNN
F 3 "" H 2100 10800 50  0000 C CNN
	1    2100 10800
	1    0    0    -1  
$EndComp
NoConn ~ 1500 6050
Text GLabel 2050 1800 0    60   Input ~ 0
~MSX_PERM
$Comp
L +5VD #PWR3
U 1 1 57011CF4
P 1500 10800
F 0 "#PWR3" H 1500 10650 50  0001 C CNN
F 1 "+5VD" H 1500 10940 50  0000 C CNN
F 2 "" H 1500 10800 50  0000 C CNN
F 3 "" H 1500 10800 50  0000 C CNN
	1    1500 10800
	-1   0    0    1   
$EndComp
$Comp
L +5V #PWR4
U 1 1 57011DDD
P 1700 10800
F 0 "#PWR4" H 1700 10650 50  0001 C CNN
F 1 "+5V" H 1700 10940 50  0000 C CNN
F 2 "" H 1700 10800 50  0000 C CNN
F 3 "" H 1700 10800 50  0000 C CNN
	1    1700 10800
	-1   0    0    1   
$EndComp
Text GLabel 5100 6150 2    60   Input ~ 0
~RAM_OE
Text GLabel 14000 3700 0    60   Input ~ 0
~RAM_OE
Text GLabel 1600 4550 0    60   Input ~ 0
~AVR_PERM
Text GLabel 10850 2600 0    60   Input ~ 0
~LD_XA0
Text GLabel 10850 3900 0    60   Input ~ 0
~LD_XA1
Text GLabel 10850 5200 0    60   Input ~ 0
~LD_XA2
Text GLabel 14000 3900 0    60   Input ~ 0
~RAM_WE
Text GLabel 14000 4850 0    60   Input ~ 0
~LD_XD
Text GLabel 10850 5400 0    60   Input ~ 0
~AVR_PERM
Text GLabel 10850 2300 0    60   Input ~ 0
SPI_SCK
Text GLabel 10850 2100 0    60   Input ~ 0
SPI_MOSI
$Comp
L +5VD #PWR12
U 1 1 570195D5
P 11250 1800
F 0 "#PWR12" H 11250 1650 50  0001 C CNN
F 1 "+5VD" H 11250 1940 50  0000 C CNN
F 2 "" H 11250 1800 50  0000 C CNN
F 3 "" H 11250 1800 50  0000 C CNN
	1    11250 1800
	1    0    0    -1  
$EndComp
Text GLabel 14000 4350 0    60   Input ~ 0
SPI_MOSI
Text GLabel 14000 4550 0    60   Input ~ 0
SPI_SCK
$Comp
L +5VD #PWR13
U 1 1 5701A27A
P 13450 3400
F 0 "#PWR13" H 13450 3250 50  0001 C CNN
F 1 "+5VD" H 13450 3540 50  0000 C CNN
F 2 "" H 13450 3400 50  0000 C CNN
F 3 "" H 13450 3400 50  0000 C CNN
	1    13450 3400
	1    0    0    -1  
$EndComp
Text GLabel 2800 10400 0    60   Input ~ 0
~RAM_OE
Text GLabel 8300 3300 2    60   Input ~ 0
~LD_XA0
Text GLabel 8300 3450 2    60   Input ~ 0
~LD_XA1
Text GLabel 8300 3600 2    60   Input ~ 0
~LD_XA2
Text GLabel 8300 4000 2    60   Input ~ 0
~AVR_PERM
Text GLabel 8150 2400 2    60   Input ~ 0
SPI_MOSI
Text GLabel 8150 2550 2    60   Input ~ 0
SPI_SCK
Text GLabel 8300 3150 2    60   Input ~ 0
~LD_XD
Text GLabel 8300 4450 2    60   Input ~ 0
~RAM_WE
Text GLabel 8300 4150 2    60   Input ~ 0
~MSX_PERM
Text GLabel 5100 7550 2    60   Input ~ 0
SPI_MISO
Text GLabel 8150 2250 2    60   Input ~ 0
SPI_MISO
Text GLabel 2800 10550 0    60   Input ~ 0
~MSX_PERM
$Comp
L 74LS165 U5
U 1 1 56FFE0E0
P 3850 8050
F 0 "U5" H 4000 8000 50  0000 C CNN
F 1 "74LS165" H 4000 7800 50  0000 C CNN
F 2 "" H 3850 8050 50  0000 C CNN
F 3 "" H 3850 8050 50  0000 C CNN
	1    3850 8050
	1    0    0    -1  
$EndComp
Text GLabel 2950 8550 0    60   Input ~ 0
SPI_SCK
NoConn ~ 4550 7650
Text GLabel 2950 8750 0    60   Input ~ 0
~READ_CLK_EN
Text GLabel 8300 4300 2    60   Input ~ 0
~READ_CLK_EN
$Comp
L GNDD #PWR14
U 1 1 5701AEB4
P 13650 3400
F 0 "#PWR14" H 13650 3150 50  0001 C CNN
F 1 "GNDD" H 13650 3250 50  0000 C CNN
F 2 "" H 13650 3400 50  0000 C CNN
F 3 "" H 13650 3400 50  0000 C CNN
	1    13650 3400
	-1   0    0    1   
$EndComp
Text Notes 8550 10650 0    60   ~ 0
Notes:\n* ~MSX_PERM~ and ~AVR_PERM~ should not be asserted at same time.\n* ~CS12~ is defined by Mem & Read (regardless with Slot).\n* ~SLTSL~ is defined by Mem & Slot (regardless with Read/Write).\n* ~BUSDIR~ need not be driven for Mem access.
$Comp
L GND #PWR10
U 1 1 57007E71
P 5450 4600
F 0 "#PWR10" H 5450 4350 50  0001 C CNN
F 1 "GND" H 5450 4450 50  0000 C CNN
F 2 "" H 5450 4600 50  0000 C CNN
F 3 "" H 5450 4600 50  0000 C CNN
	1    5450 4600
	1    0    0    -1  
$EndComp
$Comp
L +5V #PWR8
U 1 1 57008E9F
P 5450 2100
F 0 "#PWR8" H 5450 1950 50  0001 C CNN
F 1 "+5V" H 5450 2240 50  0000 C CNN
F 2 "" H 5450 2100 50  0000 C CNN
F 3 "" H 5450 2100 50  0000 C CNN
	1    5450 2100
	1    0    0    -1  
$EndComp
Text GLabel 14000 5050 0    60   Input ~ 0
~RAM_WE
$Comp
L GNDD #PWR9
U 1 1 5701288B
P 5450 3750
F 0 "#PWR9" H 5450 3500 50  0001 C CNN
F 1 "GNDD" H 5450 3600 50  0000 C CNN
F 2 "" H 5450 3750 50  0000 C CNN
F 3 "" H 5450 3750 50  0000 C CNN
	1    5450 3750
	1    0    0    -1  
$EndComp
Text Label 2850 7550 0    60   ~ 0
MSX_A0
Text Label 2850 7650 0    60   ~ 0
MSX_A1
Text Label 2850 7750 0    60   ~ 0
MSX_A2
Text Label 2850 7850 0    60   ~ 0
MSX_A3
Text Label 2850 7950 0    60   ~ 0
MSX_A4
Text Label 2850 8050 0    60   ~ 0
MSX_A5
Text Label 2850 8150 0    60   ~ 0
MSX_A6
Text Label 2850 8250 0    60   ~ 0
MSX_A7
$Comp
L DIPSW-8P SW1
U 1 1 57021E8E
P 1000 3250
F 0 "SW1" H 1000 3300 60  0000 C CNN
F 1 "DIPSW-8P" H 1000 2400 60  0000 C CNN
F 2 "Housings_DIP:DIP-16_W7.62mm" H 1000 2300 60  0001 C CNN
F 3 "" H 1000 3250 60  0000 C CNN
	1    1000 3250
	1    0    0    -1  
$EndComp
$Comp
L R_Small R2
U 1 1 5702209F
P 1500 3100
F 0 "R2" H 1530 3120 50  0000 L CNN
F 1 "10k" H 1530 3060 50  0000 L CNN
F 2 "" H 1500 3100 50  0000 C CNN
F 3 "" H 1500 3100 50  0000 C CNN
	1    1500 3100
	1    0    0    -1  
$EndComp
$Comp
L 74LS244 U4
U 1 1 5702239A
P 3600 3800
F 0 "U4" H 3650 3600 50  0000 C CNN
F 1 "74LS244" H 3700 3400 50  0000 C CNN
F 2 "" H 3600 3800 50  0000 C CNN
F 3 "" H 3600 3800 50  0000 C CNN
	1    3600 3800
	1    0    0    -1  
$EndComp
$Comp
L R_Small R3
U 1 1 57022A18
P 1600 2800
F 0 "R3" H 1630 2820 50  0000 L CNN
F 1 "10k" H 1630 2760 50  0000 L CNN
F 2 "" H 1600 2800 50  0000 C CNN
F 3 "" H 1600 2800 50  0000 C CNN
	1    1600 2800
	1    0    0    -1  
$EndComp
Wire Wire Line
	13900 1700 14200 1700
Wire Wire Line
	13900 1800 14200 1800
Wire Wire Line
	13900 1900 14200 1900
Wire Wire Line
	13900 2000 14200 2000
Wire Wire Line
	13900 2100 14200 2100
Wire Wire Line
	13900 2200 14200 2200
Wire Wire Line
	13900 2300 14200 2300
Wire Wire Line
	13900 2400 14200 2400
Wire Wire Line
	13900 2500 14200 2500
Wire Wire Line
	13900 2600 14200 2600
Wire Wire Line
	13900 2700 14200 2700
Wire Wire Line
	13900 2800 14200 2800
Wire Wire Line
	13900 2900 14200 2900
Wire Wire Line
	13900 3000 14200 3000
Wire Wire Line
	13900 3100 14200 3100
Wire Wire Line
	13900 3200 14200 3200
Wire Wire Line
	13900 3300 14200 3300
Wire Bus Line
	13800 600  13800 1600
Wire Bus Line
	13800 1600 13800 1700
Wire Bus Line
	13800 1700 13800 1800
Wire Bus Line
	13800 1800 13800 1900
Wire Bus Line
	13800 1900 13800 2000
Wire Bus Line
	13800 2000 13800 2100
Wire Bus Line
	13800 2100 13800 2200
Wire Bus Line
	13800 2200 13800 2300
Wire Bus Line
	13800 2300 13800 2400
Wire Bus Line
	13800 2400 13800 2500
Wire Bus Line
	13800 2500 13800 2600
Wire Bus Line
	13800 2600 13800 2700
Wire Bus Line
	13800 2700 13800 2800
Wire Bus Line
	13800 2800 13800 2900
Wire Bus Line
	13800 2900 13800 3000
Wire Bus Line
	13800 3000 13800 3100
Wire Bus Line
	13800 3100 13800 3200
Wire Wire Line
	15600 1700 15800 1700
Wire Wire Line
	15600 1800 15800 1800
Wire Wire Line
	15600 1900 15800 1900
Wire Wire Line
	15600 2000 15800 2000
Wire Wire Line
	15600 2100 15800 2100
Wire Wire Line
	15600 2200 15800 2200
Wire Wire Line
	15600 2300 15800 2300
Wire Wire Line
	15600 2400 15800 2400
Wire Bus Line
	15900 800  15900 1600
Wire Bus Line
	15900 1600 15900 1700
Wire Bus Line
	15900 1700 15900 1800
Wire Bus Line
	15900 1800 15900 1900
Wire Bus Line
	15900 1900 15900 2000
Wire Bus Line
	15900 2000 15900 2100
Wire Bus Line
	15900 2100 15900 2200
Wire Bus Line
	15900 2200 15900 2300
Wire Bus Line
	15900 2300 15900 4250
Wire Bus Line
	15900 4250 15900 4350
Wire Bus Line
	15900 4350 15900 4450
Wire Bus Line
	15900 4450 15900 4550
Wire Bus Line
	15900 4550 15900 4650
Wire Bus Line
	15900 4650 15900 4750
Wire Bus Line
	15900 4750 15900 4850
Wire Bus Line
	15900 4850 15900 4950
Wire Wire Line
	13000 4700 12750 4700
Wire Wire Line
	12750 4800 13000 4800
Wire Wire Line
	12750 4900 13000 4900
Wire Wire Line
	12750 5000 13000 5000
Wire Wire Line
	12750 5100 13000 5100
Wire Wire Line
	12750 5200 13000 5200
Wire Wire Line
	12750 5300 13000 5300
Wire Wire Line
	12750 5400 13000 5400
Wire Wire Line
	12750 3400 13000 3400
Wire Wire Line
	12750 3500 13000 3500
Wire Wire Line
	12750 3600 13000 3600
Wire Wire Line
	12750 3700 13000 3700
Wire Wire Line
	12750 3800 13000 3800
Wire Wire Line
	12750 3900 13000 3900
Wire Wire Line
	12750 4000 13000 4000
Wire Wire Line
	12750 4100 13000 4100
Wire Wire Line
	12750 2100 13000 2100
Wire Wire Line
	12750 2200 13000 2200
Wire Wire Line
	12750 2300 13000 2300
Wire Wire Line
	12750 2400 13000 2400
Wire Wire Line
	12750 2500 13000 2500
Wire Wire Line
	12750 2600 13000 2600
Wire Wire Line
	12750 2700 13000 2700
Wire Wire Line
	12750 2800 13000 2800
Wire Wire Line
	10850 2300 11050 2300
Wire Wire Line
	11050 2300 11350 2300
Wire Wire Line
	11050 2300 11050 3600
Wire Wire Line
	11050 3600 11050 4900
Wire Wire Line
	11050 4900 11350 4900
Wire Wire Line
	11350 3600 11050 3600
Connection ~ 11050 3600
Wire Wire Line
	11350 2700 11150 2700
Wire Wire Line
	11150 2700 11150 4000
Wire Wire Line
	11150 4000 11150 5300
Wire Wire Line
	11150 5300 11150 5400
Wire Wire Line
	11150 4000 11350 4000
Wire Wire Line
	10850 2100 10950 2100
Wire Wire Line
	10950 2100 11350 2100
Wire Wire Line
	10950 2100 10950 3400
Wire Wire Line
	10950 3400 10950 4700
Wire Wire Line
	10950 4700 11350 4700
Wire Wire Line
	11350 3400 10950 3400
Connection ~ 10950 3400
Wire Wire Line
	11250 1800 11250 2400
Wire Wire Line
	11250 2400 11250 3700
Wire Wire Line
	11250 3700 11250 5000
Wire Wire Line
	11350 2400 11250 2400
Connection ~ 11250 2400
Wire Wire Line
	11250 3700 11350 3700
Wire Bus Line
	4650 600  13100 600 
Wire Bus Line
	13100 600  13800 600 
Wire Wire Line
	4300 900  4550 900 
Wire Wire Line
	4300 1000 4550 1000
Wire Wire Line
	4300 1100 4550 1100
Wire Wire Line
	4300 1200 4550 1200
Wire Wire Line
	4300 1300 4550 1300
Wire Wire Line
	4300 1400 4550 1400
Wire Wire Line
	4300 1500 4550 1500
Wire Wire Line
	4300 1600 4550 1600
Wire Wire Line
	4300 2100 4550 2100
Wire Wire Line
	4300 2200 4550 2200
Wire Wire Line
	4300 2300 4550 2300
Wire Wire Line
	4300 2400 4550 2400
Wire Wire Line
	4300 2500 4550 2500
Wire Wire Line
	4300 2600 4550 2600
Wire Wire Line
	4300 2700 4550 2700
Wire Wire Line
	4300 2800 4550 2800
Wire Wire Line
	1900 6550 1500 6550
Wire Wire Line
	1900 6650 1500 6650
Wire Wire Line
	1900 6850 1500 6850
Wire Wire Line
	1900 6950 1500 6950
Wire Wire Line
	1900 7050 1500 7050
Wire Wire Line
	1900 7150 1500 7150
Wire Wire Line
	1900 7250 1500 7250
Wire Wire Line
	1900 7350 1500 7350
Wire Wire Line
	1900 7450 1500 7450
Wire Wire Line
	1900 7550 1500 7550
Wire Wire Line
	1900 7650 1500 7650
Wire Wire Line
	1900 7750 1500 7750
Wire Wire Line
	1900 7850 1500 7850
Wire Wire Line
	1900 7950 1500 7950
Wire Wire Line
	1900 8050 1500 8050
Wire Wire Line
	1900 6750 1500 6750
Wire Wire Line
	1500 8150 1900 8150
Wire Wire Line
	1500 8250 1900 8250
Wire Wire Line
	1500 8350 1900 8350
Wire Wire Line
	1500 8450 1900 8450
Wire Wire Line
	1500 8550 1900 8550
Wire Wire Line
	1500 8650 1900 8650
Wire Wire Line
	1500 8750 1900 8750
Wire Wire Line
	1500 8850 1900 8850
Wire Wire Line
	2900 900  2500 900 
Wire Wire Line
	2900 1000 2500 1000
Wire Wire Line
	2900 1100 2500 1100
Wire Wire Line
	2900 1200 2500 1200
Wire Wire Line
	2900 1300 2500 1300
Wire Wire Line
	2900 1400 2500 1400
Wire Wire Line
	2900 1500 2500 1500
Wire Wire Line
	2900 1600 2500 1600
Wire Wire Line
	2900 2100 2500 2100
Wire Wire Line
	2900 2200 2500 2200
Wire Wire Line
	2900 2300 2500 2300
Wire Wire Line
	2900 2400 2500 2400
Wire Wire Line
	2900 2500 2500 2500
Wire Wire Line
	2900 2600 2500 2600
Wire Wire Line
	2900 2700 2500 2700
Wire Wire Line
	2900 2800 2500 2800
Wire Bus Line
	2000 4400 2000 6450
Wire Bus Line
	2000 6450 2000 6550
Wire Bus Line
	2000 6550 2000 6650
Wire Bus Line
	2000 6650 2000 6750
Wire Bus Line
	2000 6750 2000 6850
Wire Bus Line
	2000 6850 2000 6950
Wire Bus Line
	2000 6950 2000 7050
Wire Bus Line
	2000 7050 2000 7150
Wire Bus Line
	2000 7150 2000 7250
Wire Bus Line
	2000 7250 2000 7300
Wire Bus Line
	2000 6650 2000 6750
Wire Bus Line
	2000 6750 2000 6850
Wire Bus Line
	2000 6850 2000 6950
Wire Bus Line
	2000 6950 2000 7050
Wire Bus Line
	2000 7050 2000 7150
Wire Bus Line
	2000 7150 2000 7250
Wire Bus Line
	2000 7250 2000 7350
Wire Bus Line
	2000 7350 2000 7450
Wire Bus Line
	2000 7450 2000 7550
Wire Bus Line
	2000 7550 2000 7650
Wire Bus Line
	2000 7650 2000 7750
Wire Bus Line
	2000 7750 2000 7850
Wire Bus Line
	2000 7850 2000 7950
Wire Bus Line
	2000 7150 2000 7250
Wire Bus Line
	2000 7250 2000 7350
Wire Bus Line
	2000 7350 2000 7450
Wire Bus Line
	2000 7450 2000 7550
Wire Bus Line
	2000 7550 2000 7650
Wire Bus Line
	2400 4400 2000 4400
Wire Bus Line
	4650 600  4650 800 
Wire Bus Line
	4650 800  4650 900 
Wire Bus Line
	4650 900  4650 1000
Wire Bus Line
	4650 1000 4650 1100
Wire Bus Line
	4650 1100 4650 1200
Wire Bus Line
	4650 1200 4650 1300
Wire Bus Line
	4650 1300 4650 1400
Wire Bus Line
	4650 1400 4650 1500
Wire Bus Line
	4650 1500 4650 2000
Wire Bus Line
	4650 2000 4650 2100
Wire Bus Line
	4650 2100 4650 2200
Wire Bus Line
	4650 2200 4650 2300
Wire Bus Line
	4650 2300 4650 2400
Wire Bus Line
	4650 2400 4650 2500
Wire Bus Line
	4650 2500 4650 2600
Wire Bus Line
	4650 2600 4650 2700
Wire Bus Line
	4650 2700 4650 3200
Wire Bus Line
	4650 3200 4650 3300
Wire Bus Line
	4650 3300 4650 3400
Wire Bus Line
	4650 3400 4650 3500
Wire Bus Line
	4650 3500 4650 3600
Wire Bus Line
	4650 3600 4650 3700
Wire Bus Line
	4650 3700 4650 3800
Wire Bus Line
	4650 3800 4650 3900
Wire Wire Line
	2850 9200 3150 9200
Wire Wire Line
	2850 9300 3150 9300
Wire Wire Line
	2850 9400 3150 9400
Wire Wire Line
	2850 9500 3150 9500
Wire Wire Line
	2850 9600 3150 9600
Wire Wire Line
	2850 9700 3150 9700
Wire Wire Line
	2850 9800 3150 9800
Wire Wire Line
	2850 9900 3150 9900
Wire Bus Line
	2000 8250 2000 8350
Wire Bus Line
	2000 8350 2000 8450
Wire Bus Line
	2000 8450 2000 8550
Wire Bus Line
	2000 8550 2000 8650
Wire Bus Line
	2000 8650 2000 8750
Wire Bus Line
	2000 8750 2000 8850
Wire Bus Line
	2000 8850 2000 8950
Wire Bus Line
	2000 8950 2000 10200
Wire Bus Line
	2000 10200 2750 10200
Wire Bus Line
	2750 10200 2750 10000
Wire Bus Line
	2750 10000 2750 9900
Wire Bus Line
	2750 9900 2750 9800
Wire Bus Line
	2750 9800 2750 9700
Wire Bus Line
	2750 9700 2750 9600
Wire Bus Line
	2750 9600 2750 9500
Wire Bus Line
	2750 9500 2750 9400
Wire Bus Line
	2750 9400 2750 9300
Wire Bus Line
	13100 600  13100 2000
Wire Bus Line
	13100 2000 13100 2100
Wire Bus Line
	13100 2100 13100 2200
Wire Bus Line
	13100 2200 13100 2300
Wire Bus Line
	13100 2300 13100 2400
Wire Bus Line
	13100 2400 13100 2500
Wire Bus Line
	13100 2500 13100 2600
Wire Bus Line
	13100 2600 13100 2700
Wire Bus Line
	13100 2700 13100 3300
Wire Bus Line
	13100 3300 13100 3400
Wire Bus Line
	13100 3400 13100 3500
Wire Bus Line
	13100 3500 13100 3600
Wire Bus Line
	13100 3600 13100 3700
Wire Bus Line
	13100 3700 13100 3800
Wire Bus Line
	13100 3800 13100 3900
Wire Bus Line
	13100 3900 13100 4000
Wire Bus Line
	13100 4000 13100 4600
Wire Bus Line
	13100 4600 13100 4700
Wire Bus Line
	13100 4700 13100 4800
Wire Bus Line
	13100 4800 13100 4900
Wire Bus Line
	13100 4900 13100 5000
Wire Bus Line
	13100 5000 13100 5100
Wire Bus Line
	13100 5100 13100 5200
Wire Bus Line
	13100 5200 13100 5300
Wire Wire Line
	1850 4950 3450 4950
Wire Wire Line
	1850 4950 1850 5550
Wire Wire Line
	1850 5550 1500 5550
Wire Wire Line
	1700 5350 2100 5350
Wire Wire Line
	1500 5150 2100 5150
Wire Wire Line
	1500 6250 3550 6250
Wire Wire Line
	1500 6150 1700 6150
Wire Wire Line
	7450 2800 8300 2800
Wire Wire Line
	8300 2800 8300 2700
Wire Wire Line
	8300 2700 8550 2700
Wire Wire Line
	8550 2700 8850 2700
Connection ~ 8550 2700
Wire Wire Line
	8300 3000 8550 3000
Wire Wire Line
	8550 3000 8850 3000
Wire Wire Line
	8300 3000 8300 2900
Wire Wire Line
	8300 2900 7450 2900
Connection ~ 8550 3000
Wire Wire Line
	9150 2700 9250 2700
Wire Wire Line
	9250 2700 9250 3000
Wire Wire Line
	9250 3000 9250 3100
Wire Wire Line
	9150 3000 9250 3000
Connection ~ 9250 3000
Wire Wire Line
	3300 5250 3450 5250
Wire Wire Line
	3150 7550 2850 7550
Wire Wire Line
	3150 7650 2850 7650
Wire Wire Line
	3150 7750 2850 7750
Wire Wire Line
	3150 7850 2850 7850
Wire Wire Line
	3150 7950 2850 7950
Wire Wire Line
	3150 8050 2850 8050
Wire Wire Line
	3150 8150 2850 8150
Wire Wire Line
	3150 8250 2850 8250
Wire Wire Line
	1700 4750 1700 5250
Wire Wire Line
	1700 5250 1700 5350
Wire Wire Line
	1700 5350 1700 5650
Connection ~ 1700 5250
Wire Wire Line
	3450 5250 3450 6050
Wire Wire Line
	3450 6050 3550 6050
Wire Wire Line
	2050 1800 2300 1800
Wire Wire Line
	2300 1800 2900 1800
Wire Wire Line
	2300 3000 2900 3000
Connection ~ 2300 3000
Wire Wire Line
	2300 3100 2900 3100
Wire Wire Line
	2300 1900 2900 1900
Connection ~ 2300 1900
Wire Wire Line
	1700 6150 1700 5850
Wire Wire Line
	1700 5850 2100 5850
Wire Wire Line
	1700 5650 2100 5650
Connection ~ 1700 5350
Wire Wire Line
	3300 5750 3350 5750
Wire Wire Line
	3350 6100 2300 6100
Wire Wire Line
	2300 6100 2300 8400
Wire Wire Line
	2300 8400 3150 8400
Wire Wire Line
	1500 9050 1900 9050
Wire Wire Line
	1900 9050 1900 9150
Wire Wire Line
	1900 9150 1900 10400
Wire Wire Line
	1900 10400 1900 10700
Wire Wire Line
	1900 10700 1900 10800
Wire Wire Line
	1500 9450 1700 9450
Wire Wire Line
	1700 9450 1700 9550
Wire Wire Line
	1700 9550 1700 10400
Wire Wire Line
	1700 10400 1700 10700
Wire Wire Line
	1700 10700 1700 10800
Wire Wire Line
	1500 9550 1700 9550
Connection ~ 1700 9550
Wire Wire Line
	1500 9150 1900 9150
Connection ~ 1900 9150
Wire Wire Line
	2000 10400 1900 10400
Connection ~ 1900 10400
Wire Wire Line
	1700 10400 1600 10400
Connection ~ 1700 10400
Wire Wire Line
	3150 10200 3050 10200
Wire Wire Line
	3050 10200 3050 10550
Wire Wire Line
	3050 10550 2800 10550
Wire Wire Line
	4550 9200 4750 9200
Wire Wire Line
	4550 9300 4750 9300
Wire Wire Line
	4550 9400 4750 9400
Wire Wire Line
	4550 9500 4750 9500
Wire Wire Line
	4550 9600 4750 9600
Wire Wire Line
	4550 9700 4750 9700
Wire Wire Line
	4550 9800 4750 9800
Wire Wire Line
	4550 9900 4750 9900
Wire Bus Line
	4850 800  4850 9100
Wire Bus Line
	4850 9100 4850 9200
Wire Bus Line
	4850 9200 4850 9300
Wire Bus Line
	4850 9300 4850 9400
Wire Bus Line
	4850 9400 4850 9500
Wire Bus Line
	4850 9500 4850 9600
Wire Bus Line
	4850 9600 4850 9700
Wire Bus Line
	4850 9700 4850 9800
Wire Bus Line
	2400 1000 2400 1100
Wire Bus Line
	2400 1100 2400 1200
Wire Bus Line
	2400 1200 2400 1300
Wire Bus Line
	2400 1300 2400 1400
Wire Bus Line
	2400 1400 2400 1500
Wire Bus Line
	2400 1500 2400 1600
Wire Bus Line
	2400 1600 2400 1700
Wire Bus Line
	2400 1700 2400 2200
Wire Bus Line
	2400 2200 2400 2300
Wire Bus Line
	2400 2300 2400 2400
Wire Bus Line
	2400 2400 2400 2500
Wire Bus Line
	2400 2500 2400 2600
Wire Bus Line
	2400 2600 2400 2700
Wire Bus Line
	2400 2700 2400 2800
Wire Bus Line
	2400 2800 2400 2900
Wire Bus Line
	2400 2900 2400 4400
Wire Bus Line
	4850 800  15900 800 
Wire Wire Line
	15600 4350 15800 4350
Wire Wire Line
	15600 4450 15800 4450
Wire Wire Line
	15600 4550 15800 4550
Wire Wire Line
	15600 4650 15800 4650
Wire Wire Line
	15600 4750 15800 4750
Wire Wire Line
	15600 4850 15800 4850
Wire Wire Line
	15600 4950 15800 4950
Wire Wire Line
	15600 5050 15800 5050
Wire Wire Line
	3150 7450 2950 7450
Wire Wire Line
	2950 7450 2950 7400
Wire Wire Line
	2100 10800 2100 10700
Wire Wire Line
	2100 10700 1900 10700
Connection ~ 1900 10700
Wire Wire Line
	2300 1800 2300 1900
Wire Wire Line
	2300 1900 2300 3000
Wire Wire Line
	2300 3000 2300 3100
Wire Wire Line
	2300 3100 2300 4200
Wire Wire Line
	2300 4200 2300 4300
Wire Wire Line
	2300 3000 2300 1900
Connection ~ 2300 1800
Wire Wire Line
	1500 10700 1700 10700
Connection ~ 1700 10700
Wire Wire Line
	1500 10800 1500 10700
Wire Wire Line
	4750 6150 5100 6150
Wire Wire Line
	14200 3700 14000 3700
Wire Wire Line
	11350 2600 10850 2600
Wire Wire Line
	10850 3900 11350 3900
Wire Wire Line
	10850 5200 11350 5200
Wire Wire Line
	14200 3800 14100 3800
Wire Wire Line
	14100 3800 14100 3900
Wire Wire Line
	14100 3900 14000 3900
Wire Wire Line
	14200 4850 14000 4850
Wire Wire Line
	14200 4950 14100 4950
Wire Wire Line
	14100 4950 14100 5050
Wire Wire Line
	14100 5050 14000 5050
Connection ~ 10950 2100
Connection ~ 11050 2300
Wire Wire Line
	14200 4350 14000 4350
Wire Wire Line
	14000 4550 14200 4550
Wire Wire Line
	13450 3400 13450 3600
Wire Wire Line
	13450 3600 13450 4650
Wire Wire Line
	13450 4650 14200 4650
Wire Wire Line
	14200 3600 13450 3600
Connection ~ 13450 3600
Wire Wire Line
	14200 3500 13650 3500
Connection ~ 11250 3700
Wire Wire Line
	11250 5000 11350 5000
Wire Wire Line
	3350 5750 3350 6100
Wire Wire Line
	3150 10100 2950 10100
Wire Wire Line
	2950 10100 2950 10400
Wire Wire Line
	2950 10400 2800 10400
Wire Wire Line
	3150 8550 2950 8550
Wire Wire Line
	2950 8750 3050 8750
Wire Wire Line
	3050 8750 3050 8650
Wire Wire Line
	3050 8650 3150 8650
Wire Wire Line
	13650 3500 13650 3400
Wire Wire Line
	5550 4300 5450 4300
Wire Wire Line
	5450 4300 5450 4400
Wire Wire Line
	5450 4400 5450 4500
Wire Wire Line
	5450 4500 5450 4600
Wire Wire Line
	5550 4400 5450 4400
Connection ~ 5450 4400
Wire Wire Line
	5550 4500 5450 4500
Connection ~ 5450 4500
Wire Wire Line
	5450 2800 5550 2800
Wire Wire Line
	5450 2100 5450 2200
Wire Wire Line
	5450 2200 5450 2300
Wire Wire Line
	5450 2300 5450 2500
Wire Wire Line
	5450 2500 5450 2800
Wire Wire Line
	5550 2200 5450 2200
Connection ~ 5450 2200
Wire Wire Line
	5550 2300 5450 2300
Connection ~ 5450 2300
Wire Wire Line
	5550 2500 5450 2500
Connection ~ 5450 2500
Wire Wire Line
	2100 4550 1600 4550
Wire Wire Line
	1700 4750 2100 4750
Wire Wire Line
	1500 5250 1700 5250
Wire Wire Line
	3450 4950 3450 4650
Wire Wire Line
	3450 4650 3300 4650
Wire Bus Line
	2750 7300 2750 7450
Wire Bus Line
	2750 7450 2750 7550
Wire Bus Line
	2750 7550 2750 7650
Wire Bus Line
	2750 7650 2750 7750
Wire Bus Line
	2750 7750 2750 7850
Wire Bus Line
	2750 7850 2750 7950
Wire Bus Line
	2750 7950 2750 8050
Wire Bus Line
	2750 8050 2750 8150
Wire Bus Line
	2000 7300 2750 7300
Wire Bus Line
	4850 8950 4850 8200
Wire Wire Line
	5550 3550 5450 3550
Wire Wire Line
	5450 3550 5450 3650
Wire Wire Line
	5450 3650 5450 3750
Wire Wire Line
	5550 3650 5450 3650
Connection ~ 5450 3650
Wire Wire Line
	8150 2550 8050 2550
Wire Wire Line
	8050 2550 8050 2700
Wire Wire Line
	8050 2700 7450 2700
Wire Wire Line
	7450 2600 7950 2600
Wire Wire Line
	7950 2600 7950 2400
Wire Wire Line
	7950 2400 8150 2400
Wire Wire Line
	7450 2500 7850 2500
Wire Wire Line
	7850 2500 7850 2250
Wire Wire Line
	7850 2250 8150 2250
Wire Wire Line
	8300 3150 8200 3150
Wire Wire Line
	8200 3150 8200 3050
Wire Wire Line
	8200 3050 7450 3050
Wire Wire Line
	8300 3300 8100 3300
Wire Wire Line
	8100 3300 8100 3150
Wire Wire Line
	8100 3150 7450 3150
Wire Wire Line
	8300 3450 8000 3450
Wire Wire Line
	8000 3450 8000 3250
Wire Wire Line
	8000 3250 7450 3250
Wire Wire Line
	8300 3600 7900 3600
Wire Wire Line
	7900 3600 7900 3350
Wire Wire Line
	7900 3350 7450 3350
Wire Wire Line
	8300 4000 7450 4000
Wire Wire Line
	8300 4150 8200 4150
Wire Wire Line
	8200 4150 8200 4100
Wire Wire Line
	8200 4100 7450 4100
Wire Wire Line
	8300 4300 8100 4300
Wire Wire Line
	8100 4300 8100 4200
Wire Wire Line
	8100 4200 7450 4200
Wire Wire Line
	8300 4450 8000 4450
Wire Wire Line
	8000 4450 8000 4300
Wire Wire Line
	8000 4300 7450 4300
Wire Wire Line
	4550 7550 5100 7550
Connection ~ 11150 4000
Wire Wire Line
	11150 5300 11350 5300
Wire Wire Line
	11150 5400 10850 5400
Connection ~ 11150 5300
Connection ~ 13100 600 
Wire Wire Line
	2300 4300 2900 4300
Connection ~ 2300 3100
Wire Wire Line
	2900 4200 2300 4200
Connection ~ 2300 4200
Wire Wire Line
	1250 3300 1400 3300
Wire Wire Line
	1400 3300 2900 3300
Wire Wire Line
	1250 3400 1500 3400
Wire Wire Line
	1500 3400 2900 3400
Wire Wire Line
	1250 3500 1600 3500
Wire Wire Line
	1600 3500 2900 3500
Wire Wire Line
	1250 3600 1700 3600
Wire Wire Line
	1700 3600 2900 3600
Wire Wire Line
	1250 3700 1800 3700
Wire Wire Line
	1800 3700 2900 3700
Wire Wire Line
	1250 3800 1900 3800
Wire Wire Line
	1900 3800 2900 3800
Wire Wire Line
	1250 3900 2000 3900
Wire Wire Line
	2000 3900 2900 3900
Wire Wire Line
	1250 4000 2100 4000
Wire Wire Line
	2100 4000 2900 4000
$Comp
L GNDD #PWR1
U 1 1 57024668
P 650 4100
F 0 "#PWR1" H 650 3850 50  0001 C CNN
F 1 "GNDD" H 650 3950 50  0000 C CNN
F 2 "" H 650 4100 50  0000 C CNN
F 3 "" H 650 4100 50  0000 C CNN
	1    650  4100
	1    0    0    -1  
$EndComp
Wire Wire Line
	750  3300 650  3300
Wire Wire Line
	650  3300 650  3400
Wire Wire Line
	650  3400 650  3500
Wire Wire Line
	650  3500 650  3600
Wire Wire Line
	650  3600 650  3700
Wire Wire Line
	650  3700 650  3800
Wire Wire Line
	650  3800 650  3900
Wire Wire Line
	650  3900 650  4000
Wire Wire Line
	650  4000 650  4100
Wire Wire Line
	750  3400 650  3400
Connection ~ 650  3400
Wire Wire Line
	650  3500 750  3500
Connection ~ 650  3500
Wire Wire Line
	750  3600 650  3600
Connection ~ 650  3600
Wire Wire Line
	750  3700 650  3700
Connection ~ 650  3700
Wire Wire Line
	750  3800 650  3800
Connection ~ 650  3800
Wire Wire Line
	750  3900 650  3900
Connection ~ 650  3900
Wire Wire Line
	750  4000 650  4000
Connection ~ 650  4000
$Comp
L R_Small R4
U 1 1 57025639
P 1700 3100
F 0 "R4" H 1730 3120 50  0000 L CNN
F 1 "10k" H 1730 3060 50  0000 L CNN
F 2 "" H 1700 3100 50  0000 C CNN
F 3 "" H 1700 3100 50  0000 C CNN
	1    1700 3100
	1    0    0    -1  
$EndComp
$Comp
L R_Small R6
U 1 1 57025692
P 1900 3100
F 0 "R6" H 1930 3120 50  0000 L CNN
F 1 "10k" H 1930 3060 50  0000 L CNN
F 2 "" H 1900 3100 50  0000 C CNN
F 3 "" H 1900 3100 50  0000 C CNN
	1    1900 3100
	1    0    0    -1  
$EndComp
$Comp
L R_Small R8
U 1 1 570256F2
P 2100 3100
F 0 "R8" H 2130 3120 50  0000 L CNN
F 1 "10k" H 2130 3060 50  0000 L CNN
F 2 "" H 2100 3100 50  0000 C CNN
F 3 "" H 2100 3100 50  0000 C CNN
	1    2100 3100
	1    0    0    -1  
$EndComp
$Comp
L R_Small R5
U 1 1 57025751
P 1800 2800
F 0 "R5" H 1830 2820 50  0000 L CNN
F 1 "10k" H 1830 2760 50  0000 L CNN
F 2 "" H 1800 2800 50  0000 C CNN
F 3 "" H 1800 2800 50  0000 C CNN
	1    1800 2800
	1    0    0    -1  
$EndComp
$Comp
L R_Small R7
U 1 1 570257C3
P 2000 2800
F 0 "R7" H 2030 2820 50  0000 L CNN
F 1 "10k" H 2030 2760 50  0000 L CNN
F 2 "" H 2000 2800 50  0000 C CNN
F 3 "" H 2000 2800 50  0000 C CNN
	1    2000 2800
	1    0    0    -1  
$EndComp
$Comp
L R_Small R1
U 1 1 57025838
P 1400 2800
F 0 "R1" H 1430 2820 50  0000 L CNN
F 1 "10k" H 1430 2760 50  0000 L CNN
F 2 "" H 1400 2800 50  0000 C CNN
F 3 "" H 1400 2800 50  0000 C CNN
	1    1400 2800
	1    0    0    -1  
$EndComp
Wire Wire Line
	1400 2900 1400 3300
Connection ~ 1400 3300
Wire Wire Line
	1600 2900 1600 3500
Connection ~ 1600 3500
Wire Wire Line
	1500 3200 1500 3400
Connection ~ 1500 3400
Wire Wire Line
	1700 3200 1700 3600
Connection ~ 1700 3600
Wire Wire Line
	1800 2900 1800 3700
Connection ~ 1800 3700
Wire Wire Line
	1900 3200 1900 3800
Connection ~ 1900 3800
Wire Wire Line
	2000 2900 2000 3900
Connection ~ 2000 3900
Wire Wire Line
	2100 3200 2100 4000
Connection ~ 2100 4000
$Comp
L +5VD #PWR2
U 1 1 57027DA0
P 1400 2500
F 0 "#PWR2" H 1400 2350 50  0001 C CNN
F 1 "+5VD" H 1400 2640 50  0000 C CNN
F 2 "" H 1400 2500 50  0000 C CNN
F 3 "" H 1400 2500 50  0000 C CNN
	1    1400 2500
	1    0    0    -1  
$EndComp
Wire Wire Line
	1400 2600 1500 2600
Wire Wire Line
	1500 2600 1600 2600
Wire Wire Line
	1600 2600 1700 2600
Wire Wire Line
	1700 2600 1800 2600
Wire Wire Line
	1800 2600 1900 2600
Wire Wire Line
	1900 2600 2000 2600
Wire Wire Line
	2000 2600 2100 2600
Wire Wire Line
	2100 2600 2100 3000
Wire Wire Line
	2000 2700 2000 2600
Connection ~ 2000 2600
Wire Wire Line
	1900 3000 1900 2600
Connection ~ 1900 2600
Wire Wire Line
	1800 2700 1800 2600
Connection ~ 1800 2600
Wire Wire Line
	1700 3000 1700 2600
Connection ~ 1700 2600
Wire Wire Line
	1600 2700 1600 2600
Connection ~ 1600 2600
Wire Wire Line
	1500 3000 1500 2600
Connection ~ 1500 2600
Wire Wire Line
	1400 2500 1400 2600
Wire Wire Line
	1400 2600 1400 2700
Connection ~ 1400 2600
Text Label 4350 3300 0    60   ~ 0
XA16
Text Label 4350 3400 0    60   ~ 0
XA17
Text Label 4350 3500 0    60   ~ 0
XA18
Text Label 4350 3600 0    60   ~ 0
XA19
Text Label 4350 3700 0    60   ~ 0
XA20
Text Label 4350 3800 0    60   ~ 0
XA21
Text Label 4350 3900 0    60   ~ 0
XA22
Text Label 4350 4000 0    60   ~ 0
XA23
Wire Wire Line
	4300 3300 4550 3300
Wire Wire Line
	4300 3400 4550 3400
Wire Wire Line
	4300 3500 4550 3500
Wire Wire Line
	4300 3600 4550 3600
Wire Wire Line
	4300 3700 4550 3700
Wire Wire Line
	4300 3800 4550 3800
Wire Wire Line
	4300 3900 4550 3900
Wire Wire Line
	4300 4000 4550 4000
Entry Wire Line
	4550 3300 4650 3200
Entry Wire Line
	4550 3400 4650 3300
Entry Wire Line
	4550 3500 4650 3400
Entry Wire Line
	4550 3600 4650 3500
Entry Wire Line
	4550 3700 4650 3600
Entry Wire Line
	4550 3800 4650 3700
Entry Wire Line
	4550 3900 4650 3800
Entry Wire Line
	4550 4000 4650 3900
$EndSCHEMATC
