EESchema Schematic File Version 2
LIBS:ymf825_mounter-rescue
LIBS:fs495-akizuki-cl
LIBS:power
LIBS:device
LIBS:transistors
LIBS:conn
LIBS:linear
LIBS:regul
LIBS:74xx
LIBS:cmos4000
LIBS:adc-dac
LIBS:memory
LIBS:xilinx
LIBS:microcontrollers
LIBS:dsp
LIBS:microchip
LIBS:analog_switches
LIBS:motorola
LIBS:texas
LIBS:intel
LIBS:audio
LIBS:interface
LIBS:digital-audio
LIBS:philips
LIBS:display
LIBS:cypress
LIBS:siliconi
LIBS:opto
LIBS:atmel
LIBS:contrib
LIBS:valves
EELAYER 25 0
EELAYER END
$Descr A4 11693 8268
encoding utf-8
Sheet 1 1
Title ""
Date ""
Rev ""
Comp ""
Comment1 ""
Comment2 ""
Comment3 ""
Comment4 ""
$EndDescr
$Comp
L YMF825board BD1
U 1 1 59C69BBD
P 4700 4300
F 0 "BD1" H 5100 4900 60  0000 C CNN
F 1 "YMF825board" H 4550 3650 60  0000 C CNN
F 2 "fs495-akizuki-fp:YMF825board" H 4700 4300 60  0001 C CNN
F 3 "" H 4700 4300 60  0001 C CNN
	1    4700 4300
	1    0    0    -1  
$EndComp
$Comp
L MCP3002 U1
U 1 1 59C69C4C
P 7150 3700
F 0 "U1" H 6900 3750 60  0000 C CNN
F 1 "MCP3002" H 7500 3750 60  0000 C CNN
F 2 "Housings_DIP:DIP-8_W7.62mm" H 7050 3550 60  0000 C CNN
F 3 "" H 7050 3550 60  0000 C CNN
	1    7150 3700
	1    0    0    -1  
$EndComp
$Comp
L +3.3V #PWR1
U 1 1 59C6A085
P 2350 2900
F 0 "#PWR1" H 2350 2750 50  0001 C CNN
F 1 "+3.3V" H 2350 3040 50  0000 C CNN
F 2 "" H 2350 2900 50  0001 C CNN
F 3 "" H 2350 2900 50  0001 C CNN
	1    2350 2900
	1    0    0    -1  
$EndComp
$Comp
L +5V #PWR3
U 1 1 59C6A09F
P 2650 2900
F 0 "#PWR3" H 2650 2750 50  0001 C CNN
F 1 "+5V" H 2650 3040 50  0000 C CNN
F 2 "" H 2650 2900 50  0001 C CNN
F 3 "" H 2650 2900 50  0001 C CNN
	1    2650 2900
	1    0    0    -1  
$EndComp
Wire Wire Line
	4000 3900 3300 3900
Wire Wire Line
	3300 3900 3300 5300
Wire Wire Line
	3300 5300 1900 5300
Wire Wire Line
	1900 5400 7950 5400
Wire Wire Line
	7950 5400 7950 4000
Wire Wire Line
	7950 4000 7600 4000
Wire Wire Line
	7600 3900 8050 3900
Wire Wire Line
	8050 3900 8050 5500
Wire Wire Line
	8050 5500 1900 5500
Wire Wire Line
	4000 4000 3400 4000
Wire Wire Line
	3400 4000 3400 5500
Connection ~ 3400 5500
Wire Wire Line
	4000 4100 3500 4100
Wire Wire Line
	3500 4100 3500 5400
Connection ~ 3500 5400
Wire Wire Line
	7600 4100 7850 4100
Wire Wire Line
	7850 4100 7850 5600
Wire Wire Line
	7850 5600 1900 5600
Wire Wire Line
	4000 4200 3600 4200
Wire Wire Line
	3600 4200 3600 5600
Connection ~ 3600 5600
Wire Wire Line
	1900 2900 2350 2900
Wire Wire Line
	1900 3000 2000 3000
Wire Wire Line
	2000 3000 2000 2900
Connection ~ 2000 2900
Wire Wire Line
	1900 3100 2650 3100
Wire Wire Line
	2650 3100 2650 2900
Wire Wire Line
	1900 3200 2000 3200
Wire Wire Line
	2000 3200 2000 3100
Connection ~ 2000 3100
$Comp
L GND #PWR2
U 1 1 59C6A1B9
P 2350 3800
F 0 "#PWR2" H 2350 3550 50  0001 C CNN
F 1 "GND" H 2350 3650 50  0000 C CNN
F 2 "" H 2350 3800 50  0001 C CNN
F 3 "" H 2350 3800 50  0001 C CNN
	1    2350 3800
	1    0    0    -1  
$EndComp
Wire Wire Line
	1900 3800 2350 3800
Wire Wire Line
	2000 3400 2000 3800
Wire Wire Line
	2000 3400 1900 3400
Connection ~ 2000 3800
Wire Wire Line
	1900 3500 2000 3500
Connection ~ 2000 3500
Wire Wire Line
	1900 3600 2000 3600
Connection ~ 2000 3600
Wire Wire Line
	1900 3700 2000 3700
Connection ~ 2000 3700
NoConn ~ 1900 4500
NoConn ~ 1900 4600
NoConn ~ 1900 4700
NoConn ~ 1900 4800
NoConn ~ 1900 4900
NoConn ~ 1900 5000
NoConn ~ 1900 5100
Wire Wire Line
	1900 5200 7750 5200
Wire Wire Line
	7750 5200 7750 4200
Wire Wire Line
	7750 4200 7600 4200
$Comp
L PWR_FLAG #FLG3
U 1 1 59C6A63A
P 2650 3100
F 0 "#FLG3" H 2650 3175 50  0001 C CNN
F 1 "PWR_FLAG" H 2650 3250 50  0000 C CNN
F 2 "" H 2650 3100 50  0001 C CNN
F 3 "" H 2650 3100 50  0001 C CNN
	1    2650 3100
	-1   0    0    1   
$EndComp
$Comp
L PWR_FLAG #FLG1
U 1 1 59C6A658
P 2350 2900
F 0 "#FLG1" H 2350 2975 50  0001 C CNN
F 1 "PWR_FLAG" H 2350 3050 50  0000 C CNN
F 2 "" H 2350 2900 50  0001 C CNN
F 3 "" H 2350 2900 50  0001 C CNN
	1    2350 2900
	-1   0    0    1   
$EndComp
$Comp
L PWR_FLAG #FLG2
U 1 1 59C6A904
P 2350 3800
F 0 "#FLG2" H 2350 3875 50  0001 C CNN
F 1 "PWR_FLAG" H 2350 3950 50  0000 C CNN
F 2 "" H 2350 3800 50  0001 C CNN
F 3 "" H 2350 3800 50  0001 C CNN
	1    2350 3800
	1    0    0    -1  
$EndComp
$Comp
L GND #PWR6
U 1 1 59C6AB5A
P 3800 6200
F 0 "#PWR6" H 3800 5950 50  0001 C CNN
F 1 "GND" H 3800 6050 50  0000 C CNN
F 2 "" H 3800 6200 50  0001 C CNN
F 3 "" H 3800 6200 50  0001 C CNN
	1    3800 6200
	1    0    0    -1  
$EndComp
$Comp
L +5V #PWR4
U 1 1 59C6ABDD
P 3100 4400
F 0 "#PWR4" H 3100 4250 50  0001 C CNN
F 1 "+5V" H 3100 4540 50  0000 C CNN
F 2 "" H 3100 4400 50  0001 C CNN
F 3 "" H 3100 4400 50  0001 C CNN
	1    3100 4400
	1    0    0    -1  
$EndComp
$Comp
L +3.3V #PWR5
U 1 1 59C6ABF1
P 3100 4700
F 0 "#PWR5" H 3100 4550 50  0001 C CNN
F 1 "+3.3V" H 3100 4840 50  0000 C CNN
F 2 "" H 3100 4700 50  0001 C CNN
F 3 "" H 3100 4700 50  0001 C CNN
	1    3100 4700
	1    0    0    -1  
$EndComp
Wire Wire Line
	4000 4300 3800 4300
Wire Wire Line
	3800 4300 3800 6200
Wire Wire Line
	4000 4700 3100 4700
Wire Wire Line
	4000 4400 3100 4400
NoConn ~ 4000 4500
$Comp
L Conn_01x02 J1
U 1 1 59C6AE52
P 4300 5950
F 0 "J1" H 4300 6100 50  0000 C CNN
F 1 "CONN_01X02" V 4400 5950 50  0000 C CNN
F 2 "Pin_Headers:Pin_Header_Straight_1x02_Pitch2.54mm" H 4300 5950 50  0001 C CNN
F 3 "" H 4300 5950 50  0001 C CNN
	1    4300 5950
	1    0    0    -1  
$EndComp
Wire Wire Line
	4000 4600 3900 4600
Wire Wire Line
	3900 4600 3900 5950
Wire Wire Line
	3900 5950 4100 5950
Wire Wire Line
	4100 6050 3800 6050
Connection ~ 3800 6050
NoConn ~ 1900 4000
NoConn ~ 1900 4100
NoConn ~ 1900 4200
NoConn ~ 1900 4300
NoConn ~ 1900 4400
$Comp
L RPi_GPIO_Rev2 P1
U 1 1 59C6B70A
P 1900 2900
F 0 "P1" H 1750 3150 60  0000 C CNN
F 1 "RPi_GPIO_Rev2" H 1750 3050 60  0000 C CNN
F 2 "Pin_Headers:Pin_Header_Straight_2x13_Pitch2.54mm" H 1800 3000 60  0000 C CNN
F 3 "" H 1900 3100 60  0000 C CNN
	1    1900 2900
	1    0    0    -1  
$EndComp
$Comp
L R R1
U 1 1 59C6BB21
P 5650 3900
F 0 "R1" V 5550 4050 50  0000 C CNN
F 1 "14.3k" V 5650 3900 50  0000 C CNN
F 2 "Resistors_THT:R_Axial_DIN0207_L6.3mm_D2.5mm_P7.62mm_Horizontal" V 5580 3900 50  0001 C CNN
F 3 "" H 5650 3900 50  0001 C CNN
	1    5650 3900
	0    1    1    0   
$EndComp
$Comp
L R R2
U 1 1 59C6BB5D
P 5950 4150
F 0 "R2" V 6030 4150 50  0000 C CNN
F 1 "27k" V 5950 4150 50  0000 C CNN
F 2 "Resistors_THT:R_Axial_DIN0207_L6.3mm_D2.5mm_P7.62mm_Horizontal" V 5880 4150 50  0001 C CNN
F 3 "" H 5950 4150 50  0001 C CNN
	1    5950 4150
	1    0    0    -1  
$EndComp
Wire Wire Line
	5400 3900 5500 3900
Wire Wire Line
	5800 3900 6700 3900
Wire Wire Line
	5950 3900 5950 4000
Connection ~ 5950 3900
$Comp
L GND #PWR7
U 1 1 59C6BEE6
P 5950 4400
F 0 "#PWR7" H 5950 4150 50  0001 C CNN
F 1 "GND" H 5950 4250 50  0000 C CNN
F 2 "" H 5950 4400 50  0001 C CNN
F 3 "" H 5950 4400 50  0001 C CNN
	1    5950 4400
	1    0    0    -1  
$EndComp
Wire Wire Line
	5950 4300 5950 4400
$Comp
L GND #PWR10
U 1 1 59C6C106
P 7150 4700
F 0 "#PWR10" H 7150 4450 50  0001 C CNN
F 1 "GND" H 7150 4550 50  0000 C CNN
F 2 "" H 7150 4700 50  0001 C CNN
F 3 "" H 7150 4700 50  0001 C CNN
	1    7150 4700
	1    0    0    -1  
$EndComp
Wire Wire Line
	7150 4700 7150 4600
$Comp
L +3.3V #PWR9
U 1 1 59C6C1A6
P 7150 3450
F 0 "#PWR9" H 7150 3300 50  0001 C CNN
F 1 "+3.3V" H 7150 3590 50  0000 C CNN
F 2 "" H 7150 3450 50  0001 C CNN
F 3 "" H 7150 3450 50  0001 C CNN
	1    7150 3450
	1    0    0    -1  
$EndComp
Wire Wire Line
	7150 3450 7150 3550
NoConn ~ 5400 4000
NoConn ~ 6700 4000
Text Notes 5750 3600 0    60   ~ 0
2.5+-2.5[V] -> \n1.65+-1.65[V]
$Comp
L Conn_01x02 J2
U 1 1 59C75696
P 6400 4150
F 0 "J2" H 6400 4300 50  0000 C CNN
F 1 "CONN_01X02" V 6500 4150 50  0000 C CNN
F 2 "Pin_Headers:Pin_Header_Straight_1x02_Pitch2.54mm" H 6400 4150 50  0001 C CNN
F 3 "" H 6400 4150 50  0001 C CNN
	1    6400 4150
	1    0    0    -1  
$EndComp
Wire Wire Line
	6200 3900 6200 4150
Connection ~ 6200 3900
$Comp
L GND #PWR8
U 1 1 59C75763
P 6200 4400
F 0 "#PWR8" H 6200 4150 50  0001 C CNN
F 1 "GND" H 6200 4250 50  0000 C CNN
F 2 "" H 6200 4400 50  0001 C CNN
F 3 "" H 6200 4400 50  0001 C CNN
	1    6200 4400
	1    0    0    -1  
$EndComp
Wire Wire Line
	6200 4250 6200 4400
$EndSCHEMATC
